<?xml version="1.0" encoding="UTF-8"?>
<glyph name="ampersand_ampersand.ss02_ss04" format="2">
	<advance width="1000"/>
	<note>
		ampersand_ampersand.ss02_ss04
  </note>
	<outline>
		<contour>
			<point x="885" y="14" type="curve" smooth="yes"/>
			<point x="938" y="-11"/>
			<point x="963" y="46"/>
			<point x="916" y="63" type="curve" smooth="yes"/>
			<point x="805" y="103"/>
			<point x="705" y="147"/>
			<point x="625" y="200" type="curve"/>
			<point x="649" y="221"/>
			<point x="671" y="242"/>
			<point x="691" y="265" type="curve" smooth="yes"/>
			<point x="723" y="302"/>
			<point x="689" y="321"/>
			<point x="674" y="301" type="curve" smooth="yes"/>
			<point x="652" y="270"/>
			<point x="626" y="241"/>
			<point x="599" y="215" type="curve"/>
			<point x="553" y="241"/>
			<point x="515" y="268"/>
			<point x="487" y="296" type="curve"/>
			<point x="614" y="321"/>
			<point x="629" y="360"/>
			<point x="560" y="436" type="curve" smooth="yes"/>
			<point x="543" y="454"/>
			<point x="516" y="466"/>
			<point x="500" y="466" type="curve" smooth="yes"/>
			<point x="416" y="466"/>
			<point x="422" y="361"/>
			<point x="475" y="301" type="curve"/>
			<point x="313" y="275"/>
			<point x="91" y="127"/>
			<point x="91" y="53" type="curve" smooth="yes"/>
			<point x="91" y="-46"/>
			<point x="356" y="13"/>
			<point x="556" y="149" type="curve"/>
			<point x="578" y="159"/>
			<point x="580" y="143"/>
			<point x="575" y="101" type="curve" smooth="yes"/>
			<point x="573" y="87"/>
			<point x="571" y="70"/>
			<point x="577" y="70" type="curve" smooth="yes"/>
			<point x="585" y="70"/>
			<point x="583" y="86"/>
			<point x="582" y="99" type="curve" smooth="yes"/>
			<point x="578" y="146"/>
			<point x="581" y="165"/>
			<point x="598" y="179" type="curve"/>
			<point x="598" y="180"/>
			<point x="599" y="180"/>
			<point x="600" y="181" type="curve"/>
			<point x="664" y="130"/>
			<point x="756" y="74"/>
		</contour>
		<contour>
			<point x="171" y="80" type="curve" smooth="yes"/>
			<point x="171" y="106"/>
			<point x="197" y="143"/>
			<point x="238" y="179" type="curve"/>
			<point x="258" y="191"/>
			<point x="259" y="178"/>
			<point x="252" y="139" type="curve" smooth="yes"/>
			<point x="247" y="112"/>
			<point x="244" y="84"/>
			<point x="255" y="84" type="curve" smooth="yes"/>
			<point x="269" y="84"/>
			<point x="266" y="113"/>
			<point x="263" y="136" type="curve" smooth="yes"/>
			<point x="258" y="175"/>
			<point x="259" y="194"/>
			<point x="282" y="213" type="curve"/>
			<point x="339" y="252"/>
			<point x="411" y="284"/>
			<point x="482" y="294" type="curve"/>
			<point x="486" y="289"/>
			<point x="515" y="251"/>
			<point x="580" y="197" type="curve"/>
			<point x="408" y="44"/>
			<point x="171" y="-25"/>
		</contour>
		<contour>
			<point x="480" y="303" type="curve"/>
			<point x="463" y="322"/>
			<point x="456" y="395"/>
			<point x="477" y="433" type="curve"/>
			<point x="486" y="445"/>
			<point x="487" y="425"/>
			<point x="482" y="383" type="curve" smooth="yes"/>
			<point x="481" y="375"/>
			<point x="480" y="368"/>
			<point x="484" y="368" type="curve" smooth="yes"/>
			<point x="488" y="368"/>
			<point x="487" y="379"/>
			<point x="487" y="391" type="curve" smooth="yes"/>
			<point x="486" y="431"/>
			<point x="486" y="459"/>
			<point x="521" y="455" type="curve"/>
			<point x="561" y="447"/>
			<point x="567" y="389"/>
			<point x="549" y="350" type="curve" smooth="yes"/>
			<point x="537" y="322"/>
			<point x="512" y="310"/>
		</contour>
		<contour>
			<point x="511" y="603" type="curve" smooth="yes"/>
			<point x="597" y="603"/>
			<point x="647" y="654"/>
			<point x="671" y="720" type="curve"/>
			<point x="760" y="757"/>
			<point x="852" y="833"/>
			<point x="928" y="976" type="curve"/>
			<point x="780" y="976" type="line"/>
			<point x="789" y="858"/>
			<point x="743" y="792"/>
			<point x="681" y="757" type="curve"/>
			<point x="692" y="817"/>
			<point x="687" y="883"/>
			<point x="669" y="933" type="curve"/>
			<point x="546" y="981" type="line"/>
			<point x="564" y="922"/>
			<point x="602" y="805"/>
			<point x="591" y="727" type="curve"/>
			<point x="534" y="718"/>
			<point x="478" y="723"/>
			<point x="443" y="731" type="curve"/>
			<point x="485" y="733"/>
			<point x="522" y="751"/>
			<point x="538" y="805" type="curve" smooth="yes"/>
			<point x="560" y="879"/>
			<point x="486" y="984"/>
			<point x="299" y="999" type="curve"/>
			<point x="181" y="916" type="line"/>
			<point x="219" y="754"/>
			<point x="363" y="603"/>
		</contour>
		<contour>
			<point x="511" y="653" type="curve" smooth="yes"/>
			<point x="457" y="654"/>
			<point x="414" y="680"/>
			<point x="381" y="717" type="curve"/>
			<point x="432" y="698"/>
			<point x="504" y="684"/>
			<point x="583" y="696" type="curve"/>
			<point x="571" y="669"/>
			<point x="549" y="652"/>
		</contour>
		<contour>
			<point x="466" y="805" type="curve" smooth="yes"/>
			<point x="466" y="716"/>
			<point x="353" y="750"/>
			<point x="319" y="827" type="curve"/>
			<point x="309" y="856"/>
			<point x="302" y="884"/>
			<point x="299" y="909" type="curve"/>
			<point x="382" y="898"/>
			<point x="466" y="871"/>
		</contour>
	</outline>
</glyph>
