<?xml version="1.0" encoding="UTF-8"?>
<glyph name="ampersand_ampersand.ss01_ss02" format="2">
	<advance width="1000"/>
	<note>
		ampersand_ampersand.ss01_ss02
  </note>
	<outline>
		<contour>
			<point x="67" y="112" type="curve" smooth="yes"/>
			<point x="96" y="112"/>
			<point x="140" y="161"/>
			<point x="178" y="278" type="curve"/>
			<point x="190" y="266"/>
			<point x="202" y="260"/>
			<point x="215" y="260" type="curve" smooth="yes"/>
			<point x="287" y="260"/>
			<point x="368" y="362"/>
			<point x="417" y="567" type="curve"/>
			<point x="319" y="674" type="line"/>
			<point x="317" y="672" type="line"/>
			<point x="381" y="527"/>
			<point x="327" y="292"/>
			<point x="214" y="292" type="curve" smooth="yes"/>
			<point x="204" y="292"/>
			<point x="194" y="296"/>
			<point x="186" y="302" type="curve"/>
			<point x="215" y="398"/>
			<point x="240" y="534"/>
			<point x="252" y="719" type="curve"/>
			<point x="244" y="719" type="line"/>
			<point x="220" y="545"/>
			<point x="196" y="410"/>
			<point x="170" y="320" type="curve"/>
			<point x="141" y="363"/>
			<point x="129" y="453"/>
			<point x="129" y="549" type="curve"/>
			<point x="130" y="550" type="line"/>
			<point x="145" y="572" type="line" smooth="yes"/>
			<point x="185" y="630"/>
			<point x="194" y="668"/>
			<point x="194" y="713" type="curve" smooth="yes"/>
			<point x="194" y="828"/>
			<point x="116" y="896"/>
			<point x="67" y="896" type="curve" smooth="yes"/>
			<point x="19" y="896"/>
			<point x="1" y="850"/>
			<point x="1" y="819" type="curve" smooth="yes"/>
			<point x="1" y="718"/>
			<point x="98" y="692"/>
			<point x="113" y="609" type="curve"/>
			<point x="100" y="589" type="line"/>
			<point x="89" y="572" type="line" smooth="yes"/>
			<point x="29" y="480"/>
			<point x="9" y="368"/>
			<point x="9" y="289" type="curve" smooth="yes"/>
			<point x="9" y="217"/>
			<point x="23" y="112"/>
		</contour>
		<contour>
			<point x="89" y="184" type="curve" smooth="yes"/>
			<point x="47" y="184"/>
			<point x="24" y="244"/>
			<point x="24" y="296" type="curve" smooth="yes"/>
			<point x="24" y="367"/>
			<point x="37" y="412"/>
			<point x="118" y="533" type="curve"/>
			<point x="118" y="421"/>
			<point x="136" y="341"/>
			<point x="163" y="297" type="curve"/>
			<point x="140" y="223"/>
			<point x="116" y="184"/>
		</contour>
		<contour>
			<point x="125" y="627" type="curve"/>
			<point x="105" y="696"/>
			<point x="36" y="729"/>
			<point x="36" y="812" type="curve" smooth="yes"/>
			<point x="36" y="848"/>
			<point x="55" y="862"/>
			<point x="81" y="862" type="curve" smooth="yes"/>
			<point x="119" y="862"/>
			<point x="174" y="812"/>
			<point x="174" y="746" type="curve" smooth="yes"/>
			<point x="174" y="700"/>
			<point x="154" y="669"/>
		</contour>
		<contour>
			<point x="511" y="603" type="curve" smooth="yes"/>
			<point x="597" y="603"/>
			<point x="647" y="654"/>
			<point x="671" y="720" type="curve"/>
			<point x="760" y="757"/>
			<point x="852" y="833"/>
			<point x="928" y="976" type="curve"/>
			<point x="780" y="976" type="line"/>
			<point x="789" y="858"/>
			<point x="743" y="792"/>
			<point x="681" y="757" type="curve"/>
			<point x="692" y="817"/>
			<point x="687" y="883"/>
			<point x="669" y="933" type="curve"/>
			<point x="546" y="981" type="line"/>
			<point x="564" y="922"/>
			<point x="602" y="805"/>
			<point x="591" y="727" type="curve"/>
			<point x="534" y="718"/>
			<point x="478" y="723"/>
			<point x="443" y="731" type="curve"/>
			<point x="485" y="733"/>
			<point x="522" y="751"/>
			<point x="538" y="805" type="curve" smooth="yes"/>
			<point x="560" y="879"/>
			<point x="486" y="984"/>
			<point x="299" y="999" type="curve"/>
			<point x="181" y="916" type="line"/>
			<point x="219" y="754"/>
			<point x="363" y="603"/>
		</contour>
		<contour>
			<point x="511" y="653" type="curve" smooth="yes"/>
			<point x="457" y="654"/>
			<point x="414" y="680"/>
			<point x="381" y="717" type="curve"/>
			<point x="432" y="698"/>
			<point x="504" y="684"/>
			<point x="583" y="696" type="curve"/>
			<point x="571" y="669"/>
			<point x="549" y="652"/>
		</contour>
		<contour>
			<point x="466" y="805" type="curve" smooth="yes"/>
			<point x="466" y="716"/>
			<point x="353" y="750"/>
			<point x="319" y="827" type="curve"/>
			<point x="309" y="856"/>
			<point x="302" y="884"/>
			<point x="299" y="909" type="curve"/>
			<point x="382" y="898"/>
			<point x="466" y="871"/>
		</contour>
	</outline>
</glyph>
