<?xml version="1.0" encoding="UTF-8"?>
<glyph name="B_B.ss02_ss03" format="2">
	<advance width="1000"/>
	<note>
		B_B.ss02_ss03
  </note>
	<outline>
		<contour>
			<point x="921" y="128" type="curve" smooth="yes"/>
			<point x="984" y="128"/>
			<point x="996" y="230"/>
			<point x="996" y="288" type="curve" smooth="yes"/>
			<point x="996" y="422"/>
			<point x="892" y="448"/>
			<point x="811" y="473" type="curve"/>
			<point x="905" y="476"/>
			<point x="1001" y="514"/>
			<point x="987" y="588" type="curve"/>
			<point x="944" y="602" type="line"/>
			<point x="944" y="498"/>
			<point x="880" y="476"/>
			<point x="799" y="477" type="curve"/>
			<point x="779" y="495"/>
			<point x="761" y="506"/>
			<point x="750" y="506" type="curve" smooth="yes"/>
			<point x="741" y="506"/>
			<point x="735" y="500"/>
			<point x="735" y="493" type="curve" smooth="yes"/>
			<point x="735" y="476"/>
			<point x="759" y="474"/>
			<point x="781" y="473" type="curve" smooth="yes"/>
			<point x="801" y="473" type="line"/>
			<point x="890" y="440"/>
			<point x="990" y="353"/>
			<point x="990" y="270" type="curve" smooth="yes"/>
			<point x="990" y="214"/>
			<point x="971" y="160"/>
			<point x="914" y="160" type="curve" smooth="yes"/>
			<point x="786" y="160"/>
			<point x="682" y="361"/>
			<point x="678" y="500" type="curve" smooth="yes"/>
			<point x="678" y="508"/>
			<point x="678" y="516"/>
			<point x="678" y="524" type="curve"/>
			<point x="894" y="577"/>
			<point x="991" y="659"/>
			<point x="991" y="777" type="curve" smooth="yes"/>
			<point x="991" y="825"/>
			<point x="967" y="860"/>
			<point x="920" y="860" type="curve" smooth="yes"/>
			<point x="833" y="860"/>
			<point x="664" y="642"/>
			<point x="645" y="520" type="curve"/>
			<point x="608" y="512"/>
			<point x="568" y="505"/>
			<point x="525" y="500" type="curve"/>
			<point x="526" y="494" type="line"/>
			<point x="568" y="501"/>
			<point x="608" y="508"/>
			<point x="644" y="516" type="curve"/>
			<point x="643" y="510"/>
			<point x="643" y="504"/>
			<point x="643" y="499" type="curve" smooth="yes"/>
			<point x="643" y="388"/>
			<point x="830" y="128"/>
		</contour>
		<contour>
			<point x="176" y="859" type="curve"/>
			<point x="506" y="525" type="line"/>
			<point x="617" y="648" type="line"/>
			<point x="582" y="645" type="line"/>
			<point x="632" y="690"/>
			<point x="766" y="778"/>
			<point x="766" y="814" type="curve" smooth="yes"/>
			<point x="766" y="827"/>
			<point x="748" y="834"/>
			<point x="712" y="834" type="curve" smooth="yes"/>
			<point x="382" y="837"/>
			<point x="553" y="835"/>
			<point x="354" y="835" type="curve" smooth="yes"/>
			<point x="316" y="835" type="line"/>
			<point x="206" y="939" type="line"/>
			<point x="235" y="957"/>
			<point x="240" y="961"/>
			<point x="250" y="961" type="curve" smooth="yes"/>
			<point x="303" y="961"/>
			<point x="421" y="889"/>
			<point x="479" y="889" type="curve" smooth="yes"/>
			<point x="523" y="889"/>
			<point x="513" y="942"/>
			<point x="542" y="942" type="curve" smooth="yes"/>
			<point x="552" y="942"/>
			<point x="564" y="926"/>
			<point x="574" y="930" type="curve"/>
			<point x="574" y="983" type="line"/>
			<point x="505" y="983" type="line"/>
			<point x="500" y="968"/>
			<point x="478" y="944"/>
			<point x="457" y="944" type="curve" smooth="yes"/>
			<point x="436" y="944"/>
			<point x="364" y="959"/>
			<point x="318" y="969" type="curve" smooth="yes"/>
			<point x="265" y="981"/>
			<point x="233" y="987"/>
			<point x="220" y="987" type="curve" smooth="yes"/>
			<point x="194" y="987"/>
			<point x="190" y="989"/>
			<point x="146" y="959" type="curve" smooth="yes"/>
			<point x="124" y="944"/>
			<point x="131" y="925"/>
			<point x="155" y="894" type="curve" smooth="yes"/>
			<point x="167" y="878"/>
			<point x="184" y="866"/>
		</contour>
		<contour>
			<point x="526" y="704" type="curve" smooth="yes"/>
			<point x="501" y="704"/>
			<point x="488" y="716"/>
			<point x="487" y="739" type="curve"/>
			<point x="415" y="739" type="line"/>
			<point x="355" y="799" type="line"/>
			<point x="439" y="811"/>
			<point x="542" y="812"/>
			<point x="566" y="812" type="curve" smooth="yes"/>
			<point x="612" y="812"/>
			<point x="690" y="806"/>
			<point x="690" y="781" type="curve" smooth="yes"/>
			<point x="690" y="758"/>
			<point x="570" y="704"/>
		</contour>
		<contour>
			<point x="679" y="529" type="curve"/>
			<point x="690" y="665"/>
			<point x="802" y="830"/>
			<point x="928" y="830" type="curve" smooth="yes"/>
			<point x="964" y="830"/>
			<point x="985" y="806"/>
			<point x="985" y="776" type="curve" smooth="yes"/>
			<point x="985" y="717"/>
			<point x="901" y="591"/>
		</contour>
	</outline>
</glyph>
