<?xml version="1.0" encoding="UTF-8"?>
<glyph name="D.ss04" format="2">
	<advance width="1000"/>
	<note>
		D.ss04
  </note>
	<outline>
		<contour>
			<point x="470" y="0" type="curve" smooth="yes"/>
			<point x="720" y="0"/>
			<point x="851" y="105"/>
			<point x="701" y="291" type="curve" smooth="yes"/>
			<point x="646" y="360"/>
			<point x="555" y="418"/>
			<point x="458" y="436" type="curve" smooth="yes"/>
			<point x="452" y="437"/>
			<point x="448" y="436"/>
			<point x="444" y="433" type="curve"/>
			<point x="428" y="417" type="line" smooth="yes"/>
			<point x="422" y="411"/>
			<point x="424" y="406"/>
			<point x="432" y="405" type="curve" smooth="yes"/>
			<point x="456" y="402"/>
			<point x="457" y="389"/>
			<point x="458" y="363" type="curve" smooth="yes"/>
			<point x="460" y="327"/>
			<point x="459" y="308"/>
			<point x="444" y="307" type="curve" smooth="yes"/>
			<point x="224" y="287"/>
			<point x="68" y="89"/>
			<point x="280" y="23" type="curve" smooth="yes"/>
			<point x="328" y="8"/>
			<point x="392" y="0"/>
		</contour>
		<contour>
			<point x="489" y="8" type="curve" smooth="yes"/>
			<point x="414" y="8"/>
			<point x="371" y="18"/>
			<point x="327" y="35" type="curve" smooth="yes"/>
			<point x="148" y="104"/>
			<point x="241" y="291"/>
			<point x="438" y="291" type="curve" smooth="yes"/>
			<point x="484" y="291"/>
			<point x="541" y="283"/>
			<point x="587" y="261" type="curve" smooth="yes"/>
			<point x="616" y="247"/>
			<point x="620" y="219"/>
			<point x="612" y="187" type="curve" smooth="yes"/>
			<point x="607" y="166"/>
			<point x="606" y="141"/>
			<point x="615" y="142" type="curve" smooth="yes"/>
			<point x="626" y="143"/>
			<point x="624" y="165"/>
			<point x="621" y="185" type="curve" smooth="yes"/>
			<point x="615" y="224"/>
			<point x="619" y="244"/>
			<point x="636" y="225" type="curve" smooth="yes"/>
			<point x="654" y="205"/>
			<point x="661" y="179"/>
			<point x="656" y="149" type="curve" smooth="yes"/>
			<point x="655" y="144"/>
			<point x="661" y="141"/>
			<point x="664" y="145" type="curve" smooth="yes"/>
			<point x="689" y="175"/>
			<point x="700" y="200"/>
			<point x="700" y="221" type="curve" smooth="yes"/>
			<point x="700" y="288"/>
			<point x="591" y="310"/>
			<point x="488" y="309" type="curve" smooth="yes"/>
			<point x="465" y="309"/>
			<point x="462" y="322"/>
			<point x="462" y="339" type="curve" smooth="yes"/>
			<point x="462" y="405"/>
			<point x="455" y="405"/>
			<point x="491" y="400" type="curve" smooth="yes"/>
			<point x="591" y="384"/>
			<point x="660" y="336"/>
			<point x="699" y="283" type="curve" smooth="yes"/>
			<point x="794" y="152"/>
			<point x="661" y="8"/>
		</contour>
	</outline>
</glyph>
