<?xml version="1.0" encoding="UTF-8"?>
<glyph name="E.ss01" format="2">
	<advance width="1000"/>
	<note>
		E.ss01
  </note>
	<outline>
		<contour>
			<point x="72" y="95" type="curve" smooth="yes"/>
			<point x="149" y="95"/>
			<point x="173" y="401"/>
			<point x="456" y="480" type="curve"/>
			<point x="455" y="487" type="line"/>
			<point x="217" y="429"/>
			<point x="188" y="248"/>
			<point x="102" y="248" type="curve" smooth="yes"/>
			<point x="67" y="248"/>
			<point x="49" y="298"/>
			<point x="44" y="435" type="curve"/>
			<point x="104" y="516"/>
			<point x="321" y="497"/>
			<point x="321" y="602" type="curve" smooth="yes"/>
			<point x="321" y="676"/>
			<point x="118" y="863"/>
			<point x="59" y="863" type="curve" smooth="yes"/>
			<point x="13" y="863"/>
			<point x="16" y="656"/>
			<point x="16" y="537" type="curve" smooth="yes"/>
			<point x="16" y="324"/>
			<point x="24" y="95"/>
		</contour>
		<contour>
			<point x="43" y="455" type="curve"/>
			<point x="42" y="478"/>
			<point x="42" y="504"/>
			<point x="42" y="533" type="curve" smooth="yes"/>
			<point x="42" y="672"/>
			<point x="55" y="782"/>
			<point x="127" y="782" type="curve" smooth="yes"/>
			<point x="175" y="782"/>
			<point x="240" y="717"/>
			<point x="240" y="623" type="curve" smooth="yes"/>
			<point x="240" y="513"/>
			<point x="97" y="529"/>
		</contour>
	</outline>
</glyph>
