<?xml version="1.0" encoding="UTF-8"?>
<glyph name="eight.ss02" format="2">
	<advance width="1000"/>
	<note>
		eight.ss02
  </note>
	<outline>
		<contour>
			<point x="547" y="595" type="curve" smooth="yes"/>
			<point x="610" y="595"/>
			<point x="643" y="640"/>
			<point x="643" y="684" type="curve" smooth="yes"/>
			<point x="643" y="739"/>
			<point x="586" y="755"/>
			<point x="611" y="774" type="curve" smooth="yes"/>
			<point x="683" y="829"/>
			<point x="773" y="883"/>
			<point x="773" y="923" type="curve" smooth="yes"/>
			<point x="773" y="1047"/>
			<point x="433" y="973"/>
			<point x="326" y="982" type="curve" smooth="yes"/>
			<point x="305" y="984"/>
			<point x="358" y="875"/>
			<point x="326" y="875" type="curve" smooth="yes"/>
			<point x="303" y="875"/>
			<point x="283" y="871"/>
			<point x="280" y="830" type="curve" smooth="yes"/>
			<point x="276" y="775"/>
			<point x="287" y="682"/>
			<point x="342" y="682" type="curve" smooth="yes"/>
			<point x="410" y="682"/>
			<point x="697" y="920"/>
			<point x="631" y="917" type="curve" smooth="yes"/>
			<point x="612" y="916"/>
			<point x="429" y="836"/>
			<point x="388" y="848" type="curve" smooth="yes"/>
			<point x="358" y="857"/>
			<point x="361" y="934"/>
			<point x="406" y="943" type="curve" smooth="yes"/>
			<point x="467" y="955"/>
			<point x="667" y="978"/>
			<point x="667" y="934" type="curve" smooth="yes"/>
			<point x="667" y="847"/>
			<point x="465" y="787"/>
			<point x="463" y="679" type="curve" smooth="yes"/>
			<point x="462" y="623"/>
			<point x="504" y="595"/>
		</contour>
		<contour>
			<point x="553" y="636" type="curve" smooth="yes"/>
			<point x="532" y="636"/>
			<point x="518" y="656"/>
			<point x="518" y="678" type="curve" smooth="yes"/>
			<point x="518" y="705"/>
			<point x="545" y="740"/>
			<point x="566" y="740" type="curve" smooth="yes"/>
			<point x="583" y="740"/>
			<point x="592" y="713"/>
			<point x="592" y="688" type="curve" smooth="yes"/>
			<point x="592" y="658"/>
			<point x="582" y="636"/>
		</contour>
	</outline>
</glyph>
