<?xml version="1.0" encoding="UTF-8"?>
<glyph name="exclam_exclam.ss01_ss02" format="2">
	<advance width="1000"/>
	<note>
		exclam_exclam.ss01_ss02
  </note>
	<outline>
		<contour>
			<point x="86" y="858" type="curve"/>
			<point x="67" y="414" type="line"/>
			<point x="106" y="494"/>
			<point x="191" y="522"/>
			<point x="281" y="469" type="curve"/>
			<point x="289" y="480" type="line"/>
			<point x="119" y="631"/>
			<point x="123" y="728"/>
			<point x="119" y="867" type="curve"/>
			<point x="91" y="871" type="line"/>
			<point x="63" y="853"/>
			<point x="35" y="820"/>
			<point x="22" y="786" type="curve"/>
			<point x="36" y="768" type="line"/>
			<point x="49" y="802"/>
			<point x="65" y="828"/>
		</contour>
		<contour>
			<point x="196" y="251" type="curve" smooth="yes"/>
			<point x="254" y="251"/>
			<point x="301" y="297"/>
			<point x="301" y="353" type="curve" smooth="yes"/>
			<point x="301" y="409"/>
			<point x="254" y="455"/>
			<point x="196" y="455" type="curve" smooth="yes"/>
			<point x="138" y="455"/>
			<point x="91" y="409"/>
			<point x="91" y="353" type="curve" smooth="yes"/>
			<point x="91" y="297"/>
			<point x="138" y="251"/>
		</contour>
		<contour>
			<point x="520" y="643" type="curve" smooth="yes"/>
			<point x="531" y="648"/>
			<point x="531" y="664"/>
			<point x="531" y="678" type="curve" smooth="yes"/>
			<point x="531" y="758"/>
			<point x="539" y="840"/>
			<point x="539" y="919" type="curve" smooth="yes"/>
			<point x="539" y="937"/>
			<point x="540" y="954"/>
			<point x="533" y="972" type="curve" smooth="yes"/>
			<point x="515" y="1019"/>
			<point x="464" y="1000"/>
			<point x="426" y="990" type="curve" smooth="yes"/>
			<point x="375" y="977"/>
			<point x="341" y="962"/>
			<point x="291" y="935" type="curve" smooth="yes"/>
			<point x="276" y="927"/>
			<point x="259" y="908"/>
			<point x="268" y="892" type="curve" smooth="yes"/>
			<point x="274" y="881"/>
			<point x="291" y="878"/>
			<point x="303" y="875" type="curve" smooth="yes"/>
			<point x="347" y="864"/>
			<point x="384" y="832"/>
			<point x="409" y="795" type="curve" smooth="yes"/>
			<point x="435" y="756"/>
			<point x="451" y="714"/>
			<point x="473" y="672" type="curve" smooth="yes"/>
			<point x="478" y="663"/>
			<point x="481" y="654"/>
			<point x="490" y="647" type="curve" smooth="yes"/>
			<point x="498" y="641"/>
			<point x="511" y="639"/>
		</contour>
		<contour>
			<point x="506" y="517" type="curve" smooth="yes"/>
			<point x="525" y="517"/>
			<point x="533" y="533"/>
			<point x="537" y="549" type="curve" smooth="yes"/>
			<point x="541" y="565"/>
			<point x="555" y="597"/>
			<point x="543" y="599" type="curve" smooth="yes"/>
			<point x="532" y="601"/>
			<point x="516" y="615"/>
			<point x="510" y="627" type="curve"/>
			<point x="504" y="625" type="line"/>
			<point x="505" y="618"/>
			<point x="504" y="616"/>
			<point x="497" y="609" type="curve" smooth="yes"/>
			<point x="495" y="607"/>
			<point x="494" y="571"/>
			<point x="492" y="577" type="curve" smooth="yes"/>
			<point x="490" y="583"/>
			<point x="475" y="596"/>
			<point x="473" y="595" type="curve" smooth="yes"/>
			<point x="461" y="589"/>
			<point x="464" y="563"/>
			<point x="464" y="545" type="curve" smooth="yes"/>
			<point x="464" y="526"/>
			<point x="487" y="517"/>
		</contour>
		<contour>
			<point x="500" y="702" type="curve" smooth="yes"/>
			<point x="495" y="703"/>
			<point x="494" y="731"/>
			<point x="493" y="743" type="curve" smooth="yes"/>
			<point x="492" y="755"/>
			<point x="486" y="781"/>
			<point x="486" y="787" type="curve" smooth="yes"/>
			<point x="486" y="791"/>
			<point x="495" y="795"/>
			<point x="508" y="794" type="curve"/>
			<point x="514" y="790"/>
			<point x="510" y="787"/>
			<point x="510" y="780" type="curve" smooth="yes"/>
			<point x="510" y="772"/>
			<point x="508" y="748"/>
			<point x="509" y="735" type="curve" smooth="yes"/>
			<point x="510" y="724"/>
			<point x="505" y="701"/>
		</contour>
		<contour>
			<point x="450" y="828" type="curve" smooth="yes"/>
			<point x="445" y="826"/>
			<point x="435" y="818"/>
			<point x="433" y="832" type="curve" smooth="yes"/>
			<point x="431" y="846"/>
			<point x="414" y="860"/>
			<point x="405" y="870" type="curve" smooth="yes"/>
			<point x="401" y="874"/>
			<point x="372" y="888"/>
			<point x="363" y="890" type="curve" smooth="yes"/>
			<point x="355" y="892"/>
			<point x="350" y="901"/>
			<point x="354" y="903" type="curve" smooth="yes"/>
			<point x="356" y="904"/>
			<point x="336" y="914"/>
			<point x="369" y="910" type="curve" smooth="yes"/>
			<point x="402" y="906"/>
			<point x="435" y="883"/>
			<point x="443" y="872" type="curve" smooth="yes"/>
			<point x="451" y="861"/>
			<point x="456" y="830"/>
		</contour>
		<contour>
			<point x="496" y="834" type="curve"/>
			<point x="487" y="834"/>
			<point x="481" y="833"/>
			<point x="479" y="846" type="curve" smooth="yes"/>
			<point x="477" y="860"/>
			<point x="485" y="864"/>
			<point x="495" y="868" type="curve" smooth="yes"/>
			<point x="504" y="872"/>
			<point x="510" y="869"/>
			<point x="511" y="860" type="curve" smooth="yes"/>
			<point x="512" y="850"/>
			<point x="506" y="840"/>
		</contour>
		<contour>
			<point x="498" y="907" type="curve" smooth="yes"/>
			<point x="488" y="904"/>
			<point x="483" y="906"/>
			<point x="481" y="914" type="curve" smooth="yes"/>
			<point x="479" y="921"/>
			<point x="470" y="925"/>
			<point x="456" y="931" type="curve" smooth="yes"/>
			<point x="441" y="937"/>
			<point x="448" y="957"/>
			<point x="450" y="966" type="curve" smooth="yes"/>
			<point x="453" y="979"/>
			<point x="465" y="977"/>
			<point x="475" y="980" type="curve"/>
			<point x="496" y="971" type="line" smooth="yes"/>
			<point x="511" y="965"/>
			<point x="510" y="953"/>
			<point x="514" y="937" type="curve" smooth="yes"/>
			<point x="518" y="922"/>
			<point x="508" y="910"/>
		</contour>
	</outline>
</glyph>
