<?xml version="1.0" encoding="UTF-8"?>
<glyph name="F" format="2">
	<advance width="1000"/>
	<unicode hex="0046"/>
	<note>
		F
  </note>
	<outline>
		<contour>
			<point x="19" y="53" type="line"/>
			<point x="25" y="44" type="line"/>
			<point x="224" y="253" type="line"/>
			<point x="213" y="262" type="line"/>
			<point x="98" y="149" type="line"/>
			<point x="119" y="189"/>
			<point x="131" y="227"/>
			<point x="100" y="376" type="curve" smooth="yes"/>
			<point x="82" y="467" type="line"/>
			<point x="186" y="476"/>
			<point x="178" y="406"/>
			<point x="136" y="333" type="curve"/>
			<point x="143" y="328" type="line"/>
			<point x="250" y="540" type="line"/>
			<point x="245" y="542" type="line"/>
			<point x="225" y="515"/>
			<point x="197" y="485"/>
			<point x="80" y="477" type="curve"/>
			<point x="34" y="721"/>
			<point x="49" y="785"/>
			<point x="114" y="785" type="curve" smooth="yes"/>
			<point x="183" y="785"/>
			<point x="352" y="648"/>
			<point x="302" y="389" type="curve"/>
			<point x="305" y="385" type="line"/>
			<point x="392" y="499" type="line"/>
			<point x="270" y="730"/>
			<point x="73" y="914"/>
			<point x="37" y="933" type="curve"/>
			<point x="23" y="926" type="line"/>
			<point x="13" y="895"/>
			<point x="13" y="860"/>
			<point x="13" y="804" type="curve" smooth="yes"/>
			<point x="13" y="706"/>
			<point x="32" y="584"/>
			<point x="47" y="466" type="curve"/>
			<point x="15" y="444"/>
			<point x="4" y="419"/>
			<point x="4" y="396" type="curve" smooth="yes"/>
			<point x="4" y="354"/>
			<point x="30" y="310"/>
			<point x="65" y="284" type="curve"/>
			<point x="69" y="191"/>
			<point x="62" y="113"/>
			<point x="29" y="67" type="curve" smooth="yes"/>
		</contour>
		<contour>
			<point x="59" y="362" type="curve"/>
			<point x="39" y="371"/>
			<point x="22" y="388"/>
			<point x="22" y="414" type="curve" smooth="yes"/>
			<point x="22" y="422"/>
			<point x="25" y="442"/>
			<point x="48" y="459" type="curve"/>
			<point x="52" y="426"/>
			<point x="56" y="393"/>
		</contour>
		<contour>
			<point x="188" y="1" type="curve" smooth="yes"/>
			<point x="276" y="1"/>
			<point x="281" y="178"/>
			<point x="329" y="247" type="curve" smooth="yes"/>
			<point x="344" y="268"/>
			<point x="363" y="276"/>
			<point x="386" y="276" type="curve" smooth="yes"/>
			<point x="427" y="276"/>
			<point x="479" y="251"/>
			<point x="531" y="234" type="curve" smooth="yes"/>
			<point x="565" y="223"/>
			<point x="612" y="215"/>
			<point x="692" y="208" type="curve" smooth="yes"/>
			<point x="703" y="207"/>
			<point x="706" y="204"/>
			<point x="703" y="171" type="curve" smooth="yes"/>
			<point x="701" y="151"/>
			<point x="695" y="124"/>
			<point x="708" y="124" type="curve" smooth="yes"/>
			<point x="719" y="124"/>
			<point x="715" y="150"/>
			<point x="712" y="172" type="curve" smooth="yes"/>
			<point x="707" y="209"/>
			<point x="712" y="208"/>
			<point x="747" y="207" type="curve" smooth="yes"/>
			<point x="782" y="206"/>
			<point x="779" y="241"/>
			<point x="743" y="236" type="curve" smooth="yes"/>
			<point x="530" y="206"/>
			<point x="475" y="266"/>
			<point x="440" y="307" type="curve" smooth="yes"/>
			<point x="414" y="338"/>
			<point x="419" y="375"/>
			<point x="435" y="401" type="curve" smooth="yes"/>
			<point x="448" y="419"/>
			<point x="458" y="427"/>
			<point x="463" y="428" type="curve" smooth="yes"/>
			<point x="469" y="429"/>
			<point x="473" y="409"/>
			<point x="469" y="373" type="curve" smooth="yes"/>
			<point x="468" y="363"/>
			<point x="468" y="354"/>
			<point x="474" y="354" type="curve" smooth="yes"/>
			<point x="479" y="354"/>
			<point x="479" y="366"/>
			<point x="478" y="372" type="curve" smooth="yes"/>
			<point x="477" y="380"/>
			<point x="474" y="397"/>
			<point x="474" y="411" type="curve" smooth="yes"/>
			<point x="474" y="427"/>
			<point x="480" y="441"/>
			<point x="496" y="437" type="curve" smooth="yes"/>
			<point x="546" y="425"/>
			<point x="545" y="288"/>
			<point x="614" y="288" type="curve" smooth="yes"/>
			<point x="661" y="288"/>
			<point x="660" y="352"/>
			<point x="635" y="346" type="curve" smooth="yes"/>
			<point x="615" y="341"/>
			<point x="657" y="294"/>
			<point x="615" y="294" type="curve" smooth="yes"/>
			<point x="585" y="294"/>
			<point x="578" y="326"/>
			<point x="576" y="372" type="curve" smooth="yes"/>
			<point x="576" y="410"/>
			<point x="570" y="453"/>
			<point x="528" y="453" type="curve" smooth="yes"/>
			<point x="484" y="453"/>
			<point x="397" y="423"/>
			<point x="397" y="367" type="curve" smooth="yes"/>
			<point x="397" y="342"/>
			<point x="412" y="311"/>
			<point x="451" y="282" type="curve" smooth="yes"/>
			<point x="457" y="278"/>
			<point x="454" y="273"/>
			<point x="448" y="275" type="curve" smooth="yes"/>
			<point x="393" y="292"/>
			<point x="385" y="308"/>
			<point x="348" y="312" type="curve" smooth="yes"/>
			<point x="226" y="325"/>
			<point x="290" y="9"/>
			<point x="189" y="9" type="curve" smooth="yes"/>
			<point x="134" y="9"/>
			<point x="159" y="95"/>
			<point x="130" y="98" type="curve" smooth="yes"/>
			<point x="92" y="102"/>
			<point x="55" y="47"/>
			<point x="55" y="17" type="curve" smooth="yes"/>
			<point x="55" y="-4"/>
			<point x="84" y="-3"/>
			<point x="84" y="16" type="curve" smooth="yes"/>
			<point x="84" y="24"/>
			<point x="78" y="30"/>
			<point x="78" y="46" type="curve" smooth="yes"/>
			<point x="78" y="59"/>
			<point x="91" y="79"/>
			<point x="102" y="79" type="curve" smooth="yes"/>
			<point x="124" y="79"/>
			<point x="132" y="1"/>
		</contour>
		<contour>
			<point x="921" y="128" type="curve" smooth="yes"/>
			<point x="984" y="128"/>
			<point x="996" y="230"/>
			<point x="996" y="288" type="curve" smooth="yes"/>
			<point x="996" y="422"/>
			<point x="892" y="448"/>
			<point x="811" y="473" type="curve"/>
			<point x="905" y="476"/>
			<point x="1001" y="514"/>
			<point x="987" y="588" type="curve"/>
			<point x="944" y="602" type="line"/>
			<point x="944" y="498"/>
			<point x="880" y="476"/>
			<point x="799" y="477" type="curve"/>
			<point x="779" y="495"/>
			<point x="761" y="506"/>
			<point x="750" y="506" type="curve" smooth="yes"/>
			<point x="741" y="506"/>
			<point x="735" y="500"/>
			<point x="735" y="493" type="curve" smooth="yes"/>
			<point x="735" y="476"/>
			<point x="759" y="474"/>
			<point x="781" y="473" type="curve" smooth="yes"/>
			<point x="801" y="473" type="line"/>
			<point x="890" y="440"/>
			<point x="990" y="353"/>
			<point x="990" y="270" type="curve" smooth="yes"/>
			<point x="990" y="214"/>
			<point x="971" y="160"/>
			<point x="914" y="160" type="curve" smooth="yes"/>
			<point x="786" y="160"/>
			<point x="682" y="361"/>
			<point x="678" y="500" type="curve" smooth="yes"/>
			<point x="678" y="508"/>
			<point x="678" y="516"/>
			<point x="678" y="524" type="curve"/>
			<point x="894" y="577"/>
			<point x="991" y="659"/>
			<point x="991" y="777" type="curve" smooth="yes"/>
			<point x="991" y="825"/>
			<point x="967" y="860"/>
			<point x="920" y="860" type="curve" smooth="yes"/>
			<point x="833" y="860"/>
			<point x="664" y="642"/>
			<point x="645" y="520" type="curve"/>
			<point x="608" y="512"/>
			<point x="568" y="505"/>
			<point x="525" y="500" type="curve"/>
			<point x="526" y="494" type="line"/>
			<point x="568" y="501"/>
			<point x="608" y="508"/>
			<point x="644" y="516" type="curve"/>
			<point x="643" y="510"/>
			<point x="643" y="504"/>
			<point x="643" y="499" type="curve" smooth="yes"/>
			<point x="643" y="388"/>
			<point x="830" y="128"/>
		</contour>
		<contour>
			<point x="390" y="641" type="line"/>
			<point x="505" y="526" type="line"/>
			<point x="549" y="570"/>
			<point x="569" y="591"/>
			<point x="569" y="601" type="curve" smooth="yes"/>
			<point x="569" y="618"/>
			<point x="501" y="644"/>
			<point x="501" y="681" type="curve" smooth="yes"/>
			<point x="501" y="862" type="line"/>
			<point x="622" y="862" type="line"/>
			<point x="622" y="885" type="line"/>
			<point x="501" y="885" type="line"/>
			<point x="501" y="957" type="line"/>
			<point x="562" y="950"/>
			<point x="657" y="943"/>
			<point x="703" y="932" type="curve" smooth="yes"/>
			<point x="729" y="926"/>
			<point x="741" y="917"/>
			<point x="741" y="905" type="curve" smooth="yes"/>
			<point x="741" y="887"/>
			<point x="709" y="866"/>
			<point x="681" y="853" type="curve" smooth="yes"/>
			<point x="627" y="828"/>
			<point x="581" y="812"/>
			<point x="581" y="777" type="curve" smooth="yes"/>
			<point x="581" y="764"/>
			<point x="588" y="748"/>
			<point x="603" y="731" type="curve"/>
			<point x="718" y="782" type="line"/>
			<point x="709" y="795"/>
			<point x="702" y="806"/>
			<point x="702" y="823" type="curve" smooth="yes"/>
			<point x="702" y="856"/>
			<point x="764" y="893"/>
			<point x="816" y="913" type="curve" smooth="yes"/>
			<point x="861" y="930"/>
			<point x="897" y="945"/>
			<point x="918" y="955" type="curve" smooth="yes"/>
			<point x="933" y="963"/>
			<point x="940" y="968"/>
			<point x="940" y="972" type="curve" smooth="yes"/>
			<point x="940" y="977"/>
			<point x="928" y="979"/>
			<point x="903" y="979" type="curve" smooth="yes"/>
			<point x="876" y="979"/>
			<point x="728" y="965"/>
			<point x="672" y="965" type="curve" smooth="yes"/>
			<point x="550" y="965"/>
			<point x="505" y="988"/>
			<point x="498" y="987" type="curve" smooth="yes"/>
			<point x="328" y="954" type="line"/>
			<point x="336" y="932" type="line"/>
			<point x="426" y="951" type="line"/>
			<point x="426" y="885" type="line"/>
			<point x="249" y="885" type="line"/>
			<point x="249" y="862" type="line"/>
			<point x="250" y="862" type="line" smooth="yes"/>
			<point x="302" y="862"/>
			<point x="316" y="815"/>
			<point x="327" y="750" type="curve"/>
			<point x="340" y="766" type="line"/>
			<point x="341" y="798"/>
			<point x="344" y="841"/>
			<point x="363" y="855" type="curve" smooth="yes"/>
			<point x="374" y="863"/>
			<point x="381" y="862"/>
			<point x="426" y="862" type="curve"/>
			<point x="426" y="643" type="line" smooth="yes"/>
			<point x="426" y="629"/>
			<point x="410" y="637"/>
			<point x="390" y="655" type="curve"/>
		</contour>
		<contour>
			<point x="679" y="529" type="curve"/>
			<point x="690" y="665"/>
			<point x="802" y="830"/>
			<point x="928" y="830" type="curve" smooth="yes"/>
			<point x="964" y="830"/>
			<point x="985" y="806"/>
			<point x="985" y="776" type="curve" smooth="yes"/>
			<point x="985" y="717"/>
			<point x="901" y="591"/>
		</contour>
	</outline>
</glyph>
