<?xml version="1.0" encoding="UTF-8"?>
<glyph name="F.ss03" format="2">
	<advance width="1000"/>
	<note>
		F.ss03
  </note>
	<outline>
		<contour>
			<point x="921" y="128" type="curve" smooth="yes"/>
			<point x="984" y="128"/>
			<point x="996" y="230"/>
			<point x="996" y="288" type="curve" smooth="yes"/>
			<point x="996" y="422"/>
			<point x="892" y="448"/>
			<point x="811" y="473" type="curve"/>
			<point x="905" y="476"/>
			<point x="1001" y="514"/>
			<point x="987" y="588" type="curve"/>
			<point x="944" y="602" type="line"/>
			<point x="944" y="498"/>
			<point x="880" y="476"/>
			<point x="799" y="477" type="curve"/>
			<point x="779" y="495"/>
			<point x="761" y="506"/>
			<point x="750" y="506" type="curve" smooth="yes"/>
			<point x="741" y="506"/>
			<point x="735" y="500"/>
			<point x="735" y="493" type="curve" smooth="yes"/>
			<point x="735" y="476"/>
			<point x="759" y="474"/>
			<point x="781" y="473" type="curve" smooth="yes"/>
			<point x="801" y="473" type="line"/>
			<point x="890" y="440"/>
			<point x="990" y="353"/>
			<point x="990" y="270" type="curve" smooth="yes"/>
			<point x="990" y="214"/>
			<point x="971" y="160"/>
			<point x="914" y="160" type="curve" smooth="yes"/>
			<point x="786" y="160"/>
			<point x="682" y="361"/>
			<point x="678" y="500" type="curve" smooth="yes"/>
			<point x="678" y="508"/>
			<point x="678" y="516"/>
			<point x="678" y="524" type="curve"/>
			<point x="894" y="577"/>
			<point x="991" y="659"/>
			<point x="991" y="777" type="curve" smooth="yes"/>
			<point x="991" y="825"/>
			<point x="967" y="860"/>
			<point x="920" y="860" type="curve" smooth="yes"/>
			<point x="833" y="860"/>
			<point x="664" y="642"/>
			<point x="645" y="520" type="curve"/>
			<point x="608" y="512"/>
			<point x="568" y="505"/>
			<point x="525" y="500" type="curve"/>
			<point x="526" y="494" type="line"/>
			<point x="568" y="501"/>
			<point x="608" y="508"/>
			<point x="644" y="516" type="curve"/>
			<point x="643" y="510"/>
			<point x="643" y="504"/>
			<point x="643" y="499" type="curve" smooth="yes"/>
			<point x="643" y="388"/>
			<point x="830" y="128"/>
		</contour>
		<contour>
			<point x="679" y="529" type="curve"/>
			<point x="690" y="665"/>
			<point x="802" y="830"/>
			<point x="928" y="830" type="curve" smooth="yes"/>
			<point x="964" y="830"/>
			<point x="985" y="806"/>
			<point x="985" y="776" type="curve" smooth="yes"/>
			<point x="985" y="717"/>
			<point x="901" y="591"/>
		</contour>
	</outline>
</glyph>
