<?xml version="1.0" encoding="UTF-8"?>
<glyph name="four_four.ss02_ss04" format="2">
	<advance width="1000"/>
	<note>
		four_four.ss02_ss04
  </note>
	<outline>
		<contour>
			<point x="440" y="12" type="curve" smooth="yes"/>
			<point x="479" y="-1"/>
			<point x="581" y="-10"/>
			<point x="672" y="36" type="curve" smooth="yes"/>
			<point x="684" y="42"/>
			<point x="677" y="55"/>
			<point x="665" y="50" type="curve" smooth="yes"/>
			<point x="538" y="-12"/>
			<point x="425" y="-11"/>
			<point x="422" y="106" type="curve" smooth="yes"/>
			<point x="421" y="130"/>
			<point x="428" y="151"/>
			<point x="438" y="169" type="curve"/>
			<point x="459" y="167"/>
			<point x="483" y="163"/>
			<point x="511" y="157" type="curve" smooth="yes"/>
			<point x="605" y="136"/>
			<point x="672" y="129"/>
			<point x="720" y="129" type="curve" smooth="yes"/>
			<point x="772" y="129"/>
			<point x="792" y="143"/>
			<point x="759" y="209" type="curve" smooth="yes"/>
			<point x="753" y="221"/>
			<point x="738" y="207"/>
			<point x="748" y="197" type="curve" smooth="yes"/>
			<point x="781" y="164"/>
			<point x="777" y="140"/>
			<point x="714" y="140" type="curve" smooth="yes"/>
			<point x="639" y="140"/>
			<point x="550" y="201"/>
			<point x="463" y="199" type="curve" smooth="yes"/>
			<point x="461" y="199" type="line"/>
			<point x="486" y="226"/>
			<point x="519" y="247"/>
			<point x="546" y="267" type="curve"/>
			<point x="566" y="278"/>
			<point x="567" y="274"/>
			<point x="562" y="220" type="curve" smooth="yes"/>
			<point x="561" y="210"/>
			<point x="561" y="201"/>
			<point x="567" y="201" type="curve" smooth="yes"/>
			<point x="572" y="201"/>
			<point x="572" y="213"/>
			<point x="571" y="219" type="curve" smooth="yes"/>
			<point x="561" y="278"/>
			<point x="567" y="271"/>
			<point x="589" y="304" type="curve"/>
			<point x="593" y="308"/>
			<point x="596" y="313"/>
			<point x="598" y="318" type="curve" smooth="yes"/>
			<point x="624" y="379"/>
			<point x="517" y="428"/>
			<point x="500" y="490" type="curve"/>
			<point x="482" y="397"/>
			<point x="359" y="250"/>
			<point x="211" y="197" type="curve"/>
			<point x="213" y="173"/>
			<point x="217" y="179"/>
			<point x="211" y="131" type="curve" smooth="yes"/>
			<point x="208" y="108"/>
			<point x="205" y="79"/>
			<point x="219" y="79" type="curve" smooth="yes"/>
			<point x="230" y="79"/>
			<point x="227" y="107"/>
			<point x="222" y="134" type="curve" smooth="yes"/>
			<point x="222" y="136" type="line"/>
			<point x="287" y="141"/>
			<point x="321" y="170"/>
			<point x="401" y="171" type="curve"/>
			<point x="397" y="164"/>
			<point x="393" y="158"/>
			<point x="390" y="150" type="curve" smooth="yes"/>
			<point x="359" y="74"/>
			<point x="390" y="29"/>
		</contour>
		<contour>
			<point x="239" y="147" type="curve" smooth="yes"/>
			<point x="220" y="145" type="line"/>
			<point x="215" y="179"/>
			<point x="221" y="181"/>
			<point x="244" y="185" type="curve"/>
			<point x="353" y="221"/>
			<point x="480" y="360"/>
			<point x="498" y="475" type="curve"/>
			<point x="504" y="430"/>
			<point x="599" y="356"/>
			<point x="557" y="289" type="curve" smooth="yes"/>
			<point x="529" y="244"/>
			<point x="465" y="235"/>
			<point x="421" y="195" type="curve"/>
			<point x="353" y="184"/>
			<point x="294" y="155"/>
		</contour>
		<contour>
			<point x="437" y="593" type="curve"/>
			<point x="500" y="530" type="line"/>
			<point x="563" y="593" type="line"/>
			<point x="537" y="608"/>
			<point x="530" y="635"/>
			<point x="530" y="683" type="curve" smooth="yes"/>
			<point x="530" y="740" type="line"/>
			<point x="603" y="740" type="line" smooth="yes"/>
			<point x="648" y="740"/>
			<point x="648" y="708"/>
			<point x="648" y="678" type="curve"/>
			<point x="715" y="745" type="line"/>
			<point x="694" y="770" type="line"/>
			<point x="530" y="770" type="line"/>
			<point x="530" y="877" type="line"/>
			<point x="586" y="926" type="line"/>
			<point x="495" y="926" type="line"/>
			<point x="495" y="903"/>
			<point x="488" y="872"/>
			<point x="470" y="861" type="curve"/>
			<point x="470" y="770" type="line"/>
			<point x="394" y="770" type="line" smooth="yes"/>
			<point x="322" y="770"/>
			<point x="265" y="800"/>
			<point x="265" y="873" type="curve" smooth="yes"/>
			<point x="265" y="917"/>
			<point x="299" y="958"/>
			<point x="343" y="958" type="curve" smooth="yes"/>
			<point x="405" y="958"/>
			<point x="431" y="907"/>
			<point x="441" y="892" type="curve" smooth="yes"/>
			<point x="448" y="882"/>
			<point x="472" y="948"/>
			<point x="450" y="965" type="curve" smooth="yes"/>
			<point x="426" y="983"/>
			<point x="370" y="991"/>
			<point x="343" y="991" type="curve" smooth="yes"/>
			<point x="306" y="991"/>
			<point x="284" y="983"/>
			<point x="263" y="974" type="curve" smooth="yes"/>
			<point x="221" y="956"/>
			<point x="189" y="919"/>
			<point x="189" y="873" type="curve" smooth="yes"/>
			<point x="189" y="801"/>
			<point x="232" y="740"/>
			<point x="363" y="740" type="curve" smooth="yes"/>
			<point x="470" y="740" type="line"/>
			<point x="470" y="683" type="line" smooth="yes"/>
			<point x="470" y="635"/>
			<point x="463" y="608"/>
		</contour>
	</outline>
</glyph>
