<?xml version="1.0" encoding="UTF-8"?>
<glyph name="H" format="2">
	<advance width="1000"/>
	<unicode hex="0048"/>
	<note>
		H
  </note>
	<outline>
		<contour>
			<point x="888" y="1" type="curve" smooth="yes"/>
			<point x="910" y="1"/>
			<point x="930" y="8"/>
			<point x="953" y="19" type="curve" smooth="yes"/>
			<point x="970" y="27"/>
			<point x="960" y="47"/>
			<point x="942" y="36" type="curve" smooth="yes"/>
			<point x="917" y="20"/>
			<point x="900" y="9"/>
			<point x="882" y="9" type="curve" smooth="yes"/>
			<point x="843" y="9"/>
			<point x="819" y="59"/>
			<point x="810" y="117" type="curve" smooth="yes"/>
			<point x="803" y="161"/>
			<point x="799" y="206"/>
			<point x="757" y="239" type="curve" smooth="yes"/>
			<point x="733" y="258"/>
			<point x="710" y="266"/>
			<point x="686" y="274" type="curve" smooth="yes"/>
			<point x="622" y="296"/>
			<point x="560" y="318"/>
			<point x="532" y="374" type="curve" smooth="yes"/>
			<point x="523" y="392"/>
			<point x="522" y="412"/>
			<point x="537" y="412" type="curve" smooth="yes"/>
			<point x="547" y="412"/>
			<point x="562" y="401"/>
			<point x="579" y="365" type="curve" smooth="yes"/>
			<point x="586" y="350"/>
			<point x="597" y="358"/>
			<point x="592" y="370" type="curve" smooth="yes"/>
			<point x="524" y="533"/>
			<point x="501" y="418"/>
			<point x="527" y="361" type="curve" smooth="yes"/>
			<point x="541" y="330"/>
			<point x="565" y="303"/>
			<point x="603" y="276" type="curve" smooth="yes"/>
			<point x="608" y="273"/>
			<point x="607" y="269"/>
			<point x="599" y="268" type="curve" smooth="yes"/>
			<point x="460" y="251"/>
			<point x="276" y="183"/>
			<point x="196" y="63" type="curve" smooth="yes"/>
			<point x="192" y="57"/>
			<point x="187" y="62"/>
			<point x="190" y="67" type="curve" smooth="yes"/>
			<point x="223" y="129"/>
			<point x="266" y="177"/>
			<point x="300" y="205" type="curve" smooth="yes"/>
			<point x="396" y="284"/>
			<point x="454" y="302"/>
			<point x="465" y="400" type="curve" smooth="yes"/>
			<point x="469" y="433"/>
			<point x="478" y="454"/>
			<point x="504" y="476" type="curve" smooth="yes"/>
			<point x="517" y="487"/>
			<point x="504" y="500"/>
			<point x="493" y="488" type="curve" smooth="yes"/>
			<point x="467" y="459"/>
			<point x="463" y="440"/>
			<point x="458" y="414" type="curve" smooth="yes"/>
			<point x="443" y="332"/>
			<point x="418" y="310"/>
			<point x="314" y="274" type="curve" smooth="yes"/>
			<point x="290" y="266"/>
			<point x="267" y="258"/>
			<point x="243" y="239" type="curve" smooth="yes"/>
			<point x="186" y="194"/>
			<point x="200" y="123"/>
			<point x="178" y="70" type="curve" smooth="yes"/>
			<point x="154" y="13"/>
			<point x="102" y="-23"/>
			<point x="57" y="33" type="curve" smooth="yes"/>
			<point x="42" y="52"/>
			<point x="27" y="26"/>
			<point x="46" y="16" type="curve" smooth="yes"/>
			<point x="76" y="0"/>
			<point x="139" y="-20"/>
			<point x="202" y="50" type="curve" smooth="yes"/>
			<point x="212" y="61"/>
			<point x="233" y="84"/>
			<point x="244" y="84" type="curve" smooth="yes"/>
			<point x="254" y="84"/>
			<point x="253" y="65"/>
			<point x="249" y="30" type="curve" smooth="yes"/>
			<point x="248" y="20"/>
			<point x="248" y="11"/>
			<point x="254" y="11" type="curve" smooth="yes"/>
			<point x="259" y="11"/>
			<point x="260" y="23"/>
			<point x="259" y="29" type="curve" smooth="yes"/>
			<point x="250" y="87"/>
			<point x="256" y="100"/>
			<point x="291" y="132" type="curve" smooth="yes"/>
			<point x="343" y="180"/>
			<point x="411" y="211"/>
			<point x="489" y="233" type="curve" smooth="yes"/>
			<point x="524" y="243"/>
			<point x="530" y="233"/>
			<point x="522" y="191" type="curve" smooth="yes"/>
			<point x="517" y="165"/>
			<point x="514" y="136"/>
			<point x="525" y="136" type="curve" smooth="yes"/>
			<point x="539" y="136"/>
			<point x="536" y="165"/>
			<point x="533" y="188" type="curve" smooth="yes"/>
			<point x="527" y="232"/>
			<point x="533" y="243"/>
			<point x="551" y="248" type="curve" smooth="yes"/>
			<point x="615" y="266"/>
			<point x="633" y="261"/>
			<point x="699" y="205" type="curve" smooth="yes"/>
			<point x="733" y="177"/>
			<point x="775" y="131"/>
			<point x="804" y="68" type="curve" smooth="yes"/>
			<point x="829" y="14"/>
			<point x="858" y="1"/>
		</contour>
		<contour>
			<point x="16" y="39" type="line"/>
			<point x="21" y="35" type="line"/>
			<point x="142" y="160" type="line"/>
			<point x="144" y="239"/>
			<point x="144" y="333"/>
			<point x="140" y="426" type="curve"/>
			<point x="218" y="528"/>
			<point x="234" y="613"/>
			<point x="281" y="613" type="curve" smooth="yes"/>
			<point x="309" y="613"/>
			<point x="334" y="585"/>
			<point x="334" y="522" type="curve" smooth="yes"/>
			<point x="334" y="451"/>
			<point x="304" y="348"/>
			<point x="245" y="263" type="curve"/>
			<point x="251" y="260" type="line"/>
			<point x="322" y="358"/>
			<point x="365" y="457"/>
			<point x="365" y="544" type="curve" smooth="yes"/>
			<point x="365" y="634"/>
			<point x="320" y="691"/>
			<point x="277" y="691" type="curve" smooth="yes"/>
			<point x="207" y="691"/>
			<point x="220" y="558"/>
			<point x="140" y="439" type="curve"/>
			<point x="133" y="613"/>
			<point x="116" y="785"/>
			<point x="92" y="858" type="curve"/>
			<point x="210" y="730" type="line"/>
			<point x="235" y="751" type="line"/>
			<point x="26" y="965" type="line"/>
			<point x="23" y="959" type="line"/>
			<point x="85" y="867"/>
			<point x="129" y="197"/>
			<point x="21" y="46" type="curve" smooth="yes"/>
		</contour>
		<contour>
			<point x="498" y="545" type="curve"/>
			<point x="560" y="622" type="line"/>
			<point x="430" y="732" type="line"/>
			<point x="415" y="753"/>
			<point x="408" y="771"/>
			<point x="408" y="787" type="curve" smooth="yes"/>
			<point x="408" y="804"/>
			<point x="416" y="818"/>
			<point x="432" y="828" type="curve" smooth="yes"/>
			<point x="448" y="838"/>
			<point x="470" y="846"/>
			<point x="497" y="846" type="curve" smooth="yes"/>
			<point x="579" y="847"/>
			<point x="669" y="846"/>
			<point x="701" y="843" type="curve"/>
			<point x="711" y="841"/>
			<point x="716" y="838"/>
			<point x="716" y="834" type="curve" smooth="yes"/>
			<point x="716" y="829"/>
			<point x="707" y="820"/>
			<point x="689" y="808" type="curve" smooth="yes"/>
			<point x="670" y="796"/>
			<point x="640" y="778"/>
			<point x="597" y="755" type="curve" smooth="yes"/>
			<point x="567" y="738"/>
			<point x="531" y="711"/>
			<point x="531" y="678" type="curve" smooth="yes"/>
			<point x="531" y="663"/>
			<point x="542" y="651"/>
			<point x="555" y="651" type="curve" smooth="yes"/>
			<point x="658" y="651" type="line"/>
			<point x="637" y="696" type="line"/>
			<point x="609" y="703"/>
			<point x="595" y="711"/>
			<point x="595" y="720" type="curve" smooth="yes"/>
			<point x="595" y="729"/>
			<point x="604" y="738"/>
			<point x="623" y="749" type="curve" smooth="yes"/>
			<point x="642" y="760"/>
			<point x="670" y="774"/>
			<point x="707" y="792" type="curve" smooth="yes"/>
			<point x="742" y="807"/>
			<point x="768" y="820"/>
			<point x="786" y="831" type="curve" smooth="yes"/>
			<point x="804" y="842"/>
			<point x="813" y="851"/>
			<point x="813" y="859" type="curve"/>
			<point x="805" y="857" type="line"/>
			<point x="805" y="870"/>
			<point x="788" y="879"/>
			<point x="753" y="883" type="curve" smooth="yes"/>
			<point x="718" y="887"/>
			<point x="660" y="889"/>
			<point x="578" y="889" type="curve" smooth="yes"/>
			<point x="487" y="889"/>
			<point x="425" y="886"/>
			<point x="390" y="879" type="curve" smooth="yes"/>
			<point x="355" y="872"/>
			<point x="337" y="861"/>
			<point x="337" y="847" type="curve" smooth="yes"/>
			<point x="337" y="841"/>
			<point x="339" y="835"/>
			<point x="344" y="828" type="curve" smooth="yes"/>
			<point x="349" y="821"/>
			<point x="356" y="812"/>
			<point x="366" y="800" type="curve" smooth="yes"/>
			<point x="379" y="785" type="line" smooth="yes"/>
			<point x="386" y="776"/>
			<point x="391" y="768"/>
			<point x="394" y="761" type="curve"/>
			<point x="256" y="878" type="line"/>
			<point x="230" y="908"/>
			<point x="217" y="927"/>
			<point x="217" y="935" type="curve" smooth="yes"/>
			<point x="217" y="938"/>
			<point x="219" y="940"/>
			<point x="223" y="940" type="curve" smooth="yes"/>
			<point x="230" y="940"/>
			<point x="249" y="933"/>
			<point x="280" y="918" type="curve" smooth="yes"/>
			<point x="313" y="902"/>
			<point x="333" y="895"/>
			<point x="340" y="896" type="curve"/>
			<point x="340" y="977" type="line"/>
			<point x="226" y="978"/>
			<point x="169" y="958"/>
			<point x="169" y="918" type="curve" smooth="yes"/>
			<point x="169" y="896"/>
			<point x="183" y="870"/>
			<point x="211" y="840" type="curve" smooth="yes"/>
			<point x="239" y="809"/>
			<point x="280" y="770"/>
			<point x="335" y="722" type="curve" smooth="yes"/>
			<point x="386" y="676"/>
			<point x="424" y="640"/>
			<point x="449" y="615" type="curve" smooth="yes"/>
			<point x="475" y="590"/>
			<point x="491" y="566"/>
		</contour>
		<contour>
			<point x="913" y="151" type="curve" smooth="yes"/>
			<point x="974" y="151"/>
			<point x="996" y="202"/>
			<point x="996" y="258" type="curve" smooth="yes"/>
			<point x="996" y="330"/>
			<point x="952" y="391"/>
			<point x="912" y="399" type="curve"/>
			<point x="883" y="364" type="line"/>
			<point x="983" y="324"/>
			<point x="1019" y="157"/>
			<point x="916" y="157" type="curve" smooth="yes"/>
			<point x="842" y="157"/>
			<point x="733" y="266"/>
			<point x="733" y="334" type="curve" smooth="yes"/>
			<point x="733" y="497"/>
			<point x="994" y="463"/>
			<point x="994" y="645" type="curve" smooth="yes"/>
			<point x="994" y="695"/>
			<point x="960" y="726"/>
			<point x="909" y="726" type="curve" smooth="yes"/>
			<point x="864" y="726"/>
			<point x="788" y="691"/>
			<point x="639" y="565" type="curve"/>
			<point x="700" y="631"/>
			<point x="778" y="728"/>
			<point x="848" y="816" type="curve" smooth="yes"/>
			<point x="883" y="860"/>
			<point x="916" y="879"/>
			<point x="941" y="879" type="curve" smooth="yes"/>
			<point x="956" y="879"/>
			<point x="971" y="873"/>
			<point x="977" y="863" type="curve"/>
			<point x="1000" y="912" type="line"/>
			<point x="995" y="920"/>
			<point x="980" y="926"/>
			<point x="963" y="926" type="curve" smooth="yes"/>
			<point x="925" y="926"/>
			<point x="893" y="885"/>
			<point x="859" y="842" type="curve" smooth="yes"/>
			<point x="746" y="697"/>
			<point x="613" y="533"/>
			<point x="575" y="519" type="curve"/>
			<point x="566" y="521"/>
			<point x="558" y="522"/>
			<point x="551" y="522" type="curve" smooth="yes"/>
			<point x="531" y="522"/>
			<point x="519" y="515"/>
			<point x="519" y="501" type="curve" smooth="yes"/>
			<point x="519" y="491"/>
			<point x="529" y="485"/>
			<point x="538" y="485" type="curve" smooth="yes"/>
			<point x="548" y="485"/>
			<point x="560" y="491"/>
			<point x="568" y="498" type="curve" smooth="yes"/>
			<point x="579" y="506"/>
			<point x="592" y="518"/>
			<point x="607" y="532" type="curve" smooth="yes"/>
			<point x="769" y="672"/>
			<point x="838" y="691"/>
			<point x="885" y="691" type="curve" smooth="yes"/>
			<point x="938" y="691"/>
			<point x="976" y="665"/>
			<point x="976" y="614" type="curve" smooth="yes"/>
			<point x="976" y="552"/>
			<point x="927" y="527"/>
			<point x="867" y="508" type="curve" smooth="yes"/>
			<point x="798" y="486"/>
			<point x="720" y="451"/>
			<point x="720" y="360" type="curve" smooth="yes"/>
			<point x="720" y="262"/>
			<point x="837" y="151"/>
		</contour>
	</outline>
</glyph>
