<?xml version="1.0" encoding="UTF-8"?>
<glyph name="hyphen_hyphen_hyphen.ss01_ss02_ss04" format="2">
	<advance width="1000"/>
	<note>
		hyphen_hyphen_hyphen.ss01_ss02_ss04
  </note>
	<outline>
		<contour>
			<point x="10" y="513" type="line"/>
			<point x="10" y="333" type="line"/>
			<point x="118" y="481" type="line"/>
			<point x="447" y="481" type="line"/>
			<point x="447" y="513" type="line"/>
		</contour>
		<contour>
			<point x="501" y="106" type="curve" smooth="yes"/>
			<point x="613" y="106"/>
			<point x="654" y="108"/>
			<point x="765" y="108" type="curve" smooth="yes"/>
			<point x="819" y="108"/>
			<point x="860" y="125"/>
			<point x="793" y="192" type="curve" smooth="yes"/>
			<point x="781" y="204"/>
			<point x="771" y="192"/>
			<point x="792" y="181" type="curve" smooth="yes"/>
			<point x="863" y="144"/>
			<point x="747" y="114"/>
			<point x="667" y="114" type="curve" smooth="yes"/>
			<point x="647" y="114"/>
			<point x="637" y="113"/>
			<point x="625" y="121" type="curve" smooth="yes"/>
			<point x="615" y="127"/>
			<point x="632" y="143"/>
			<point x="639" y="150" type="curve" smooth="yes"/>
			<point x="648" y="159"/>
			<point x="654" y="166"/>
			<point x="649" y="168" type="curve" smooth="yes"/>
			<point x="643" y="170"/>
			<point x="637" y="154"/>
			<point x="629" y="143" type="curve" smooth="yes"/>
			<point x="623" y="135"/>
			<point x="615" y="125"/>
			<point x="610" y="139" type="curve" smooth="yes"/>
			<point x="597" y="173"/>
			<point x="610" y="195"/>
			<point x="633" y="242" type="curve" smooth="yes"/>
			<point x="658" y="292"/>
			<point x="637" y="290"/>
			<point x="627" y="250" type="curve" smooth="yes"/>
			<point x="608" y="176"/>
			<point x="569" y="113"/>
			<point x="523" y="114" type="curve" smooth="yes"/>
			<point x="491" y="115"/>
			<point x="485" y="127"/>
			<point x="514" y="161" type="curve" smooth="yes"/>
			<point x="524" y="173"/>
			<point x="541" y="189"/>
			<point x="531" y="194" type="curve" smooth="yes"/>
			<point x="524" y="197"/>
			<point x="515" y="181"/>
			<point x="508" y="165" type="curve" smooth="yes"/>
			<point x="492" y="130"/>
			<point x="479" y="122"/>
			<point x="481" y="146" type="curve" smooth="yes"/>
			<point x="484" y="179"/>
			<point x="459" y="106"/>
		</contour>
		<contour>
			<point x="334" y="69" type="line"/>
			<point x="334" y="0" type="line"/>
			<point x="898" y="0" type="line"/>
			<point x="898" y="69" type="line"/>
		</contour>
		<contour>
			<point x="527" y="90" type="line"/>
			<point x="537" y="71" type="line"/>
			<point x="761" y="71" type="line"/>
			<point x="771" y="90" type="line"/>
		</contour>
		<contour>
			<point x="486" y="104" type="line"/>
			<point x="486" y="92" type="line"/>
			<point x="810" y="92" type="line"/>
			<point x="810" y="104" type="line"/>
		</contour>
		<contour>
			<point x="359" y="694" type="curve" smooth="yes"/>
			<point x="369" y="687"/>
			<point x="374" y="688"/>
			<point x="376" y="708" type="curve" smooth="yes"/>
			<point x="378" y="729"/>
			<point x="358" y="732"/>
			<point x="349" y="727" type="curve" smooth="yes"/>
			<point x="342" y="723"/>
			<point x="329" y="727"/>
			<point x="336" y="733" type="curve" smooth="yes"/>
			<point x="341" y="737"/>
			<point x="359" y="737"/>
			<point x="369" y="737" type="curve" smooth="yes"/>
			<point x="605" y="737" type="line" smooth="yes"/>
			<point x="706" y="737"/>
			<point x="745" y="802"/>
			<point x="702" y="830" type="curve" smooth="yes"/>
			<point x="667" y="853"/>
			<point x="681" y="889"/>
			<point x="627" y="893" type="curve" smooth="yes"/>
			<point x="571" y="897"/>
			<point x="626" y="861"/>
			<point x="629" y="809" type="curve"/>
			<point x="621" y="808"/>
			<point x="612" y="808"/>
			<point x="605" y="808" type="curve" smooth="yes"/>
			<point x="369" y="808" type="line" smooth="yes"/>
			<point x="302" y="808"/>
			<point x="319" y="741"/>
			<point x="330" y="727" type="curve" smooth="yes"/>
			<point x="335" y="721"/>
			<point x="345" y="719"/>
			<point x="348" y="716" type="curve" smooth="yes"/>
			<point x="351" y="713"/>
			<point x="348" y="701"/>
		</contour>
		<contour>
			<point x="661" y="816" type="curve"/>
			<point x="646" y="843"/>
			<point x="593" y="876"/>
			<point x="627" y="876" type="curve" smooth="yes"/>
			<point x="674" y="876"/>
			<point x="673" y="840"/>
			<point x="673" y="836" type="curve" smooth="yes"/>
			<point x="673" y="827"/>
			<point x="668" y="820"/>
		</contour>
	</outline>
</glyph>
