<?xml version="1.0" encoding="UTF-8"?>
<glyph name="J_J_J.ss01_ss02_ss03" format="2">
	<advance width="1000"/>
	<note>
		J_J_J.ss01_ss02_ss03
  </note>
	<outline>
		<contour>
			<point x="918" y="128" type="curve" smooth="yes"/>
			<point x="1034" y="128"/>
			<point x="996" y="352"/>
			<point x="967" y="599" type="curve"/>
			<point x="994" y="605" type="line"/>
			<point x="993" y="610" type="line"/>
			<point x="966" y="604" type="line"/>
			<point x="956" y="690"/>
			<point x="947" y="778"/>
			<point x="945" y="861" type="curve"/>
			<point x="967" y="872"/>
			<point x="987" y="891"/>
			<point x="987" y="910" type="curve" smooth="yes"/>
			<point x="987" y="924"/>
			<point x="979" y="932"/>
			<point x="965" y="932" type="curve" smooth="yes"/>
			<point x="930" y="932"/>
			<point x="919" y="889"/>
			<point x="922" y="856" type="curve"/>
			<point x="886" y="832"/>
			<point x="847" y="803"/>
			<point x="819" y="779" type="curve" smooth="yes"/>
			<point x="743" y="712"/>
			<point x="765" y="616"/>
			<point x="845" y="634" type="curve"/>
			<point x="853" y="672" type="line"/>
			<point x="810" y="675"/>
			<point x="792" y="689"/>
			<point x="792" y="709" type="curve" smooth="yes"/>
			<point x="792" y="762"/>
			<point x="844" y="793"/>
			<point x="922" y="849" type="curve"/>
			<point x="932" y="754"/>
			<point x="941" y="672"/>
			<point x="950" y="601" type="curve"/>
			<point x="707" y="550"/>
			<point x="669" y="540"/>
			<point x="644" y="509" type="curve" smooth="yes"/>
			<point x="571" y="419"/>
			<point x="838" y="128"/>
		</contour>
		<contour>
			<point x="25" y="66" type="curve" smooth="yes"/>
			<point x="71" y="66"/>
			<point x="383" y="367"/>
			<point x="383" y="561" type="curve" smooth="yes"/>
			<point x="383" y="693"/>
			<point x="83" y="636"/>
			<point x="176" y="796" type="curve"/>
			<point x="169" y="801" type="line"/>
			<point x="89" y="676" type="line"/>
			<point x="92" y="673" type="line"/>
			<point x="175" y="680"/>
			<point x="309" y="670"/>
			<point x="309" y="501" type="curve" smooth="yes"/>
			<point x="309" y="361"/>
			<point x="189" y="219"/>
			<point x="129" y="219" type="curve" smooth="yes"/>
			<point x="81" y="219"/>
			<point x="77" y="299"/>
			<point x="88" y="344" type="curve" smooth="yes"/>
			<point x="101" y="396"/>
			<point x="124" y="415"/>
			<point x="232" y="391" type="curve"/>
			<point x="236" y="400" type="line"/>
			<point x="35" y="449" type="line"/>
			<point x="114" y="181"/>
			<point x="-13" y="66"/>
		</contour>
		<contour>
			<point x="97" y="773" type="curve" smooth="yes"/>
			<point x="120" y="773"/>
			<point x="126" y="804"/>
			<point x="109" y="843" type="curve" smooth="yes"/>
			<point x="92" y="882"/>
			<point x="60" y="913"/>
			<point x="37" y="913" type="curve" smooth="yes"/>
			<point x="14" y="913"/>
			<point x="8" y="882"/>
			<point x="25" y="843" type="curve" smooth="yes"/>
			<point x="42" y="804"/>
			<point x="74" y="773"/>
		</contour>
		<contour>
			<point x="907" y="162" type="curve" smooth="yes"/>
			<point x="835" y="162"/>
			<point x="664" y="320"/>
			<point x="664" y="432" type="curve" smooth="yes"/>
			<point x="664" y="524"/>
			<point x="773" y="556"/>
			<point x="950" y="595" type="curve"/>
			<point x="993" y="234"/>
			<point x="1009" y="162"/>
		</contour>
		<contour>
			<point x="495" y="567" type="curve" smooth="yes"/>
			<point x="507" y="567"/>
			<point x="516" y="567"/>
			<point x="534" y="574" type="curve" smooth="yes"/>
			<point x="581" y="592"/>
			<point x="684" y="711"/>
			<point x="948" y="969" type="curve"/>
			<point x="934" y="989" type="line"/>
			<point x="924" y="968"/>
			<point x="907" y="954"/>
			<point x="882" y="946" type="curve" smooth="yes"/>
			<point x="857" y="938"/>
			<point x="831" y="934"/>
			<point x="803" y="934" type="curve" smooth="yes"/>
			<point x="790" y="934"/>
			<point x="765" y="936"/>
			<point x="768" y="936" type="curve"/>
			<point x="607" y="773"/>
			<point x="566" y="732"/>
			<point x="523" y="682" type="curve" smooth="yes"/>
			<point x="528" y="687" type="line"/>
			<point x="523" y="681"/>
			<point x="520" y="674"/>
			<point x="520" y="667" type="curve" smooth="yes"/>
			<point x="520" y="658"/>
			<point x="524" y="649"/>
			<point x="533" y="638" type="curve" smooth="yes"/>
			<point x="542" y="627"/>
			<point x="546" y="620"/>
			<point x="546" y="617" type="curve" smooth="yes"/>
			<point x="546" y="611"/>
			<point x="534" y="608"/>
			<point x="510" y="608" type="curve" smooth="yes"/>
			<point x="494" y="608"/>
			<point x="483" y="610"/>
			<point x="476" y="614" type="curve" smooth="yes"/>
			<point x="469" y="617"/>
			<point x="466" y="622"/>
			<point x="466" y="629" type="curve" smooth="yes"/>
			<point x="466" y="636"/>
			<point x="470" y="648"/>
			<point x="479" y="665" type="curve" smooth="yes"/>
			<point x="483" y="672"/>
			<point x="487" y="680"/>
			<point x="490" y="689" type="curve" smooth="yes"/>
			<point x="493" y="697"/>
			<point x="494" y="704"/>
			<point x="494" y="710" type="curve" smooth="yes"/>
			<point x="494" y="720"/>
			<point x="489" y="734"/>
			<point x="478" y="753" type="curve" smooth="yes"/>
			<point x="475" y="760"/>
			<point x="472" y="766"/>
			<point x="468" y="773" type="curve" smooth="yes"/>
			<point x="465" y="780"/>
			<point x="463" y="785"/>
			<point x="463" y="790" type="curve" smooth="yes"/>
			<point x="463" y="802"/>
			<point x="474" y="808"/>
			<point x="497" y="808" type="curve" smooth="yes"/>
			<point x="561" y="808"/>
			<point x="605" y="814"/>
			<point x="630" y="827" type="curve" smooth="yes"/>
			<point x="655" y="840"/>
			<point x="667" y="857"/>
			<point x="667" y="880" type="curve"/>
			<point x="572" y="880" type="line"/>
			<point x="572" y="868"/>
			<point x="559" y="836"/>
			<point x="548" y="830" type="curve" smooth="yes"/>
			<point x="537" y="825"/>
			<point x="521" y="822"/>
			<point x="498" y="822" type="curve" smooth="yes"/>
			<point x="469" y="822"/>
			<point x="446" y="820"/>
			<point x="428" y="814" type="curve" smooth="yes"/>
			<point x="410" y="809"/>
			<point x="396" y="798"/>
			<point x="384" y="780" type="curve" smooth="yes"/>
			<point x="373" y="763"/>
			<point x="367" y="737"/>
			<point x="367" y="704" type="curve" smooth="yes"/>
			<point x="367" y="655"/>
			<point x="381" y="620"/>
			<point x="408" y="599" type="curve" smooth="yes"/>
			<point x="435" y="578"/>
			<point x="456" y="567"/>
		</contour>
		<contour>
			<point x="802" y="957" type="curve" smooth="yes"/>
			<point x="847" y="957"/>
			<point x="884" y="967"/>
			<point x="884" y="983" type="curve" smooth="yes"/>
			<point x="884" y="998"/>
			<point x="847" y="1008"/>
			<point x="802" y="1008" type="curve" smooth="yes"/>
			<point x="756" y="1008"/>
			<point x="719" y="998"/>
			<point x="719" y="983" type="curve" smooth="yes"/>
			<point x="719" y="967"/>
			<point x="756" y="957"/>
		</contour>
	</outline>
</glyph>
