<?xml version="1.0" encoding="UTF-8"?>
<glyph name="L" format="2">
	<advance width="1000"/>
	<unicode hex="004C"/>
	<note>
		L
  </note>
	<outline>
		<contour>
			<point x="64" y="99" type="curve" smooth="yes"/>
			<point x="147" y="99"/>
			<point x="288" y="384"/>
			<point x="440" y="468" type="curve"/>
			<point x="436" y="477" type="line"/>
			<point x="286" y="387"/>
			<point x="186" y="207"/>
			<point x="107" y="207" type="curve" smooth="yes"/>
			<point x="73" y="207"/>
			<point x="49" y="237"/>
			<point x="49" y="320" type="curve" smooth="yes"/>
			<point x="49" y="524"/>
			<point x="169" y="682"/>
			<point x="113" y="869" type="curve"/>
			<point x="17" y="968" type="line"/>
			<point x="14" y="963" type="line"/>
			<point x="128" y="822"/>
			<point x="13" y="332"/>
			<point x="13" y="195" type="curve" smooth="yes"/>
			<point x="13" y="131"/>
			<point x="25" y="99"/>
		</contour>
		<contour>
			<point x="234" y="40" type="curve" smooth="yes"/>
			<point x="184" y="40"/>
			<point x="146" y="58"/>
			<point x="146" y="99" type="curve" smooth="yes"/>
			<point x="146" y="139"/>
			<point x="210" y="186"/>
			<point x="276" y="186" type="curve" smooth="yes"/>
			<point x="322" y="186"/>
			<point x="370" y="156"/>
			<point x="428" y="121" type="curve"/>
			<point x="386" y="71"/>
			<point x="300" y="40"/>
		</contour>
		<contour>
			<point x="266" y="107" type="curve" smooth="yes"/>
			<point x="260" y="107"/>
			<point x="260" y="116"/>
			<point x="261" y="126" type="curve" smooth="yes"/>
			<point x="262" y="133"/>
			<point x="266" y="140"/>
			<point x="265" y="155" type="curve" smooth="yes"/>
			<point x="263" y="177"/>
			<point x="246" y="184"/>
			<point x="213" y="173" type="curve"/>
			<point x="236" y="188"/>
			<point x="298" y="194"/>
			<point x="311" y="181" type="curve"/>
			<point x="257" y="195"/>
			<point x="266" y="150"/>
			<point x="270" y="125" type="curve" smooth="yes"/>
			<point x="271" y="119"/>
			<point x="271" y="107"/>
		</contour>
		<contour>
			<point x="542" y="86" type="curve"/>
			<point x="519" y="101"/>
			<point x="511" y="104"/>
			<point x="511" y="123" type="curve" smooth="yes"/>
			<point x="511" y="189"/>
			<point x="506" y="181"/>
			<point x="538" y="192" type="curve"/>
			<point x="479" y="188" type="line"/>
			<point x="510" y="184"/>
			<point x="508" y="178"/>
			<point x="509" y="147" type="curve" smooth="yes"/>
			<point x="510" y="126"/>
			<point x="512" y="104"/>
			<point x="495" y="116" type="curve"/>
			<point x="507" y="106"/>
			<point x="529" y="84"/>
		</contour>
		<contour>
			<point x="774" y="2" type="curve" smooth="yes"/>
			<point x="849" y="2"/>
			<point x="913" y="21"/>
			<point x="913" y="60" type="curve" smooth="yes"/>
			<point x="913" y="95"/>
			<point x="871" y="138"/>
			<point x="785" y="153" type="curve"/>
			<point x="785" y="150" type="line"/>
			<point x="869" y="131"/>
			<point x="882" y="95"/>
			<point x="882" y="64" type="curve" smooth="yes"/>
			<point x="882" y="34"/>
			<point x="854" y="10"/>
			<point x="793" y="10" type="curve" smooth="yes"/>
			<point x="685" y="10"/>
			<point x="612" y="44"/>
			<point x="549" y="82" type="curve" smooth="yes"/>
			<point x="516" y="102"/>
			<point x="485" y="123"/>
			<point x="453" y="142" type="curve"/>
			<point x="461" y="157"/>
			<point x="467" y="173"/>
			<point x="468" y="189" type="curve"/>
			<point x="484" y="186"/>
			<point x="501" y="186"/>
			<point x="519" y="188" type="curve" smooth="yes"/>
			<point x="584" y="195"/>
			<point x="615" y="255"/>
			<point x="615" y="316" type="curve" smooth="yes"/>
			<point x="615" y="381"/>
			<point x="579" y="447"/>
			<point x="509" y="447" type="curve" smooth="yes"/>
			<point x="453" y="447"/>
			<point x="390" y="418"/>
			<point x="390" y="347" type="curve" smooth="yes"/>
			<point x="390" y="307"/>
			<point x="422" y="270"/>
			<point x="442" y="235" type="curve" smooth="yes"/>
			<point x="445" y="230"/>
			<point x="447" y="226"/>
			<point x="449" y="221" type="curve"/>
			<point x="402" y="231"/>
			<point x="354" y="258"/>
			<point x="319" y="303" type="curve"/>
			<point x="317" y="301" type="line"/>
			<point x="368" y="236"/>
			<point x="411" y="204"/>
			<point x="456" y="192" type="curve"/>
			<point x="457" y="176"/>
			<point x="453" y="160"/>
			<point x="446" y="146" type="curve"/>
			<point x="398" y="174"/>
			<point x="347" y="194"/>
			<point x="280" y="194" type="curve" smooth="yes"/>
			<point x="182" y="194"/>
			<point x="89" y="104"/>
			<point x="89" y="48" type="curve" smooth="yes"/>
			<point x="89" y="22"/>
			<point x="108" y="4"/>
			<point x="154" y="4" type="curve" smooth="yes"/>
			<point x="247" y="4"/>
			<point x="376" y="46"/>
			<point x="435" y="116" type="curve"/>
			<point x="521" y="64"/>
			<point x="627" y="2"/>
		</contour>
		<contour>
			<point x="466" y="219" type="curve"/>
			<point x="463" y="232" type="line" smooth="yes"/>
			<point x="450" y="274"/>
			<point x="429" y="320"/>
			<point x="429" y="361" type="curve" smooth="yes"/>
			<point x="429" y="404"/>
			<point x="447" y="441"/>
			<point x="501" y="441" type="curve" smooth="yes"/>
			<point x="566" y="441"/>
			<point x="607" y="386"/>
			<point x="607" y="330" type="curve" smooth="yes"/>
			<point x="607" y="249"/>
			<point x="541" y="211"/>
		</contour>
		<contour>
			<point x="484" y="326" type="curve" smooth="yes"/>
			<point x="473" y="326"/>
			<point x="476" y="356"/>
			<point x="481" y="381" type="curve" smooth="yes"/>
			<point x="490" y="427"/>
			<point x="487" y="448"/>
			<point x="453" y="427" type="curve"/>
			<point x="472" y="446"/>
			<point x="496" y="447"/>
			<point x="517" y="440" type="curve"/>
			<point x="487" y="442"/>
			<point x="485" y="435"/>
			<point x="492" y="378" type="curve" smooth="yes"/>
			<point x="495" y="355"/>
			<point x="498" y="326"/>
		</contour>
		<contour>
			<point x="389" y="657" type="line"/>
			<point x="502" y="535" type="line"/>
			<point x="537" y="560" type="line"/>
			<point x="538" y="563"/>
			<point x="538" y="566"/>
			<point x="537" y="570" type="curve" smooth="yes"/>
			<point x="536" y="573"/>
			<point x="535" y="576"/>
			<point x="535" y="579" type="curve" smooth="yes"/>
			<point x="535" y="585"/>
			<point x="539" y="590"/>
			<point x="546" y="595" type="curve" smooth="yes"/>
			<point x="640" y="654"/>
			<point x="790" y="780"/>
			<point x="790" y="832" type="curve"/>
			<point x="858" y="891" type="line"/>
			<point x="825" y="934" type="line"/>
			<point x="828" y="919"/>
			<point x="830" y="909"/>
			<point x="830" y="902" type="curve" smooth="yes"/>
			<point x="830" y="875"/>
			<point x="814" y="868"/>
			<point x="770" y="868" type="curve" smooth="yes"/>
			<point x="762" y="868"/>
			<point x="743" y="869"/>
			<point x="712" y="870" type="curve" smooth="yes"/>
			<point x="649" y="873"/>
			<point x="600" y="875"/>
			<point x="565" y="874" type="curve"/>
			<point x="565" y="846" type="line"/>
			<point x="701" y="846" type="line" smooth="yes"/>
			<point x="720" y="846"/>
			<point x="730" y="839"/>
			<point x="730" y="825" type="curve" smooth="yes"/>
			<point x="730" y="748"/>
			<point x="599" y="622"/>
			<point x="525" y="622" type="curve" smooth="yes"/>
			<point x="490" y="622"/>
			<point x="481" y="632"/>
			<point x="470" y="653" type="curve" smooth="yes"/>
			<point x="465" y="664"/>
			<point x="459" y="671"/>
			<point x="454" y="675" type="curve"/>
			<point x="454" y="954" type="line"/>
			<point x="450" y="957"/>
			<point x="445" y="961"/>
			<point x="438" y="966" type="curve" smooth="yes"/>
			<point x="431" y="971"/>
			<point x="425" y="978"/>
			<point x="419" y="987" type="curve"/>
			<point x="141" y="987" type="line"/>
			<point x="150" y="982"/>
			<point x="163" y="978"/>
			<point x="179" y="975" type="curve" smooth="yes"/>
			<point x="194" y="972"/>
			<point x="204" y="970"/>
			<point x="207" y="969" type="curve" smooth="yes"/>
			<point x="234" y="964"/>
			<point x="255" y="958"/>
			<point x="270" y="952" type="curve" smooth="yes"/>
			<point x="285" y="946"/>
			<point x="292" y="937"/>
			<point x="292" y="926" type="curve" smooth="yes"/>
			<point x="292" y="921"/>
			<point x="291" y="915"/>
			<point x="288" y="910" type="curve" smooth="yes"/>
			<point x="282" y="896"/>
			<point x="279" y="887"/>
			<point x="279" y="884" type="curve" smooth="yes"/>
			<point x="279" y="882"/>
			<point x="280" y="881"/>
			<point x="281" y="881" type="curve" smooth="yes"/>
			<point x="286" y="881"/>
			<point x="304" y="896"/>
			<point x="307" y="899" type="curve" smooth="yes"/>
			<point x="324" y="914"/>
			<point x="335" y="921"/>
			<point x="340" y="921" type="curve" smooth="yes"/>
			<point x="343" y="921"/>
			<point x="345" y="919"/>
			<point x="345" y="914" type="curve" smooth="yes"/>
			<point x="345" y="873"/>
			<point x="340" y="857"/>
			<point x="307" y="836" type="curve" smooth="yes"/>
			<point x="302" y="833"/>
			<point x="300" y="831"/>
			<point x="301" y="831" type="curve" smooth="yes"/>
			<point x="302" y="831"/>
			<point x="309" y="833"/>
			<point x="321" y="837" type="curve" smooth="yes"/>
			<point x="333" y="841"/>
			<point x="345" y="843"/>
			<point x="357" y="843" type="curve" smooth="yes"/>
			<point x="378" y="843"/>
			<point x="389" y="833"/>
			<point x="389" y="814" type="curve" smooth="yes"/>
		</contour>
		<contour>
			<point x="930" y="115" type="curve" smooth="yes"/>
			<point x="971" y="115"/>
			<point x="993" y="165"/>
			<point x="993" y="239" type="curve" smooth="yes"/>
			<point x="993" y="297"/>
			<point x="975" y="343"/>
			<point x="948" y="372" type="curve"/>
			<point x="921" y="341" type="line"/>
			<point x="959" y="312"/>
			<point x="988" y="270"/>
			<point x="988" y="228" type="curve" smooth="yes"/>
			<point x="988" y="183"/>
			<point x="969" y="142"/>
			<point x="924" y="142" type="curve" smooth="yes"/>
			<point x="821" y="142"/>
			<point x="789" y="322"/>
			<point x="789" y="500" type="curve" smooth="yes"/>
			<point x="789" y="524"/>
			<point x="790" y="547"/>
			<point x="791" y="570" type="curve"/>
			<point x="902" y="604"/>
			<point x="994" y="628"/>
			<point x="994" y="766" type="curve" smooth="yes"/>
			<point x="994" y="820"/>
			<point x="981" y="891"/>
			<point x="934" y="891" type="curve" smooth="yes"/>
			<point x="868" y="891"/>
			<point x="777" y="741"/>
			<point x="757" y="567" type="curve"/>
			<point x="571" y="528"/>
			<point x="546" y="516"/>
			<point x="534" y="500" type="curve"/>
			<point x="558" y="474" type="line"/>
			<point x="575" y="504"/>
			<point x="614" y="534"/>
			<point x="756" y="562" type="curve"/>
			<point x="754" y="542"/>
			<point x="753" y="521"/>
			<point x="753" y="500" type="curve" smooth="yes"/>
			<point x="753" y="301"/>
			<point x="851" y="115"/>
		</contour>
		<contour>
			<point x="791" y="575" type="curve"/>
			<point x="800" y="731"/>
			<point x="838" y="860"/>
			<point x="930" y="860" type="curve" smooth="yes"/>
			<point x="972" y="860"/>
			<point x="988" y="822"/>
			<point x="988" y="780" type="curve" smooth="yes"/>
			<point x="988" y="697"/>
			<point x="910" y="613"/>
		</contour>
	</outline>
</glyph>
