<?xml version="1.0" encoding="UTF-8"?>
<glyph name="M_M.ss03_ss04" format="2">
	<advance width="1000"/>
	<note>
		M_M.ss03_ss04
  </note>
	<outline>
		<contour>
			<point x="21" y="4" type="curve"/>
			<point x="21" y="0" type="line"/>
			<point x="210" y="69"/>
			<point x="248" y="133"/>
			<point x="277" y="199" type="curve" smooth="yes"/>
			<point x="287" y="221"/>
			<point x="300" y="243"/>
			<point x="315" y="263" type="curve" smooth="yes"/>
			<point x="339" y="290"/>
			<point x="340" y="278"/>
			<point x="332" y="235" type="curve" smooth="yes"/>
			<point x="327" y="208"/>
			<point x="324" y="180"/>
			<point x="335" y="180" type="curve" smooth="yes"/>
			<point x="349" y="180"/>
			<point x="346" y="209"/>
			<point x="343" y="232" type="curve" smooth="yes"/>
			<point x="337" y="280"/>
			<point x="341" y="297"/>
			<point x="370" y="320" type="curve" smooth="yes"/>
			<point x="391" y="336"/>
			<point x="411" y="344"/>
			<point x="427" y="342" type="curve"/>
			<point x="461" y="328"/>
			<point x="449" y="281"/>
			<point x="446" y="262" type="curve" smooth="yes"/>
			<point x="445" y="256"/>
			<point x="445" y="244"/>
			<point x="450" y="244" type="curve" smooth="yes"/>
			<point x="456" y="244"/>
			<point x="456" y="253"/>
			<point x="455" y="263" type="curve" smooth="yes"/>
			<point x="449" y="324"/>
			<point x="454" y="337"/>
			<point x="472" y="298" type="curve" smooth="yes"/>
			<point x="511" y="204"/>
			<point x="398" y="30"/>
			<point x="230" y="4" type="curve"/>
			<point x="230" y="0" type="line"/>
			<point x="493" y="32"/>
			<point x="562" y="208"/>
			<point x="474" y="316" type="curve"/>
			<point x="489" y="344"/>
			<point x="468" y="459"/>
			<point x="501" y="459" type="curve" smooth="yes"/>
			<point x="553" y="459"/>
			<point x="553" y="297"/>
			<point x="553" y="211" type="curve" smooth="yes"/>
			<point x="553" y="109"/>
			<point x="600" y="88"/>
			<point x="676" y="0" type="curve"/>
			<point x="681" y="0" type="line"/>
			<point x="627" y="62"/>
			<point x="593" y="90"/>
			<point x="593" y="216" type="curve" smooth="yes"/>
			<point x="593" y="241"/>
			<point x="590" y="270"/>
			<point x="584" y="299" type="curve"/>
			<point x="592" y="317"/>
			<point x="610" y="325"/>
			<point x="631" y="323" type="curve" smooth="yes"/>
			<point x="636" y="322" type="line" smooth="yes"/>
			<point x="639" y="322"/>
			<point x="643" y="321"/>
			<point x="646" y="320" type="curve" smooth="yes"/>
			<point x="671" y="311"/>
			<point x="673" y="288"/>
			<point x="667" y="244" type="curve" smooth="yes"/>
			<point x="664" y="221"/>
			<point x="661" y="192"/>
			<point x="675" y="192" type="curve" smooth="yes"/>
			<point x="686" y="192"/>
			<point x="683" y="222"/>
			<point x="678" y="247" type="curve" smooth="yes"/>
			<point x="670" y="287"/>
			<point x="671" y="311"/>
			<point x="697" y="287" type="curve" smooth="yes"/>
			<point x="797" y="192"/>
			<point x="723" y="47"/>
			<point x="973" y="0" type="curve"/>
			<point x="973" y="6" type="line"/>
			<point x="819" y="40"/>
			<point x="793" y="248"/>
			<point x="678" y="315" type="curve" smooth="yes"/>
			<point x="638" y="339"/>
			<point x="601" y="334"/>
			<point x="582" y="309" type="curve"/>
			<point x="563" y="398"/>
			<point x="524" y="486"/>
			<point x="495" y="485" type="curve" smooth="yes"/>
			<point x="455" y="483"/>
			<point x="486" y="398"/>
			<point x="457" y="340" type="curve"/>
			<point x="438" y="375"/>
			<point x="469" y="400"/>
			<point x="457" y="403" type="curve" smooth="yes"/>
			<point x="445" y="406"/>
			<point x="447" y="464"/>
			<point x="433" y="421" type="curve" smooth="yes"/>
			<point x="420" y="375"/>
			<point x="446" y="357"/>
			<point x="453" y="337" type="curve"/>
			<point x="446" y="344"/>
			<point x="437" y="350"/>
			<point x="428" y="356" type="curve" smooth="yes"/>
			<point x="377" y="389"/>
			<point x="277" y="288"/>
			<point x="250" y="216" type="curve" smooth="yes"/>
			<point x="223" y="144"/>
			<point x="190" y="64"/>
		</contour>
		<contour>
			<point x="917" y="135" type="curve" smooth="yes"/>
			<point x="956" y="135"/>
			<point x="994" y="171"/>
			<point x="984" y="212" type="curve"/>
			<point x="946" y="207" type="line"/>
			<point x="948" y="191"/>
			<point x="944" y="147"/>
			<point x="909" y="147" type="curve" smooth="yes"/>
			<point x="862" y="147"/>
			<point x="813" y="196"/>
			<point x="813" y="240" type="curve" smooth="yes"/>
			<point x="813" y="318"/>
			<point x="911" y="271"/>
			<point x="969" y="329" type="curve" smooth="yes"/>
			<point x="988" y="349"/>
			<point x="996" y="373"/>
			<point x="996" y="401" type="curve" smooth="yes"/>
			<point x="996" y="500"/>
			<point x="900" y="489"/>
			<point x="814" y="457" type="curve"/>
			<point x="896" y="503"/>
			<point x="994" y="534"/>
			<point x="994" y="645" type="curve" smooth="yes"/>
			<point x="994" y="695"/>
			<point x="960" y="726"/>
			<point x="909" y="726" type="curve" smooth="yes"/>
			<point x="865" y="726"/>
			<point x="793" y="673"/>
			<point x="652" y="570" type="curve"/>
			<point x="650" y="572" type="line"/>
			<point x="732" y="644"/>
			<point x="845" y="744"/>
			<point x="848" y="746" type="curve" smooth="yes"/>
			<point x="890" y="782"/>
			<point x="933" y="813"/>
			<point x="933" y="851" type="curve" smooth="yes"/>
			<point x="933" y="867"/>
			<point x="927" y="882"/>
			<point x="919" y="888" type="curve"/>
			<point x="870" y="865" type="line"/>
			<point x="880" y="859"/>
			<point x="886" y="844"/>
			<point x="886" y="828" type="curve" smooth="yes"/>
			<point x="886" y="795"/>
			<point x="852" y="761"/>
			<point x="824" y="736" type="curve" smooth="yes"/>
			<point x="754" y="675"/>
			<point x="612" y="540"/>
			<point x="575" y="519" type="curve"/>
			<point x="566" y="521"/>
			<point x="558" y="522"/>
			<point x="551" y="522" type="curve" smooth="yes"/>
			<point x="531" y="522"/>
			<point x="519" y="515"/>
			<point x="519" y="501" type="curve" smooth="yes"/>
			<point x="519" y="491"/>
			<point x="529" y="485"/>
			<point x="538" y="485" type="curve" smooth="yes"/>
			<point x="548" y="485"/>
			<point x="559" y="491"/>
			<point x="568" y="498" type="curve" smooth="yes"/>
			<point x="783" y="665"/>
			<point x="839" y="691"/>
			<point x="885" y="691" type="curve" smooth="yes"/>
			<point x="938" y="691"/>
			<point x="976" y="665"/>
			<point x="976" y="614" type="curve" smooth="yes"/>
			<point x="976" y="551"/>
			<point x="897" y="510"/>
			<point x="800" y="456" type="curve"/>
			<point x="798" y="456"/>
			<point x="797" y="456"/>
			<point x="795" y="456" type="curve" smooth="yes"/>
			<point x="788" y="455" type="line" smooth="yes"/>
			<point x="758" y="451"/>
			<point x="740" y="452"/>
			<point x="735" y="437" type="curve" smooth="yes"/>
			<point x="732" y="428"/>
			<point x="736" y="419"/>
			<point x="745" y="416" type="curve" smooth="yes"/>
			<point x="758" y="411"/>
			<point x="775" y="421"/>
			<point x="804" y="449" type="curve"/>
			<point x="804" y="450" type="line"/>
			<point x="876" y="466"/>
			<point x="989" y="470"/>
			<point x="989" y="404" type="curve" smooth="yes"/>
			<point x="989" y="382"/>
			<point x="977" y="363"/>
			<point x="956" y="347" type="curve" smooth="yes"/>
			<point x="916" y="314"/>
			<point x="851" y="330"/>
			<point x="820" y="297" type="curve" smooth="yes"/>
			<point x="808" y="282"/>
			<point x="804" y="261"/>
			<point x="804" y="245" type="curve" smooth="yes"/>
			<point x="804" y="194"/>
			<point x="868" y="135"/>
		</contour>
	</outline>
</glyph>
