<?xml version="1.0" encoding="UTF-8"?>
<glyph name="N.ss02" format="2">
	<advance width="1000"/>
	<note>
		N.ss02
  </note>
	<outline>
		<contour>
			<point x="63" y="977" type="line"/>
			<point x="497" y="544" type="line"/>
			<point x="601" y="647" type="line"/>
			<point x="565" y="677"/>
			<point x="523" y="695"/>
			<point x="471" y="711" type="curve"/>
			<point x="528" y="711"/>
			<point x="578" y="713"/>
			<point x="622" y="718" type="curve" smooth="yes"/>
			<point x="707" y="728"/>
			<point x="792" y="758"/>
			<point x="807" y="835" type="curve" smooth="yes"/>
			<point x="823" y="944"/>
			<point x="659" y="968"/>
			<point x="491" y="968" type="curve" smooth="yes"/>
			<point x="362" y="968"/>
			<point x="285" y="959"/>
			<point x="281" y="859" type="curve" smooth="yes"/>
			<point x="279" y="836"/>
			<point x="282" y="825"/>
			<point x="270" y="811" type="curve"/>
			<point x="239" y="851"/>
			<point x="223" y="906"/>
			<point x="223" y="977" type="curve"/>
		</contour>
		<contour>
			<point x="469" y="712" type="curve" smooth="yes"/>
			<point x="467" y="712"/>
			<point x="443" y="720"/>
			<point x="443" y="720" type="curve"/>
			<point x="395" y="734"/>
			<point x="353" y="748"/>
			<point x="314" y="773" type="curve"/>
			<point x="315" y="775"/>
			<point x="315" y="778"/>
			<point x="315" y="781" type="curve" smooth="yes"/>
			<point x="315" y="797"/>
			<point x="299" y="828"/>
			<point x="299" y="852" type="curve" smooth="yes"/>
			<point x="299" y="909"/>
			<point x="401" y="916"/>
			<point x="491" y="916" type="curve" smooth="yes"/>
			<point x="614" y="916"/>
			<point x="749" y="889"/>
			<point x="749" y="824" type="curve" smooth="yes"/>
			<point x="749" y="762"/>
			<point x="588" y="726"/>
		</contour>
	</outline>
</glyph>
