<?xml version="1.0" encoding="UTF-8"?>
<glyph name="O_O.ss02_ss03" format="2">
	<advance width="1000"/>
	<note>
		O_O.ss02_ss03
  </note>
	<outline>
		<contour>
			<point x="518" y="574" type="curve" smooth="yes"/>
			<point x="546" y="577"/>
			<point x="595" y="610"/>
			<point x="645" y="662" type="curve" smooth="yes"/>
			<point x="722" y="741"/>
			<point x="853" y="897"/>
			<point x="926" y="980" type="curve"/>
			<point x="817" y="937"/>
			<point x="601" y="970"/>
			<point x="464" y="988" type="curve" smooth="yes"/>
			<point x="288" y="1011"/>
			<point x="204" y="971"/>
			<point x="220" y="910" type="curve" smooth="yes"/>
			<point x="228" y="880"/>
			<point x="255" y="870"/>
			<point x="255" y="839" type="curve" smooth="yes"/>
			<point x="255" y="821"/>
			<point x="244" y="809"/>
			<point x="222" y="795" type="curve"/>
			<point x="433" y="558"/>
			<point x="492" y="571"/>
		</contour>
		<contour>
			<point x="554" y="677" type="curve" smooth="yes"/>
			<point x="469" y="677"/>
			<point x="342" y="818"/>
			<point x="342" y="884" type="curve" smooth="yes"/>
			<point x="342" y="961"/>
			<point x="491" y="945"/>
			<point x="629" y="928" type="curve" smooth="yes"/>
			<point x="695" y="920"/>
			<point x="741" y="909"/>
			<point x="741" y="866" type="curve" smooth="yes"/>
			<point x="741" y="802"/>
			<point x="626" y="677"/>
		</contour>
		<contour>
			<point x="552" y="733" type="curve" smooth="yes"/>
			<point x="599" y="733"/>
			<point x="637" y="771"/>
			<point x="637" y="819" type="curve" smooth="yes"/>
			<point x="637" y="867"/>
			<point x="598" y="904"/>
			<point x="552" y="904" type="curve" smooth="yes"/>
			<point x="504" y="904"/>
			<point x="467" y="865"/>
			<point x="467" y="819" type="curve" smooth="yes"/>
			<point x="467" y="771"/>
			<point x="505" y="733"/>
		</contour>
		<contour>
			<point x="838" y="463" type="curve" smooth="yes"/>
			<point x="919" y="463"/>
			<point x="985" y="529"/>
			<point x="985" y="610" type="curve" smooth="yes"/>
			<point x="985" y="690"/>
			<point x="919" y="756"/>
			<point x="838" y="756" type="curve" smooth="yes"/>
			<point x="757" y="756"/>
			<point x="691" y="690"/>
			<point x="691" y="610" type="curve" smooth="yes"/>
			<point x="691" y="529"/>
			<point x="757" y="463"/>
		</contour>
		<contour>
			<point x="838" y="485" type="curve" smooth="yes"/>
			<point x="769" y="485"/>
			<point x="713" y="541"/>
			<point x="713" y="610" type="curve" smooth="yes"/>
			<point x="713" y="679"/>
			<point x="769" y="735"/>
			<point x="838" y="735" type="curve" smooth="yes"/>
			<point x="908" y="735"/>
			<point x="964" y="679"/>
			<point x="964" y="610" type="curve" smooth="yes"/>
			<point x="964" y="541"/>
			<point x="908" y="485"/>
		</contour>
	</outline>
</glyph>
