<?xml version="1.0" encoding="UTF-8"?>
<glyph name="OE_OE.ss03_ss04" format="2">
	<advance width="1000"/>
	<note>
		OE_OE.ss03_ss04
  </note>
	<outline>
		<contour>
			<point x="536" y="0" type="curve" smooth="yes"/>
			<point x="615" y="0"/>
			<point x="679" y="8"/>
			<point x="726" y="23" type="curve" smooth="yes"/>
			<point x="776" y="38"/>
			<point x="803" y="65"/>
			<point x="811" y="96" type="curve"/>
			<point x="820" y="100"/>
			<point x="828" y="105"/>
			<point x="836" y="110" type="curve" smooth="yes"/>
			<point x="860" y="124"/>
			<point x="860" y="146"/>
			<point x="847" y="158" type="curve" smooth="yes"/>
			<point x="838" y="167"/>
			<point x="823" y="166"/>
			<point x="807" y="158" type="curve"/>
			<point x="783" y="229"/>
			<point x="700" y="307"/>
			<point x="600" y="344" type="curve"/>
			<point x="603" y="362"/>
			<point x="594" y="394"/>
			<point x="575" y="420" type="curve"/>
			<point x="589" y="421"/>
			<point x="605" y="422"/>
			<point x="620" y="422" type="curve"/>
			<point x="592" y="448" type="line"/>
			<point x="580" y="446"/>
			<point x="568" y="443"/>
			<point x="556" y="439" type="curve"/>
			<point x="541" y="452"/>
			<point x="522" y="460"/>
			<point x="501" y="460" type="curve" smooth="yes"/>
			<point x="466" y="460"/>
			<point x="422" y="432"/>
			<point x="418" y="387" type="curve"/>
			<point x="373" y="361"/>
			<point x="334" y="327"/>
			<point x="306" y="291" type="curve" smooth="yes"/>
			<point x="287" y="268"/>
			<point x="273" y="246"/>
			<point x="263" y="225" type="curve"/>
			<point x="196" y="192"/>
			<point x="149" y="148"/>
			<point x="149" y="95" type="curve" smooth="yes"/>
			<point x="149" y="36"/>
			<point x="238" y="2"/>
			<point x="379" y="2" type="curve" smooth="yes"/>
			<point x="405" y="2"/>
			<point x="432" y="3"/>
			<point x="459" y="4" type="curve"/>
			<point x="483" y="1"/>
			<point x="509" y="0"/>
		</contour>
		<contour>
			<point x="375" y="13" type="curve" smooth="yes"/>
			<point x="261" y="15"/>
			<point x="202" y="71"/>
			<point x="202" y="129" type="curve" smooth="yes"/>
			<point x="202" y="161"/>
			<point x="229" y="192"/>
			<point x="256" y="208" type="curve"/>
			<point x="220" y="111"/>
			<point x="284" y="41"/>
			<point x="404" y="14" type="curve"/>
			<point x="394" y="13"/>
			<point x="385" y="13"/>
		</contour>
		<contour>
			<point x="517" y="8" type="curve" smooth="yes"/>
			<point x="373" y="6"/>
			<point x="256" y="109"/>
			<point x="277" y="218" type="curve"/>
			<point x="283" y="220"/>
			<point x="288" y="221"/>
			<point x="293" y="221" type="curve" smooth="yes"/>
			<point x="310" y="221"/>
			<point x="323" y="213"/>
			<point x="323" y="188" type="curve" smooth="yes"/>
			<point x="323" y="180"/>
			<point x="322" y="169"/>
			<point x="320" y="157" type="curve" smooth="yes"/>
			<point x="315" y="130"/>
			<point x="312" y="102"/>
			<point x="323" y="102" type="curve" smooth="yes"/>
			<point x="337" y="102"/>
			<point x="333" y="131"/>
			<point x="331" y="154" type="curve" smooth="yes"/>
			<point x="328" y="194"/>
			<point x="328" y="227"/>
			<point x="356" y="242" type="curve" smooth="yes"/>
			<point x="400" y="266"/>
			<point x="483" y="285"/>
			<point x="570" y="290" type="curve" smooth="yes"/>
			<point x="586" y="291"/>
			<point x="601" y="290"/>
			<point x="615" y="289" type="curve" smooth="yes"/>
			<point x="624" y="288"/>
			<point x="628" y="292"/>
			<point x="628" y="296" type="curve" smooth="yes"/>
			<point x="628" y="300"/>
			<point x="624" y="304"/>
			<point x="615" y="303" type="curve" smooth="yes"/>
			<point x="593" y="301"/>
			<point x="561" y="303"/>
			<point x="538" y="305" type="curve" smooth="yes"/>
			<point x="501" y="308"/>
			<point x="488" y="312"/>
			<point x="488" y="345" type="curve" smooth="yes"/>
			<point x="488" y="346" type="line"/>
			<point x="545" y="355"/>
			<point x="604" y="340"/>
			<point x="665" y="296" type="curve" smooth="yes"/>
			<point x="683" y="283"/>
			<point x="688" y="266"/>
			<point x="688" y="252" type="curve" smooth="yes"/>
			<point x="688" y="238"/>
			<point x="685" y="227"/>
			<point x="684" y="219" type="curve" smooth="yes"/>
			<point x="683" y="213"/>
			<point x="683" y="201"/>
			<point x="688" y="201" type="curve" smooth="yes"/>
			<point x="694" y="201"/>
			<point x="694" y="210"/>
			<point x="693" y="220" type="curve" smooth="yes"/>
			<point x="688" y="269"/>
			<point x="697" y="272"/>
			<point x="713" y="255" type="curve" smooth="yes"/>
			<point x="777" y="179"/>
			<point x="785" y="76"/>
			<point x="679" y="35" type="curve" smooth="yes"/>
			<point x="635" y="18"/>
			<point x="592" y="8"/>
		</contour>
		<contour>
			<point x="281" y="233" type="curve"/>
			<point x="286" y="250"/>
			<point x="295" y="267"/>
			<point x="307" y="283" type="curve" smooth="yes"/>
			<point x="332" y="317"/>
			<point x="369" y="348"/>
			<point x="418" y="371" type="curve"/>
			<point x="418" y="368" type="line" smooth="yes"/>
			<point x="427" y="300"/>
			<point x="504" y="298"/>
			<point x="570" y="298" type="curve" smooth="yes"/>
			<point x="574" y="298"/>
			<point x="574" y="295"/>
			<point x="570" y="295" type="curve" smooth="yes"/>
			<point x="487" y="295"/>
			<point x="370" y="273"/>
		</contour>
		<contour>
			<point x="475" y="319" type="curve" smooth="yes"/>
			<point x="469" y="318"/>
			<point x="461" y="326"/>
			<point x="454" y="337" type="curve"/>
			<point x="464" y="341"/>
			<point x="474" y="343"/>
			<point x="484" y="345" type="curve"/>
			<point x="484" y="331"/>
			<point x="481" y="320"/>
		</contour>
		<contour>
			<point x="441" y="364" type="curve"/>
			<point x="437" y="376"/>
			<point x="434" y="388"/>
			<point x="434" y="398" type="curve" smooth="yes"/>
			<point x="434" y="418"/>
			<point x="445" y="435"/>
			<point x="466" y="432" type="curve" smooth="yes"/>
			<point x="482" y="430"/>
			<point x="485" y="409"/>
			<point x="485" y="369" type="curve" smooth="yes"/>
			<point x="485" y="367" type="line"/>
			<point x="470" y="367"/>
			<point x="455" y="366"/>
		</contour>
		<contour>
			<point x="582" y="351" type="curve"/>
			<point x="558" y="358"/>
			<point x="533" y="364"/>
			<point x="509" y="366" type="curve" smooth="yes"/>
			<point x="502" y="367"/>
			<point x="495" y="367"/>
			<point x="488" y="367" type="curve"/>
			<point x="489" y="424"/>
			<point x="494" y="432"/>
			<point x="516" y="432" type="curve" smooth="yes"/>
			<point x="558" y="432"/>
			<point x="598" y="395"/>
		</contour>
		<contour>
			<point x="930" y="115" type="curve" smooth="yes"/>
			<point x="971" y="115"/>
			<point x="993" y="165"/>
			<point x="993" y="239" type="curve" smooth="yes"/>
			<point x="993" y="320"/>
			<point x="958" y="379"/>
			<point x="909" y="399" type="curve"/>
			<point x="880" y="364" type="line"/>
			<point x="935" y="342"/>
			<point x="987" y="284"/>
			<point x="987" y="228" type="curve" smooth="yes"/>
			<point x="987" y="183"/>
			<point x="969" y="142"/>
			<point x="924" y="142" type="curve" smooth="yes"/>
			<point x="821" y="142"/>
			<point x="789" y="335"/>
			<point x="789" y="500" type="curve" smooth="yes"/>
			<point x="789" y="524"/>
			<point x="790" y="547"/>
			<point x="791" y="570" type="curve"/>
			<point x="902" y="604"/>
			<point x="994" y="628"/>
			<point x="994" y="766" type="curve" smooth="yes"/>
			<point x="994" y="820"/>
			<point x="981" y="891"/>
			<point x="934" y="891" type="curve" smooth="yes"/>
			<point x="864" y="891"/>
			<point x="794" y="737"/>
			<point x="778" y="637" type="curve"/>
			<point x="774" y="637" type="line"/>
			<point x="774" y="666"/>
			<point x="769" y="684"/>
			<point x="746" y="684" type="curve" smooth="yes"/>
			<point x="707" y="684"/>
			<point x="590" y="562"/>
			<point x="589" y="500" type="curve" smooth="yes"/>
			<point x="588" y="448"/>
			<point x="700" y="316"/>
			<point x="746" y="316" type="curve" smooth="yes"/>
			<point x="763" y="316"/>
			<point x="770" y="326"/>
			<point x="773" y="343" type="curve"/>
			<point x="797" y="227"/>
			<point x="883" y="115"/>
		</contour>
		<contour>
			<point x="736" y="343" type="curve" smooth="yes"/>
			<point x="677" y="343"/>
			<point x="618" y="420"/>
			<point x="618" y="500" type="curve" smooth="yes"/>
			<point x="618" y="577"/>
			<point x="675" y="657"/>
			<point x="736" y="657" type="curve" smooth="yes"/>
			<point x="777" y="657"/>
			<point x="765" y="590"/>
			<point x="765" y="500" type="curve" smooth="yes"/>
			<point x="765" y="414"/>
			<point x="777" y="343"/>
		</contour>
		<contour>
			<point x="791" y="575" type="curve"/>
			<point x="800" y="727"/>
			<point x="839" y="860"/>
			<point x="930" y="860" type="curve" smooth="yes"/>
			<point x="972" y="860"/>
			<point x="988" y="822"/>
			<point x="988" y="780" type="curve" smooth="yes"/>
			<point x="988" y="697"/>
			<point x="910" y="613"/>
		</contour>
	</outline>
</glyph>
