<?xml version="1.0" encoding="UTF-8"?>
<glyph name="P.ss02" format="2">
	<advance width="1000"/>
	<note>
		P.ss02
  </note>
	<outline>
		<contour>
			<point x="459" y="586" type="curve"/>
			<point x="484" y="558" type="line"/>
			<point x="484" y="575"/>
			<point x="487" y="587"/>
			<point x="493" y="592" type="curve" smooth="yes"/>
			<point x="499" y="598"/>
			<point x="508" y="601"/>
			<point x="520" y="602" type="curve" smooth="yes"/>
			<point x="532" y="603"/>
			<point x="540" y="606"/>
			<point x="545" y="610" type="curve"/>
			<point x="545" y="876" type="line"/>
			<point x="482" y="909" type="line"/>
			<point x="495" y="927"/>
			<point x="508" y="941"/>
			<point x="520" y="952" type="curve" smooth="yes"/>
			<point x="532" y="963"/>
			<point x="543" y="967"/>
			<point x="554" y="966" type="curve" smooth="yes"/>
			<point x="567" y="965"/>
			<point x="580" y="956"/>
			<point x="592" y="941" type="curve" smooth="yes"/>
			<point x="604" y="926"/>
			<point x="614" y="908"/>
			<point x="621" y="886" type="curve" smooth="yes"/>
			<point x="628" y="864"/>
			<point x="632" y="841"/>
			<point x="632" y="818" type="curve" smooth="yes"/>
			<point x="632" y="793"/>
			<point x="630" y="776"/>
			<point x="627" y="767" type="curve" smooth="yes"/>
			<point x="623" y="757"/>
			<point x="618" y="752"/>
			<point x="611" y="752" type="curve" smooth="yes"/>
			<point x="607" y="752"/>
			<point x="600" y="753"/>
			<point x="589" y="759" type="curve" smooth="yes"/>
			<point x="569" y="770"/>
			<point x="563" y="770"/>
			<point x="547" y="767" type="curve"/>
			<point x="559" y="768"/>
			<point x="571" y="765"/>
			<point x="583" y="756" type="curve" smooth="yes"/>
			<point x="595" y="747"/>
			<point x="609" y="733"/>
			<point x="625" y="716" type="curve" smooth="yes"/>
			<point x="639" y="701"/>
			<point x="648" y="693"/>
			<point x="652" y="693" type="curve" smooth="yes"/>
			<point x="655" y="693"/>
			<point x="657" y="697"/>
			<point x="657" y="705" type="curve" smooth="yes"/>
			<point x="657" y="722"/>
			<point x="658" y="734"/>
			<point x="661" y="741" type="curve" smooth="yes"/>
			<point x="664" y="748"/>
			<point x="668" y="751"/>
			<point x="673" y="751" type="curve" smooth="yes"/>
			<point x="674" y="751"/>
			<point x="677" y="751"/>
			<point x="681" y="750" type="curve" smooth="yes"/>
			<point x="685" y="749"/>
			<point x="686" y="748"/>
			<point x="689" y="748" type="curve" smooth="yes"/>
			<point x="696" y="748"/>
			<point x="702" y="754"/>
			<point x="706" y="764" type="curve" smooth="yes"/>
			<point x="710" y="774"/>
			<point x="712" y="793"/>
			<point x="712" y="822" type="curve" smooth="yes"/>
			<point x="712" y="865"/>
			<point x="703" y="900"/>
			<point x="686" y="926" type="curve" smooth="yes"/>
			<point x="669" y="952"/>
			<point x="648" y="970"/>
			<point x="624" y="981" type="curve" smooth="yes"/>
			<point x="583" y="999"/>
			<point x="546" y="1001"/>
			<point x="498" y="986" type="curve" smooth="yes"/>
			<point x="463" y="975"/>
			<point x="427" y="957"/>
			<point x="409" y="946" type="curve"/>
			<point x="350" y="977" type="line"/>
			<point x="368" y="946" type="line"/>
			<point x="259" y="953" type="line"/>
			<point x="309" y="948"/>
			<point x="347" y="942"/>
			<point x="372" y="935" type="curve" smooth="yes"/>
			<point x="398" y="928"/>
			<point x="414" y="920"/>
			<point x="422" y="912" type="curve" smooth="yes"/>
			<point x="430" y="904"/>
			<point x="436" y="894"/>
			<point x="441" y="881" type="curve" smooth="yes"/>
			<point x="444" y="872"/>
			<point x="448" y="864"/>
			<point x="453" y="858" type="curve" smooth="yes"/>
			<point x="458" y="852"/>
			<point x="465" y="846"/>
			<point x="476" y="840" type="curve"/>
			<point x="476" y="654" type="line" smooth="yes"/>
			<point x="476" y="637"/>
			<point x="475" y="626"/>
			<point x="474" y="619" type="curve" smooth="yes"/>
			<point x="472" y="612"/>
			<point x="469" y="607"/>
			<point x="466" y="602" type="curve" smooth="yes"/>
			<point x="463" y="597"/>
			<point x="460" y="591"/>
		</contour>
	</outline>
</glyph>
