<?xml version="1.0" encoding="UTF-8"?>
<glyph name="question_question_question.ss02_ss04_ss0" format="2">
	<advance width="1000"/>
	<note>
		question_question_question.ss02_ss04_ss0
  </note>
	<outline>
		<contour>
			<point x="545" y="19" type="curve" smooth="yes"/>
			<point x="545" y="10"/>
			<point x="551" y="12"/>
			<point x="551" y="22" type="curve" smooth="yes"/>
			<point x="551" y="38"/>
			<point x="546" y="52"/>
			<point x="535" y="66" type="curve" smooth="yes"/>
			<point x="506" y="99"/>
			<point x="450" y="118"/>
			<point x="450" y="158" type="curve" smooth="yes"/>
			<point x="450" y="179"/>
			<point x="486" y="199"/>
			<point x="522" y="219" type="curve"/>
			<point x="542" y="228"/>
			<point x="542" y="190"/>
			<point x="539" y="165" type="curve" smooth="yes"/>
			<point x="538" y="156"/>
			<point x="538" y="147"/>
			<point x="545" y="147" type="curve" smooth="yes"/>
			<point x="552" y="147"/>
			<point x="550" y="159"/>
			<point x="549" y="164" type="curve" smooth="yes"/>
			<point x="546" y="180"/>
			<point x="539" y="226"/>
			<point x="559" y="239" type="curve" smooth="yes"/>
			<point x="600" y="262"/>
			<point x="631" y="301"/>
			<point x="631" y="349" type="curve" smooth="yes"/>
			<point x="631" y="409"/>
			<point x="584" y="437"/>
			<point x="511" y="437" type="curve" smooth="yes"/>
			<point x="441" y="437"/>
			<point x="393" y="424"/>
			<point x="337" y="369" type="curve" smooth="yes"/>
			<point x="316" y="348"/>
			<point x="319" y="334"/>
			<point x="332" y="330" type="curve" smooth="yes"/>
			<point x="346" y="325"/>
			<point x="354" y="335"/>
			<point x="365" y="358" type="curve" smooth="yes"/>
			<point x="383" y="395"/>
			<point x="406" y="419"/>
			<point x="444" y="419" type="curve" smooth="yes"/>
			<point x="461" y="419"/>
			<point x="459" y="397"/>
			<point x="454" y="374" type="curve" smooth="yes"/>
			<point x="449" y="353"/>
			<point x="447" y="329"/>
			<point x="457" y="329" type="curve" smooth="yes"/>
			<point x="468" y="329"/>
			<point x="465" y="353"/>
			<point x="463" y="372" type="curve" smooth="yes"/>
			<point x="459" y="398"/>
			<point x="463" y="425"/>
			<point x="487" y="425" type="curve" smooth="yes"/>
			<point x="538" y="425"/>
			<point x="567" y="399"/>
			<point x="569" y="335" type="curve" smooth="yes"/>
			<point x="570" y="286"/>
			<point x="543" y="245"/>
			<point x="490" y="210" type="curve" smooth="yes"/>
			<point x="464" y="193"/>
			<point x="424" y="165"/>
			<point x="424" y="139" type="curve" smooth="yes"/>
			<point x="424" y="95"/>
			<point x="545" y="81"/>
		</contour>
		<contour>
			<point x="509" y="4" type="curve"/>
			<point x="511" y="9" type="line"/>
			<point x="517" y="6"/>
			<point x="525" y="11"/>
			<point x="526" y="16" type="curve"/>
			<point x="532" y="14" type="line"/>
			<point x="530" y="5"/>
			<point x="517" y="0"/>
		</contour>
		<contour>
			<point x="508" y="26" type="curve"/>
			<point x="518" y="17" type="line"/>
			<point x="512" y="13"/>
			<point x="504" y="21"/>
		</contour>
		<contour>
			<point x="513" y="0" type="curve" smooth="yes"/>
			<point x="527" y="0"/>
			<point x="539" y="11"/>
			<point x="539" y="23" type="curve" smooth="yes"/>
			<point x="539" y="36"/>
			<point x="527" y="47"/>
			<point x="513" y="47" type="curve" smooth="yes"/>
			<point x="499" y="47"/>
			<point x="487" y="36"/>
			<point x="487" y="23" type="curve" smooth="yes"/>
			<point x="487" y="11"/>
			<point x="499" y="0"/>
		</contour>
		<contour>
			<point x="496" y="25" type="curve"/>
			<point x="491" y="27" type="line"/>
			<point x="492" y="36"/>
			<point x="504" y="45"/>
			<point x="516" y="44" type="curve"/>
			<point x="515" y="40" type="line"/>
			<point x="508" y="40"/>
			<point x="497" y="33"/>
		</contour>
		<contour>
			<point x="527" y="32" type="curve"/>
			<point x="523" y="29" type="line"/>
			<point x="518" y="35"/>
			<point x="512" y="32"/>
			<point x="508" y="30" type="curve"/>
			<point x="504" y="33" type="line"/>
			<point x="510" y="40"/>
			<point x="522" y="40"/>
		</contour>
		<contour>
			<point x="460" y="623" type="curve" smooth="yes"/>
			<point x="480" y="634"/>
			<point x="494" y="650"/>
			<point x="513" y="636" type="curve" smooth="yes"/>
			<point x="537" y="619"/>
			<point x="507" y="677"/>
			<point x="513" y="687" type="curve" smooth="yes"/>
			<point x="519" y="697"/>
			<point x="538" y="617"/>
			<point x="597" y="642" type="curve" smooth="yes"/>
			<point x="641" y="661"/>
			<point x="694" y="764"/>
			<point x="694" y="822" type="curve"/>
			<point x="677" y="829"/>
			<point x="665" y="838"/>
			<point x="656" y="847" type="curve"/>
			<point x="681" y="848" type="line"/>
			<point x="668" y="918"/>
			<point x="643" y="949"/>
			<point x="583" y="979" type="curve" smooth="yes"/>
			<point x="497" y="1022"/>
			<point x="410" y="992"/>
			<point x="355" y="897" type="curve" smooth="yes"/>
			<point x="341" y="873"/>
			<point x="321" y="833"/>
			<point x="339" y="824" type="curve" smooth="yes"/>
			<point x="343" y="822"/>
			<point x="351" y="819"/>
			<point x="354" y="817" type="curve" smooth="yes"/>
			<point x="366" y="809"/>
			<point x="357" y="789"/>
			<point x="345" y="770" type="curve" smooth="yes"/>
			<point x="340" y="762"/>
			<point x="340" y="758"/>
			<point x="343" y="756" type="curve" smooth="yes"/>
			<point x="352" y="750"/>
			<point x="404" y="756"/>
			<point x="423" y="775" type="curve"/>
			<point x="405" y="791"/>
			<point x="407" y="833"/>
			<point x="421" y="856" type="curve" smooth="yes"/>
			<point x="466" y="930"/>
			<point x="512" y="989"/>
			<point x="567" y="954" type="curve" smooth="yes"/>
			<point x="608" y="928"/>
			<point x="599" y="897"/>
			<point x="596" y="845" type="curve"/>
			<point x="627" y="846" type="line"/>
			<point x="615" y="769"/>
			<point x="571" y="624"/>
			<point x="525" y="725" type="curve" smooth="yes"/>
			<point x="470" y="845"/>
			<point x="516" y="812"/>
			<point x="528" y="805" type="curve" smooth="yes"/>
			<point x="542" y="797"/>
			<point x="445" y="893"/>
			<point x="432" y="722" type="curve" smooth="yes"/>
			<point x="423" y="602"/>
			<point x="442" y="613"/>
		</contour>
		<contour>
			<point x="271" y="745" type="curve" smooth="yes"/>
			<point x="288" y="745"/>
			<point x="300" y="760"/>
			<point x="300" y="778" type="curve" smooth="yes"/>
			<point x="300" y="796"/>
			<point x="287" y="810"/>
			<point x="271" y="810" type="curve" smooth="yes"/>
			<point x="256" y="810"/>
			<point x="243" y="796"/>
			<point x="243" y="778" type="curve" smooth="yes"/>
			<point x="243" y="760"/>
			<point x="256" y="745"/>
		</contour>
		<contour>
			<point x="486" y="532" type="curve" smooth="yes"/>
			<point x="508" y="531"/>
			<point x="526" y="550"/>
			<point x="528" y="575" type="curve" smooth="yes"/>
			<point x="530" y="601"/>
			<point x="513" y="620"/>
			<point x="491" y="621" type="curve" smooth="yes"/>
			<point x="469" y="622"/>
			<point x="451" y="603"/>
			<point x="450" y="579" type="curve" smooth="yes"/>
			<point x="449" y="554"/>
			<point x="464" y="533"/>
		</contour>
		<contour>
			<point x="226" y="798" type="curve" smooth="yes"/>
			<point x="252" y="798"/>
			<point x="266" y="823"/>
			<point x="259" y="845" type="curve" smooth="yes"/>
			<point x="256" y="855"/>
			<point x="246" y="869"/>
			<point x="246" y="875" type="curve" smooth="yes"/>
			<point x="246" y="881"/>
			<point x="253" y="882"/>
			<point x="269" y="879" type="curve" smooth="yes"/>
			<point x="313" y="871"/>
			<point x="348" y="892"/>
			<point x="348" y="918" type="curve" smooth="yes"/>
			<point x="348" y="937"/>
			<point x="323" y="997"/>
			<point x="255" y="997" type="curve" smooth="yes"/>
			<point x="208" y="997"/>
			<point x="166" y="965"/>
			<point x="175" y="924" type="curve" smooth="yes"/>
			<point x="183" y="887"/>
			<point x="286" y="891"/>
			<point x="286" y="923" type="curve" smooth="yes"/>
			<point x="286" y="951"/>
			<point x="229" y="956"/>
			<point x="229" y="925" type="curve"/>
			<point x="245" y="925" type="line"/>
			<point x="245" y="937"/>
			<point x="269" y="940"/>
			<point x="271" y="923" type="curve" smooth="yes"/>
			<point x="273" y="904"/>
			<point x="220" y="902"/>
			<point x="220" y="925" type="curve" smooth="yes"/>
			<point x="220" y="970"/>
			<point x="298" y="968"/>
			<point x="298" y="917" type="curve" smooth="yes"/>
			<point x="298" y="898"/>
			<point x="287" y="893"/>
			<point x="260" y="893" type="curve" smooth="yes"/>
			<point x="214" y="893"/>
			<point x="193" y="883"/>
			<point x="193" y="843" type="curve" smooth="yes"/>
			<point x="193" y="816"/>
			<point x="203" y="798"/>
		</contour>
		<contour>
			<point x="731" y="745" type="curve" smooth="yes"/>
			<point x="747" y="745"/>
			<point x="760" y="760"/>
			<point x="760" y="778" type="curve" smooth="yes"/>
			<point x="760" y="796"/>
			<point x="747" y="810"/>
			<point x="731" y="810" type="curve" smooth="yes"/>
			<point x="716" y="810"/>
			<point x="703" y="796"/>
			<point x="703" y="778" type="curve" smooth="yes"/>
			<point x="703" y="760"/>
			<point x="716" y="745"/>
		</contour>
		<contour>
			<point x="703" y="836" type="curve" smooth="yes"/>
			<point x="703" y="814"/>
			<point x="762" y="814"/>
			<point x="762" y="837" type="curve" smooth="yes"/>
			<point x="762" y="860"/>
			<point x="775" y="856"/>
			<point x="807" y="856" type="curve" smooth="yes"/>
			<point x="863" y="856"/>
			<point x="887" y="879"/>
			<point x="887" y="926" type="curve" smooth="yes"/>
			<point x="887" y="971"/>
			<point x="854" y="997"/>
			<point x="808" y="997" type="curve" smooth="yes"/>
			<point x="744" y="997"/>
			<point x="705" y="967"/>
			<point x="705" y="903" type="curve" smooth="yes"/>
			<point x="705" y="879"/>
			<point x="753" y="909"/>
			<point x="753" y="909" type="curve"/>
			<point x="675" y="965"/>
			<point x="794" y="925"/>
			<point x="794" y="945" type="curve" smooth="yes"/>
			<point x="794" y="955"/>
			<point x="777" y="967"/>
			<point x="777" y="971" type="curve" smooth="yes"/>
			<point x="777" y="974"/>
			<point x="784" y="976"/>
			<point x="800" y="976" type="curve" smooth="yes"/>
			<point x="815" y="976"/>
			<point x="827" y="973"/>
			<point x="827" y="965" type="curve" smooth="yes"/>
			<point x="827" y="955"/>
			<point x="809" y="936"/>
			<point x="809" y="923" type="curve" smooth="yes"/>
			<point x="809" y="912"/>
			<point x="828" y="890"/>
			<point x="828" y="883" type="curve" smooth="yes"/>
			<point x="828" y="876"/>
			<point x="821" y="873"/>
			<point x="807" y="873" type="curve" smooth="yes"/>
			<point x="754" y="873"/>
			<point x="703" y="867"/>
		</contour>
		<contour>
			<point x="871" y="311" type="curve"/>
			<point x="835" y="337" type="line"/>
			<point x="796" y="282"/>
			<point x="718" y="320"/>
			<point x="718" y="371" type="curve" smooth="yes"/>
			<point x="718" y="434"/>
			<point x="770" y="470"/>
			<point x="850" y="544" type="curve" smooth="yes"/>
			<point x="957" y="643"/>
			<point x="991" y="662"/>
			<point x="991" y="766" type="curve" smooth="yes"/>
			<point x="991" y="825"/>
			<point x="967" y="860"/>
			<point x="920" y="860" type="curve" smooth="yes"/>
			<point x="828" y="860"/>
			<point x="633" y="624"/>
			<point x="663" y="489" type="curve"/>
			<point x="718" y="510" type="line"/>
			<point x="674" y="640"/>
			<point x="793" y="830"/>
			<point x="928" y="830" type="curve" smooth="yes"/>
			<point x="963" y="830"/>
			<point x="983" y="807"/>
			<point x="983" y="776" type="curve" smooth="yes"/>
			<point x="983" y="724"/>
			<point x="924" y="621"/>
			<point x="843" y="550" type="curve" smooth="yes"/>
			<point x="737" y="457"/>
			<point x="690" y="429"/>
			<point x="689" y="390" type="curve" smooth="yes"/>
			<point x="688" y="370"/>
			<point x="705" y="345"/>
			<point x="727" y="326" type="curve" smooth="yes"/>
			<point x="765" y="293"/>
			<point x="832" y="261"/>
		</contour>
		<contour>
			<point x="912" y="201" type="curve" smooth="yes"/>
			<point x="927" y="201"/>
			<point x="939" y="218"/>
			<point x="944" y="244" type="curve" smooth="yes"/>
			<point x="949" y="270"/>
			<point x="943" y="286"/>
			<point x="928" y="286" type="curve" smooth="yes"/>
			<point x="912" y="286"/>
			<point x="900" y="270"/>
			<point x="895" y="244" type="curve" smooth="yes"/>
			<point x="890" y="218"/>
			<point x="896" y="201"/>
		</contour>
	</outline>
</glyph>
