<?xml version="1.0" encoding="UTF-8"?>
<glyph name="seven" format="2">
	<advance width="1000"/>
	<unicode hex="0037"/>
	<note>
		seven
  </note>
	<outline>
		<contour>
			<point x="886" y="0" type="curve" smooth="yes"/>
			<point x="920" y="0"/>
			<point x="949" y="7"/>
			<point x="980" y="16" type="curve"/>
			<point x="977" y="19" type="line"/>
			<point x="953" y="11"/>
			<point x="939" y="9"/>
			<point x="923" y="9" type="curve" smooth="yes"/>
			<point x="797" y="9"/>
			<point x="804" y="179"/>
			<point x="715" y="272" type="curve" smooth="yes"/>
			<point x="665" y="324"/>
			<point x="601" y="316"/>
			<point x="546" y="337" type="curve" smooth="yes"/>
			<point x="489" y="359"/>
			<point x="486" y="422"/>
			<point x="504" y="492" type="curve"/>
			<point x="500" y="496" type="line"/>
			<point x="444" y="384"/>
			<point x="412" y="448"/>
			<point x="340" y="250" type="curve" smooth="yes"/>
			<point x="313" y="175"/>
			<point x="269" y="166"/>
			<point x="196" y="187" type="curve"/>
			<point x="192" y="183" type="line"/>
			<point x="240" y="166"/>
			<point x="285" y="162"/>
			<point x="322" y="171" type="curve" smooth="yes"/>
			<point x="323" y="171"/>
			<point x="323" y="171"/>
			<point x="324" y="172" type="curve"/>
			<point x="333" y="174" type="line" smooth="yes"/>
			<point x="359" y="182"/>
			<point x="361" y="183"/>
			<point x="356" y="125" type="curve" smooth="yes"/>
			<point x="355" y="115"/>
			<point x="355" y="106"/>
			<point x="361" y="106" type="curve" smooth="yes"/>
			<point x="366" y="106"/>
			<point x="366" y="118"/>
			<point x="365" y="124" type="curve" smooth="yes"/>
			<point x="355" y="182"/>
			<point x="361" y="176"/>
			<point x="383" y="208" type="curve" smooth="yes"/>
			<point x="386" y="213"/>
			<point x="389" y="218"/>
			<point x="392" y="223" type="curve" smooth="yes"/>
			<point x="398" y="236"/>
			<point x="402" y="252"/>
			<point x="402" y="269" type="curve" smooth="yes"/>
			<point x="402" y="349"/>
			<point x="415" y="388"/>
			<point x="478" y="432" type="curve"/>
			<point x="464" y="340"/>
			<point x="557" y="300"/>
			<point x="628" y="262" type="curve"/>
			<point x="652" y="246"/>
			<point x="648" y="239"/>
			<point x="643" y="197" type="curve" smooth="yes"/>
			<point x="640" y="174"/>
			<point x="637" y="145"/>
			<point x="651" y="145" type="curve" smooth="yes"/>
			<point x="662" y="145"/>
			<point x="659" y="173"/>
			<point x="654" y="200" type="curve" smooth="yes"/>
			<point x="646" y="244"/>
			<point x="662" y="249"/>
			<point x="694" y="214" type="curve"/>
			<point x="768" y="111"/>
			<point x="778" y="0"/>
		</contour>
		<contour>
			<point x="160" y="191" type="curve"/>
			<point x="165" y="198" type="line"/>
			<point x="27" y="274"/>
			<point x="72" y="447"/>
			<point x="131" y="601" type="curve"/>
			<point x="375" y="601" type="line"/>
			<point x="375" y="615" type="line"/>
			<point x="136" y="615" type="line"/>
			<point x="158" y="671"/>
			<point x="181" y="725"/>
			<point x="197" y="769" type="curve"/>
			<point x="188" y="788" type="line"/>
			<point x="130" y="783"/>
			<point x="72" y="780"/>
			<point x="9" y="788" type="curve"/>
			<point x="7" y="755"/>
			<point x="7" y="723"/>
			<point x="29" y="697" type="curve"/>
			<point x="34" y="700" type="line"/>
			<point x="23" y="721"/>
			<point x="14" y="769"/>
			<point x="139" y="769" type="curve" smooth="yes"/>
			<point x="151" y="769" type="line"/>
			<point x="138" y="742"/>
			<point x="112" y="684"/>
			<point x="90" y="615" type="curve"/>
			<point x="5" y="615" type="line"/>
			<point x="5" y="601" type="line"/>
			<point x="85" y="601" type="line"/>
			<point x="40" y="453"/>
			<point x="16" y="258"/>
		</contour>
		<contour>
			<point x="521" y="537" type="curve" smooth="yes"/>
			<point x="534" y="655"/>
			<point x="795" y="738"/>
			<point x="795" y="881" type="curve" smooth="yes"/>
			<point x="795" y="956"/>
			<point x="740" y="1001"/>
			<point x="662" y="1001" type="curve" smooth="yes"/>
			<point x="552" y="1001"/>
			<point x="486" y="950"/>
			<point x="486" y="841" type="curve" smooth="yes"/>
			<point x="486" y="800"/>
			<point x="568" y="851"/>
			<point x="568" y="852" type="curve" smooth="yes"/>
			<point x="568" y="912"/>
			<point x="637" y="879"/>
			<point x="637" y="913" type="curve" smooth="yes"/>
			<point x="637" y="930"/>
			<point x="609" y="950"/>
			<point x="609" y="957" type="curve" smooth="yes"/>
			<point x="609" y="962"/>
			<point x="621" y="965"/>
			<point x="647" y="965" type="curve" smooth="yes"/>
			<point x="674" y="965"/>
			<point x="693" y="960"/>
			<point x="693" y="947" type="curve" smooth="yes"/>
			<point x="693" y="930"/>
			<point x="663" y="898"/>
			<point x="663" y="876" type="curve" smooth="yes"/>
			<point x="663" y="856"/>
			<point x="696" y="820"/>
			<point x="696" y="807" type="curve" smooth="yes"/>
			<point x="696" y="795"/>
			<point x="684" y="775"/>
			<point x="660" y="775" type="curve" smooth="yes"/>
			<point x="549" y="775"/>
			<point x="418" y="772"/>
			<point x="335" y="807" type="curve" smooth="yes"/>
			<point x="266" y="837"/>
			<point x="231" y="843"/>
			<point x="224" y="809" type="curve" smooth="yes"/>
			<point x="216" y="769"/>
			<point x="266" y="748"/>
			<point x="327" y="748" type="curve" smooth="yes"/>
			<point x="579" y="748" type="line"/>
			<point x="514" y="708"/>
			<point x="458" y="635"/>
			<point x="452" y="597" type="curve" smooth="yes"/>
			<point x="443" y="538"/>
			<point x="514" y="472"/>
		</contour>
		<contour>
			<point x="894" y="161" type="curve" smooth="yes"/>
			<point x="953" y="161"/>
			<point x="990" y="233"/>
			<point x="990" y="299" type="curve" smooth="yes"/>
			<point x="990" y="343"/>
			<point x="975" y="384"/>
			<point x="948" y="400" type="curve"/>
			<point x="909" y="377" type="line"/>
			<point x="941" y="350"/>
			<point x="959" y="303"/>
			<point x="959" y="259" type="curve" smooth="yes"/>
			<point x="959" y="210"/>
			<point x="937" y="167"/>
			<point x="893" y="167" type="curve" smooth="yes"/>
			<point x="824" y="167"/>
			<point x="819" y="239"/>
			<point x="822" y="330" type="curve" smooth="yes"/>
			<point x="825" y="367"/>
			<point x="833" y="417"/>
			<point x="848" y="478" type="curve"/>
			<point x="990" y="495" type="line"/>
			<point x="987" y="500" type="line"/>
			<point x="849" y="484" type="line"/>
			<point x="875" y="591"/>
			<point x="917" y="731"/>
			<point x="971" y="889" type="curve" smooth="yes"/>
			<point x="973" y="894"/>
			<point x="955" y="898"/>
			<point x="954" y="895" type="curve" smooth="yes"/>
			<point x="880" y="680"/>
			<point x="695" y="625"/>
			<point x="637" y="614" type="curve" smooth="yes"/>
			<point x="630" y="613"/>
			<point x="637" y="587"/>
			<point x="644" y="588" type="curve" smooth="yes"/>
			<point x="716" y="602"/>
			<point x="851" y="651"/>
			<point x="931" y="821" type="curve"/>
			<point x="936" y="819" type="line"/>
			<point x="891" y="700"/>
			<point x="839" y="579"/>
			<point x="809" y="480" type="curve"/>
			<point x="701" y="467" type="line"/>
			<point x="701" y="458" type="line"/>
			<point x="734" y="463"/>
			<point x="769" y="468"/>
			<point x="807" y="473" type="curve"/>
			<point x="792" y="421"/>
			<point x="782" y="376"/>
			<point x="782" y="339" type="curve" smooth="yes"/>
			<point x="782" y="244"/>
			<point x="815" y="161"/>
		</contour>
	</outline>
</glyph>
