<?xml version="1.0" encoding="UTF-8"?>
<glyph name="Z_Z_Z.ss01_ss04_ss03" format="2">
	<advance width="1000"/>
	<note>
		Z_Z_Z.ss01_ss04_ss03
  </note>
	<outline>
		<contour>
			<point x="950" y="0" type="curve"/>
			<point x="952" y="2" type="line"/>
			<point x="869" y="89"/>
			<point x="790" y="133"/>
			<point x="748" y="133" type="curve" smooth="yes"/>
			<point x="566" y="133"/>
			<point x="162" y="-80"/>
			<point x="232" y="70" type="curve" smooth="yes"/>
			<point x="242" y="91"/>
			<point x="253" y="108"/>
			<point x="264" y="122" type="curve"/>
			<point x="287" y="145"/>
			<point x="290" y="128"/>
			<point x="283" y="87" type="curve" smooth="yes"/>
			<point x="278" y="61"/>
			<point x="275" y="32"/>
			<point x="286" y="32" type="curve" smooth="yes"/>
			<point x="300" y="32"/>
			<point x="297" y="61"/>
			<point x="294" y="84" type="curve" smooth="yes"/>
			<point x="288" y="132"/>
			<point x="291" y="151"/>
			<point x="329" y="167" type="curve" smooth="yes"/>
			<point x="417" y="199"/>
			<point x="524" y="149"/>
			<point x="589" y="215" type="curve" smooth="yes"/>
			<point x="626" y="252"/>
			<point x="671" y="344"/>
			<point x="647" y="351" type="curve" smooth="yes"/>
			<point x="575" y="371"/>
			<point x="568" y="393"/>
			<point x="519" y="473" type="curve" smooth="yes"/>
			<point x="492" y="516"/>
			<point x="486" y="483"/>
			<point x="463" y="420" type="curve" smooth="yes"/>
			<point x="444" y="366"/>
			<point x="405" y="289"/>
			<point x="280" y="270" type="curve"/>
			<point x="280" y="268" type="line"/>
			<point x="397" y="278"/>
			<point x="469" y="324"/>
			<point x="487" y="384" type="curve" smooth="yes"/>
			<point x="504" y="438"/>
			<point x="470" y="508"/>
			<point x="509" y="458" type="curve" smooth="yes"/>
			<point x="527" y="434"/>
			<point x="531" y="414"/>
			<point x="535" y="397" type="curve" smooth="yes"/>
			<point x="541" y="367"/>
			<point x="541" y="331"/>
			<point x="539" y="320" type="curve" smooth="yes"/>
			<point x="535" y="300"/>
			<point x="532" y="275"/>
			<point x="541" y="275" type="curve" smooth="yes"/>
			<point x="552" y="275"/>
			<point x="550" y="299"/>
			<point x="548" y="318" type="curve" smooth="yes"/>
			<point x="543" y="362"/>
			<point x="540" y="371"/>
			<point x="556" y="364" type="curve"/>
			<point x="569" y="356"/>
			<point x="590" y="350"/>
			<point x="626" y="346" type="curve" smooth="yes"/>
			<point x="671" y="341"/>
			<point x="631" y="289"/>
			<point x="569" y="248" type="curve" smooth="yes"/>
			<point x="410" y="143"/>
			<point x="245" y="248"/>
			<point x="181" y="121" type="curve" smooth="yes"/>
			<point x="97" y="-46"/>
			<point x="401" y="-14"/>
			<point x="582" y="57" type="curve" smooth="yes"/>
			<point x="623" y="73"/>
			<point x="661" y="86"/>
			<point x="698" y="92" type="curve"/>
			<point x="688" y="85" type="line"/>
			<point x="725" y="100"/>
			<point x="733" y="93"/>
			<point x="730" y="66" type="curve" smooth="yes"/>
			<point x="726" y="37"/>
			<point x="723" y="25"/>
			<point x="730" y="25" type="curve" smooth="yes"/>
			<point x="737" y="25"/>
			<point x="731" y="52"/>
			<point x="732" y="66" type="curve" smooth="yes"/>
			<point x="733" y="77"/>
			<point x="733" y="87"/>
			<point x="739" y="94" type="curve"/>
			<point x="800" y="93"/>
			<point x="866" y="68"/>
		</contour>
		<contour>
			<point x="18" y="39" type="curve"/>
			<point x="19" y="34" type="line"/>
			<point x="156" y="132"/>
			<point x="258" y="527"/>
			<point x="404" y="527" type="curve" smooth="yes"/>
			<point x="430" y="527"/>
			<point x="454" y="518"/>
			<point x="482" y="494" type="curve"/>
			<point x="488" y="499" type="line"/>
			<point x="409" y="568" type="line"/>
			<point x="297" y="568"/>
			<point x="188" y="315"/>
			<point x="138" y="228" type="curve"/>
			<point x="99" y="331"/>
			<point x="144" y="558"/>
			<point x="268" y="717" type="curve"/>
			<point x="263" y="720" type="line"/>
			<point x="188" y="643"/>
			<point x="107" y="916"/>
			<point x="63" y="916" type="curve" smooth="yes"/>
			<point x="0" y="916"/>
			<point x="86" y="736"/>
			<point x="5" y="688" type="curve"/>
			<point x="75" y="688" type="line"/>
			<point x="107" y="736"/>
			<point x="10" y="858"/>
			<point x="71" y="858" type="curve" smooth="yes"/>
			<point x="135" y="858"/>
			<point x="86" y="631"/>
			<point x="225" y="690" type="curve"/>
			<point x="13" y="362"/>
			<point x="89" y="132"/>
		</contour>
		<contour>
			<point x="909" y="147" type="curve" smooth="yes"/>
			<point x="970" y="147"/>
			<point x="992" y="198"/>
			<point x="992" y="254" type="curve" smooth="yes"/>
			<point x="992" y="326"/>
			<point x="948" y="387"/>
			<point x="908" y="395" type="curve"/>
			<point x="879" y="360" type="line"/>
			<point x="975" y="322"/>
			<point x="1009" y="178"/>
			<point x="932" y="155" type="curve" smooth="yes"/>
			<point x="865" y="135"/>
			<point x="834" y="202"/>
			<point x="806" y="295" type="curve" smooth="yes"/>
			<point x="784" y="369"/>
			<point x="746" y="460"/>
			<point x="648" y="536" type="curve"/>
			<point x="774" y="587"/>
			<point x="937" y="610"/>
			<point x="966" y="827" type="curve"/>
			<point x="1002" y="851"/>
			<point x="983" y="915"/>
			<point x="953" y="906" type="curve" smooth="yes"/>
			<point x="928" y="899"/>
			<point x="932" y="872"/>
			<point x="937" y="837" type="curve"/>
			<point x="890" y="842"/>
			<point x="839" y="823"/>
			<point x="805" y="799" type="curve" smooth="yes"/>
			<point x="737" y="750"/>
			<point x="765" y="646"/>
			<point x="845" y="664" type="curve"/>
			<point x="853" y="702" type="line"/>
			<point x="715" y="713"/>
			<point x="800" y="843"/>
			<point x="937" y="828" type="curve"/>
			<point x="929" y="520"/>
			<point x="598" y="591"/>
			<point x="508" y="500" type="curve"/>
			<point x="542" y="467" type="line"/>
			<point x="568" y="498"/>
			<point x="604" y="518"/>
			<point x="644" y="534" type="curve"/>
			<point x="798" y="408"/>
			<point x="738" y="147"/>
		</contour>
	</outline>
</glyph>
