<?xml version="1.0" encoding="UTF-8"?>
<glyph name="agrave" format="2">
	<advance width="456"/>
	<unicode hex="00E0"/>
	<note>
		agrave
  </note>
	<outline>
		<contour>
			<point x="254" y="-63" type="qcurve" smooth="yes"/>
			<point x="271" y="-63"/>
			<point x="282" y="-42"/>
			<point x="283" y="-17"/>
			<point x="284" y="4"/>
			<point x="291" y="4" type="qcurve" smooth="yes"/>
			<point x="294" y="4"/>
			<point x="314" y="1"/>
			<point x="325" y="1" type="qcurve" smooth="yes"/>
			<point x="335" y="1"/>
			<point x="363" y="10"/>
			<point x="389" y="27"/>
			<point x="408" y="53"/>
			<point x="408" y="70" type="qcurve" smooth="yes"/>
			<point x="408" y="81"/>
			<point x="393" y="99"/>
			<point x="380" y="99" type="qcurve" smooth="yes"/>
			<point x="369" y="99"/>
			<point x="356" y="86"/>
			<point x="346" y="71"/>
			<point x="334" y="59"/>
			<point x="325" y="59" type="qcurve" smooth="yes"/>
			<point x="320" y="59"/>
			<point x="313" y="60"/>
			<point x="308" y="60" type="qcurve"/>
			<point x="308" y="72" type="line" smooth="yes"/>
			<point x="308" y="84"/>
			<point x="313" y="95" type="qcurve" smooth="yes"/>
			<point x="324" y="120"/>
			<point x="356" y="170"/>
			<point x="386" y="224"/>
			<point x="409" y="283"/>
			<point x="411" y="318" type="qcurve"/>
			<point x="414" y="330"/>
			<point x="433" y="338"/>
			<point x="454" y="345"/>
			<point x="471" y="356"/>
			<point x="471" y="370" type="qcurve" smooth="yes"/>
			<point x="471" y="384"/>
			<point x="450" y="399"/>
			<point x="435" y="399" type="qcurve" smooth="yes"/>
			<point x="413" y="399"/>
			<point x="376" y="374"/>
			<point x="365" y="356" type="qcurve"/>
			<point x="348" y="361"/>
			<point x="314" y="367"/>
			<point x="302" y="367" type="qcurve" smooth="yes"/>
			<point x="245" y="367"/>
			<point x="164" y="300"/>
			<point x="126" y="236" type="qcurve" smooth="yes"/>
			<point x="109" y="208"/>
			<point x="78" y="164"/>
			<point x="54" y="124"/>
			<point x="40" y="85"/>
			<point x="40" y="63" type="qcurve" smooth="yes"/>
			<point x="40" y="39"/>
			<point x="52" y="8"/>
			<point x="72" y="-12"/>
			<point x="94" y="-20"/>
			<point x="105" y="-20" type="qcurve" smooth="yes"/>
			<point x="128" y="-20"/>
			<point x="158" y="-7"/>
			<point x="171" y="-7" type="qcurve" smooth="yes"/>
			<point x="173" y="-7"/>
			<point x="176" y="-8"/>
			<point x="178" y="-8" type="qcurve" smooth="yes"/>
			<point x="189" y="-8"/>
			<point x="206" y="10"/>
			<point x="206" y="21" type="qcurve" smooth="yes"/>
			<point x="206" y="35"/>
			<point x="185" y="51"/>
			<point x="170" y="51" type="qcurve" smooth="yes"/>
			<point x="153" y="51"/>
			<point x="124" y="39"/>
			<point x="110" y="39" type="qcurve" smooth="yes"/>
			<point x="102" y="39"/>
			<point x="98" y="56"/>
			<point x="98" y="64" type="qcurve" smooth="yes"/>
			<point x="98" y="80"/>
			<point x="114" y="115"/>
			<point x="138" y="151"/>
			<point x="165" y="189"/>
			<point x="176" y="207" type="qcurve" smooth="yes"/>
			<point x="205" y="257"/>
			<point x="261" y="309"/>
			<point x="302" y="309" type="qcurve" smooth="yes"/>
			<point x="327" y="309"/>
			<point x="351" y="299" type="qcurve"/>
			<point x="344" y="269"/>
			<point x="311" y="212"/>
			<point x="276" y="156"/>
			<point x="250" y="100"/>
			<point x="250" y="71" type="qcurve" smooth="yes"/>
			<point x="250" y="50" type="line"/>
			<point x="234" y="38"/>
			<point x="224" y="-1"/>
			<point x="224" y="-18" type="qcurve" smooth="yes"/>
			<point x="224" y="-35"/>
			<point x="235" y="-63"/>
		</contour>
		<contour>
			<point x="408" y="452" type="qcurve" smooth="yes"/>
			<point x="419" y="452"/>
			<point x="437" y="467"/>
			<point x="437" y="481" type="qcurve" smooth="yes"/>
			<point x="437" y="499"/>
			<point x="420" y="507" type="qcurve" smooth="yes"/>
			<point x="395" y="518"/>
			<point x="366" y="557"/>
			<point x="352" y="580" type="qcurve" smooth="yes"/>
			<point x="346" y="590" type="line"/>
			<point x="335" y="606"/>
			<point x="317" y="645"/>
			<point x="294" y="682"/>
			<point x="260" y="715"/>
			<point x="235" y="727" type="qcurve" smooth="yes"/>
			<point x="229" y="730"/>
			<point x="222" y="730" type="qcurve" smooth="yes"/>
			<point x="211" y="730"/>
			<point x="193" y="714"/>
			<point x="193" y="700" type="qcurve" smooth="yes"/>
			<point x="193" y="692"/>
			<point x="202" y="678"/>
			<point x="210" y="675" type="qcurve"/>
			<point x="227" y="666"/>
			<point x="250" y="642"/>
			<point x="268" y="612"/>
			<point x="285" y="578"/>
			<point x="296" y="560" type="qcurve" smooth="yes"/>
			<point x="302" y="550" type="line" smooth="yes"/>
			<point x="310" y="537"/>
			<point x="327" y="511"/>
			<point x="350" y="485"/>
			<point x="378" y="463"/>
			<point x="397" y="454" type="qcurve"/>
			<point x="403" y="452"/>
		</contour>
	</outline>
	<lib>
		<dict>
			<key>assembly</key>
			<string>PUSHW[ ]	/* 3 values pushed */
22 45 3 
CALL[ ]	/* CallFunction */
NPUSHW[ ]	/* 27 values pushed */
6 22 22 22 38 22 54 22 70 22 86 22 102 22 118 22 134 22 150 22 166 22 182 22 198 22 13 
DELTAP1[ ]	/* DeltaExceptionP1 */
NPUSHW[ ]	/* 5 values pushed */
213 22 229 22 2 
DELTAP1[ ]	/* DeltaExceptionP1 */
SVTCA[0]	/* SetFreedomAndProjectionVectorToAxis */
PUSHW[ ]	/* 1 value pushed */
118 
MDAP[1]	/* MoveDirectAbsPt */
PUSHW[ ]	/* 1 value pushed */
120 
MDAP[1]	/* MoveDirectAbsPt */
PUSHW[ ]	/* 1 value pushed */
0 
RCVT[ ]	/* ReadCVT */
IF[ ]	/* If */
PUSHW[ ]	/* 1 value pushed */
34 
MDAP[1]	/* MoveDirectAbsPt */
ELSE[ ]	/* Else */
PUSHW[ ]	/* 2 values pushed */
34 1 
MIAP[0]	/* MoveIndirectAbsPt */
EIF[ ]	/* EndIf */
PUSHW[ ]	/* 1 value pushed */
0 
RCVT[ ]	/* ReadCVT */
IF[ ]	/* If */
PUSHW[ ]	/* 1 value pushed */
37 
MDAP[1]	/* MoveDirectAbsPt */
ELSE[ ]	/* Else */
PUSHW[ ]	/* 2 values pushed */
37 1 
MIAP[0]	/* MoveIndirectAbsPt */
EIF[ ]	/* EndIf */
PUSHW[ ]	/* 1 value pushed */
0 
RCVT[ ]	/* ReadCVT */
IF[ ]	/* If */
PUSHW[ ]	/* 1 value pushed */
3 
MDAP[1]	/* MoveDirectAbsPt */
ELSE[ ]	/* Else */
PUSHW[ ]	/* 2 values pushed */
3 1 
MIAP[0]	/* MoveIndirectAbsPt */
EIF[ ]	/* EndIf */
PUSHW[ ]	/* 1 value pushed */
0 
RCVT[ ]	/* ReadCVT */
IF[ ]	/* If */
PUSHW[ ]	/* 1 value pushed */
40 
MDAP[1]	/* MoveDirectAbsPt */
ELSE[ ]	/* Else */
PUSHW[ ]	/* 2 values pushed */
40 1 
MIAP[0]	/* MoveIndirectAbsPt */
EIF[ ]	/* EndIf */
PUSHW[ ]	/* 3 values pushed */
78 0 3 
CALL[ ]	/* CallFunction */
PUSHW[ ]	/* 3 values pushed */
83 94 3 
CALL[ ]	/* CallFunction */
PUSHW[ ]	/* 3 values pushed */
53 14 3 
CALL[ ]	/* CallFunction */
PUSHW[ ]	/* 1 value pushed */
40 
SRP0[ ]	/* SetRefPoint0 */
PUSHW[ ]	/* 1 value pushed */
25 
MDRP[11100]	/* MoveDirectRelPt */
NPUSHW[ ]	/* 27 values pushed */
7 25 23 25 39 25 55 25 71 25 87 25 103 25 119 25 135 25 151 25 167 25 183 25 199 25 13 
DELTAP1[ ]	/* DeltaExceptionP1 */
NPUSHW[ ]	/* 5 values pushed */
214 25 230 25 2 
DELTAP1[ ]	/* DeltaExceptionP1 */
PUSHW[ ]	/* 1 value pushed */
78 
SRP0[ ]	/* SetRefPoint0 */
PUSHW[ ]	/* 1 value pushed */
75 
MDRP[10000]	/* MoveDirectRelPt */
PUSHW[ ]	/* 1 value pushed */
75 
MDAP[1]	/* MoveDirectAbsPt */
PUSHW[ ]	/* 1 value pushed */
94 
SRP0[ ]	/* SetRefPoint0 */
PUSHW[ ]	/* 1 value pushed */
91 
MDRP[10000]	/* MoveDirectRelPt */
PUSHW[ ]	/* 1 value pushed */
91 
MDAP[1]	/* MoveDirectAbsPt */
IUP[0]	/* InterpolateUntPts */
IUP[1]	/* InterpolateUntPts */</string>
			<key>com.schriftgestaltung.Glyphs.lastChange</key>
			<string>2020-01-27 11:09:45 +0000</string>
			<key>com.schriftgestaltung.Glyphs.leftMetricsKey</key>
			<string>a</string>
			<key>com.schriftgestaltung.Glyphs.rightMetricsKey</key>
			<string>a</string>
			<key>public.markColor</key>
			<string>0.97,0.9,0,1</string>
		</dict>
	</lib>
</glyph>
