<?xml version="1.0" encoding="UTF-8"?>
<glyph name="bracketright" format="2">
	<advance width="538"/>
	<unicode hex="005D"/>
	<note>
		bracketright
  </note>
	<outline>
		<contour>
			<point x="103" y="-163" type="qcurve"/>
			<point x="114" y="-162"/>
			<point x="132" y="-147"/>
			<point x="134" y="-136" type="qcurve"/>
			<point x="136" y="-136"/>
			<point x="141" y="-137"/>
			<point x="143" y="-137" type="qcurve" smooth="yes"/>
			<point x="155" y="-137"/>
			<point x="164" y="-128" type="qcurve"/>
			<point x="210" y="-88"/>
			<point x="250" y="9"/>
			<point x="261" y="57" type="qcurve" smooth="yes"/>
			<point x="271" y="101"/>
			<point x="307" y="188"/>
			<point x="349" y="276"/>
			<point x="392" y="366"/>
			<point x="410" y="413" type="qcurve" smooth="yes"/>
			<point x="425" y="451"/>
			<point x="459" y="526"/>
			<point x="491" y="603"/>
			<point x="518" y="681"/>
			<point x="525" y="722" type="qcurve"/>
			<point x="525" y="737"/>
			<point x="512" y="757"/>
			<point x="493" y="769"/>
			<point x="471" y="774"/>
			<point x="462" y="774" type="qcurve" smooth="yes"/>
			<point x="447" y="774"/>
			<point x="425" y="769"/>
			<point x="414" y="769" type="qcurve" smooth="yes"/>
			<point x="409" y="769"/>
			<point x="399" y="774"/>
			<point x="394" y="774" type="qcurve" smooth="yes"/>
			<point x="386" y="774"/>
			<point x="380" y="771" type="qcurve"/>
			<point x="358" y="776"/>
			<point x="315" y="781"/>
			<point x="292" y="781" type="qcurve" smooth="yes"/>
			<point x="278" y="781"/>
			<point x="240" y="778"/>
			<point x="205" y="769"/>
			<point x="180" y="750"/>
			<point x="180" y="734" type="qcurve" smooth="yes"/>
			<point x="180" y="720"/>
			<point x="200" y="700"/>
			<point x="214" y="700" type="qcurve" smooth="yes"/>
			<point x="217" y="700"/>
			<point x="222" y="701"/>
			<point x="225" y="702" type="qcurve" smooth="yes"/>
			<point x="256" y="712"/>
			<point x="291" y="712" type="qcurve" smooth="yes"/>
			<point x="318" y="712"/>
			<point x="376" y="703"/>
			<point x="405" y="697" type="qcurve" smooth="yes"/>
			<point x="438" y="690" type="line"/>
			<point x="447" y="690" type="line"/>
			<point x="429" y="628"/>
			<point x="370" y="503"/>
			<point x="346" y="438" type="qcurve" smooth="yes"/>
			<point x="329" y="392"/>
			<point x="286" y="303"/>
			<point x="244" y="214"/>
			<point x="207" y="122"/>
			<point x="195" y="73" type="qcurve" smooth="yes"/>
			<point x="184" y="30"/>
			<point x="153" y="-46"/>
			<point x="118" y="-77" type="qcurve" smooth="yes"/>
			<point x="109" y="-85"/>
			<point x="107" y="-96" type="qcurve"/>
			<point x="103" y="-94"/>
			<point x="95" y="-94"/>
			<point x="90" y="-94" type="qcurve" smooth="yes"/>
			<point x="76" y="-94"/>
			<point x="47" y="-96"/>
			<point x="33" y="-96" type="qcurve" smooth="yes"/>
			<point x="19" y="-96"/>
			<point x="-13" y="-85"/>
			<point x="-28" y="-85" type="qcurve" smooth="yes"/>
			<point x="-41" y="-85"/>
			<point x="-61" y="-106"/>
			<point x="-61" y="-121" type="qcurve" smooth="yes"/>
			<point x="-61" y="-134"/>
			<point x="-41" y="-151"/>
			<point x="-13" y="-161"/>
			<point x="18" y="-165"/>
			<point x="29" y="-165" type="qcurve" smooth="yes"/>
			<point x="43" y="-165"/>
			<point x="68" y="-162"/>
			<point x="82" y="-162" type="qcurve" smooth="yes"/>
			<point x="87" y="-162"/>
			<point x="98" y="-163"/>
		</contour>
	</outline>
	<lib>
		<dict>
			<key>assembly</key>
			<string>SVTCA[0]	/* SetFreedomAndProjectionVectorToAxis */
PUSHW[ ]	/* 1 value pushed */
54 
MDAP[1]	/* MoveDirectAbsPt */
PUSHW[ ]	/* 1 value pushed */
59 
MDAP[1]	/* MoveDirectAbsPt */
PUSHW[ ]	/* 1 value pushed */
65 
MDAP[1]	/* MoveDirectAbsPt */
PUSHW[ ]	/* 3 values pushed */
17 6 3 
CALL[ ]	/* CallFunction */
PUSHW[ ]	/* 1 value pushed */
6 
SRP0[ ]	/* SetRefPoint0 */
PUSHW[ ]	/* 1 value pushed */
0 
MDRP[10000]	/* MoveDirectRelPt */
PUSHW[ ]	/* 1 value pushed */
0 
MDAP[1]	/* MoveDirectAbsPt */
PUSHW[ ]	/* 1 value pushed */
6 
SRP0[ ]	/* SetRefPoint0 */
PUSHW[ ]	/* 1 value pushed */
3 
MDRP[10000]	/* MoveDirectRelPt */
PUSHW[ ]	/* 1 value pushed */
3 
MDAP[1]	/* MoveDirectAbsPt */
PUSHW[ ]	/* 1 value pushed */
17 
SRP0[ ]	/* SetRefPoint0 */
PUSHW[ ]	/* 1 value pushed */
20 
MDRP[10000]	/* MoveDirectRelPt */
PUSHW[ ]	/* 1 value pushed */
20 
MDAP[1]	/* MoveDirectAbsPt */
PUSHW[ ]	/* 1 value pushed */
59 
SRP0[ ]	/* SetRefPoint0 */
PUSHW[ ]	/* 1 value pushed */
41 
MDRP[11100]	/* MoveDirectRelPt */
PUSHW[ ]	/* 1 value pushed */
59 
SRP0[ ]	/* SetRefPoint0 */
PUSHW[ ]	/* 1 value pushed */
46 
MDRP[11100]	/* MoveDirectRelPt */
PUSHW[ ]	/* 1 value pushed */
59 
SRP0[ ]	/* SetRefPoint0 */
PUSHW[ ]	/* 1 value pushed */
62 
MDRP[10000]	/* MoveDirectRelPt */
PUSHW[ ]	/* 1 value pushed */
62 
MDAP[1]	/* MoveDirectAbsPt */
IUP[0]	/* InterpolateUntPts */
IUP[1]	/* InterpolateUntPts */</string>
			<key>com.schriftgestaltung.Glyphs.lastChange</key>
			<string>2019-07-21 16:20:38 +0000</string>
			<key>public.markColor</key>
			<string>0.06,0.6,0.98,1</string>
		</dict>
	</lib>
</glyph>
