<?xml version="1.0" encoding="UTF-8"?>
<glyph name="OE" format="2">
	<advance width="1095"/>
	<unicode hex="0152"/>
	<note>
		OE
  </note>
	<outline>
		<contour>
			<point x="868" y="351" type="qcurve" smooth="yes"/>
			<point x="935" y="351"/>
			<point x="941" y="415" type="qcurve"/>
			<point x="941" y="422"/>
			<point x="949" y="437"/>
			<point x="958" y="455"/>
			<point x="966" y="477"/>
			<point x="966" y="489" type="qcurve" smooth="yes"/>
			<point x="966" y="500"/>
			<point x="949" y="518"/>
			<point x="936" y="518" type="qcurve" smooth="yes"/>
			<point x="926" y="518"/>
			<point x="909" y="505"/>
			<point x="907" y="494" type="qcurve"/>
			<point x="906" y="486"/>
			<point x="898" y="470"/>
			<point x="889" y="452"/>
			<point x="882" y="432"/>
			<point x="882" y="420" type="qcurve"/>
			<point x="880" y="414"/>
			<point x="880" y="411"/>
			<point x="877" y="411" type="qcurve" smooth="yes"/>
			<point x="817" y="411"/>
			<point x="698" y="412"/>
			<point x="638" y="417" type="qcurve"/>
			<point x="656" y="520"/>
			<point x="659" y="626" type="qcurve"/>
			<point x="687" y="643"/>
			<point x="745" y="654"/>
			<point x="777" y="654" type="qcurve" smooth="yes"/>
			<point x="807" y="654"/>
			<point x="869" y="649"/>
			<point x="901" y="649" type="qcurve" smooth="yes"/>
			<point x="915" y="649"/>
			<point x="946" y="652"/>
			<point x="957" y="652" type="qcurve" smooth="yes"/>
			<point x="968" y="652"/>
			<point x="974" y="649" type="qcurve"/>
			<point x="963" y="608"/>
			<point x="963" y="570" type="qcurve" smooth="yes"/>
			<point x="963" y="552"/>
			<point x="974" y="523"/>
			<point x="996" y="523" type="qcurve" smooth="yes"/>
			<point x="1007" y="523"/>
			<point x="1023" y="542"/>
			<point x="1023" y="553" type="qcurve" smooth="yes"/>
			<point x="1023" y="557"/>
			<point x="1022" y="564"/>
			<point x="1022" y="569" type="qcurve" smooth="yes"/>
			<point x="1022" y="607"/>
			<point x="1036" y="651" type="qcurve" smooth="yes"/>
			<point x="1037" y="654"/>
			<point x="1037" y="660" type="qcurve" smooth="yes"/>
			<point x="1037" y="676"/>
			<point x="1016" y="696"/>
			<point x="988" y="708"/>
			<point x="960" y="712"/>
			<point x="954" y="712" type="qcurve" smooth="yes"/>
			<point x="934" y="712"/>
			<point x="910" y="709"/>
			<point x="893" y="709" type="qcurve" smooth="yes"/>
			<point x="863" y="709"/>
			<point x="803" y="713"/>
			<point x="773" y="713" type="qcurve" smooth="yes"/>
			<point x="735" y="713"/>
			<point x="662" y="699"/>
			<point x="625" y="676" type="qcurve"/>
			<point x="623" y="677"/>
			<point x="616" y="680"/>
			<point x="614" y="682" type="qcurve"/>
			<point x="573" y="708"/>
			<point x="477" y="727"/>
			<point x="438" y="727" type="qcurve" smooth="yes"/>
			<point x="335" y="727"/>
			<point x="172" y="599"/>
			<point x="118" y="472" type="qcurve" smooth="yes"/>
			<point x="101" y="432"/>
			<point x="85" y="346"/>
			<point x="85" y="296" type="qcurve" smooth="yes"/>
			<point x="85" y="245"/>
			<point x="94" y="185" type="qcurve" smooth="yes"/>
			<point x="101" y="141"/>
			<point x="141" y="66"/>
			<point x="202" y="12"/>
			<point x="279" y="-19"/>
			<point x="323" y="-19" type="qcurve" smooth="yes"/>
			<point x="347" y="-19" type="line"/>
			<point x="355" y="-20"/>
			<point x="372" y="-20"/>
			<point x="380" y="-20" type="qcurve" smooth="yes"/>
			<point x="412" y="-20"/>
			<point x="479" y="-8"/>
			<point x="511" y="14" type="qcurve"/>
			<point x="513" y="15"/>
			<point x="517" y="17"/>
			<point x="517" y="18" type="qcurve"/>
			<point x="562" y="-4"/>
			<point x="651" y="-20"/>
			<point x="696" y="-20" type="qcurve" smooth="yes"/>
			<point x="744" y="-20"/>
			<point x="836" y="-7"/>
			<point x="884" y="-2" type="qcurve"/>
			<point x="884" y="-21"/>
			<point x="897" y="-47"/>
			<point x="915" y="-47" type="qcurve" smooth="yes"/>
			<point x="928" y="-47"/>
			<point x="945" y="-30"/>
			<point x="945" y="-18" type="qcurve" smooth="yes"/>
			<point x="945" y="-13"/>
			<point x="944" y="-5"/>
			<point x="944" y="-1" type="qcurve" smooth="yes"/>
			<point x="944" y="18"/>
			<point x="956" y="52"/>
			<point x="975" y="87"/>
			<point x="996" y="124"/>
			<point x="1005" y="146" type="qcurve"/>
			<point x="1009" y="145"/>
			<point x="1015" y="145" type="qcurve" smooth="yes"/>
			<point x="1027" y="145"/>
			<point x="1045" y="162"/>
			<point x="1045" y="175" type="qcurve" smooth="yes"/>
			<point x="1045" y="186"/>
			<point x="1035" y="198"/>
			<point x="1020" y="204"/>
			<point x="1001" y="205"/>
			<point x="992" y="205" type="qcurve" smooth="yes"/>
			<point x="981" y="205"/>
			<point x="960" y="198"/>
			<point x="956" y="184" type="qcurve" smooth="yes"/>
			<point x="947" y="154"/>
			<point x="908" y="95"/>
			<point x="895" y="60" type="qcurve"/>
			<point x="845" y="52"/>
			<point x="743" y="39"/>
			<point x="695" y="39" type="qcurve" smooth="yes"/>
			<point x="660" y="39"/>
			<point x="592" y="51"/>
			<point x="557" y="65" type="qcurve"/>
			<point x="577" y="141"/>
			<point x="614" y="286"/>
			<point x="628" y="358" type="qcurve"/>
			<point x="689" y="353"/>
			<point x="809" y="351"/>
		</contour>
		<contour>
			<point x="569" y="639" type="qcurve" smooth="yes"/>
			<point x="574" y="637"/>
			<point x="589" y="627"/>
			<point x="599" y="622" type="qcurve"/>
			<point x="595" y="486"/>
			<point x="537" y="218"/>
			<point x="497" y="73" type="qcurve"/>
			<point x="483" y="68"/>
			<point x="478" y="64" type="qcurve"/>
			<point x="455" y="48"/>
			<point x="403" y="39"/>
			<point x="375" y="39" type="qcurve" smooth="yes"/>
			<point x="368" y="39"/>
			<point x="355" y="40"/>
			<point x="348" y="40" type="qcurve"/>
			<point x="324" y="41" type="line"/>
			<point x="274" y="41"/>
			<point x="205" y="82"/>
			<point x="163" y="151"/>
			<point x="144" y="244"/>
			<point x="144" y="297" type="qcurve" smooth="yes"/>
			<point x="144" y="340"/>
			<point x="159" y="414"/>
			<point x="173" y="448" type="qcurve" smooth="yes"/>
			<point x="267" y="667"/>
			<point x="438" y="667" type="qcurve" smooth="yes"/>
			<point x="500" y="667"/>
		</contour>
	</outline>
	<lib>
		<dict>
			<key>assembly</key>
			<string>PUSHW[ ]	/* 3 values pushed */
150 65 3 
CALL[ ]	/* CallFunction */
PUSHW[ ]	/* 3 values pushed */
117 167 3 
CALL[ ]	/* CallFunction */
PUSHW[ ]	/* 3 values pushed */
33 125 3 
CALL[ ]	/* CallFunction */
PUSHW[ ]	/* 3 values pushed */
98 104 3 
CALL[ ]	/* CallFunction */
PUSHW[ ]	/* 1 value pushed */
33 
SRP0[ ]	/* SetRefPoint0 */
PUSHW[ ]	/* 1 value pushed */
36 
MDRP[10000]	/* MoveDirectRelPt */
PUSHW[ ]	/* 1 value pushed */
36 
MDAP[1]	/* MoveDirectAbsPt */
NPUSHW[ ]	/* 5 values pushed */
218 125 234 125 2 
DELTAP1[ ]	/* DeltaExceptionP1 */
NPUSHW[ ]	/* 27 values pushed */
9 125 25 125 41 125 57 125 73 125 89 125 105 125 121 125 137 125 153 125 169 125 185 125 201 125 13 
DELTAP1[ ]	/* DeltaExceptionP1 */
PUSHW[ ]	/* 1 value pushed */
125 
SRP0[ ]	/* SetRefPoint0 */
PUSHW[ ]	/* 1 value pushed */
42 
MDRP[10000]	/* MoveDirectRelPt */
PUSHW[ ]	/* 1 value pushed */
42 
MDAP[1]	/* MoveDirectAbsPt */
PUSHW[ ]	/* 1 value pushed */
98 
SRP0[ ]	/* SetRefPoint0 */
PUSHW[ ]	/* 1 value pushed */
95 
MDRP[10000]	/* MoveDirectRelPt */
PUSHW[ ]	/* 1 value pushed */
95 
MDAP[1]	/* MoveDirectAbsPt */
NPUSHW[ ]	/* 5 values pushed */
218 104 234 104 2 
DELTAP1[ ]	/* DeltaExceptionP1 */
NPUSHW[ ]	/* 27 values pushed */
9 104 25 104 41 104 57 104 73 104 89 104 105 104 121 104 137 104 153 104 169 104 185 104 201 104 13 
DELTAP1[ ]	/* DeltaExceptionP1 */
PUSHW[ ]	/* 1 value pushed */
104 
SRP0[ ]	/* SetRefPoint0 */
PUSHW[ ]	/* 1 value pushed */
136 
MDRP[10000]	/* MoveDirectRelPt */
PUSHW[ ]	/* 1 value pushed */
136 
MDAP[1]	/* MoveDirectAbsPt */
PUSHW[ ]	/* 1 value pushed */
33 
SRP0[ ]	/* SetRefPoint0 */
PUSHW[ ]	/* 1 value pushed */
141 
MDRP[10000]	/* MoveDirectRelPt */
PUSHW[ ]	/* 1 value pushed */
141 
MDAP[1]	/* MoveDirectAbsPt */
NPUSHW[ ]	/* 27 values pushed */
6 150 22 150 38 150 54 150 70 150 86 150 102 150 118 150 134 150 150 150 166 150 182 150 198 150 13 
DELTAP1[ ]	/* DeltaExceptionP1 */
NPUSHW[ ]	/* 5 values pushed */
213 150 229 150 2 
DELTAP1[ ]	/* DeltaExceptionP1 */
NPUSHW[ ]	/* 5 values pushed */
218 167 234 167 2 
DELTAP1[ ]	/* DeltaExceptionP1 */
NPUSHW[ ]	/* 27 values pushed */
9 167 25 167 41 167 57 167 73 167 89 167 105 167 121 167 137 167 153 167 169 167 185 167 201 167 13 
DELTAP1[ ]	/* DeltaExceptionP1 */
PUSHW[ ]	/* 1 value pushed */
98 
SRP0[ ]	/* SetRefPoint0 */
PUSHW[ ]	/* 1 value pushed */
171 
MDRP[11100]	/* MoveDirectRelPt */
SVTCA[0]	/* SetFreedomAndProjectionVectorToAxis */
PUSHW[ ]	/* 1 value pushed */
39 
MDAP[1]	/* MoveDirectAbsPt */
PUSHW[ ]	/* 1 value pushed */
0 
RCVT[ ]	/* ReadCVT */
IF[ ]	/* If */
PUSHW[ ]	/* 1 value pushed */
36 
MDAP[1]	/* MoveDirectAbsPt */
ELSE[ ]	/* Else */
PUSHW[ ]	/* 2 values pushed */
36 1 
MIAP[0]	/* MoveIndirectAbsPt */
EIF[ ]	/* EndIf */
PUSHW[ ]	/* 1 value pushed */
0 
RCVT[ ]	/* ReadCVT */
IF[ ]	/* If */
PUSHW[ ]	/* 1 value pushed */
45 
MDAP[1]	/* MoveDirectAbsPt */
ELSE[ ]	/* Else */
PUSHW[ ]	/* 2 values pushed */
45 1 
MIAP[0]	/* MoveIndirectAbsPt */
EIF[ ]	/* EndIf */
PUSHW[ ]	/* 1 value pushed */
0 
RCVT[ ]	/* ReadCVT */
IF[ ]	/* If */
PUSHW[ ]	/* 1 value pushed */
54 
MDAP[1]	/* MoveDirectAbsPt */
ELSE[ ]	/* Else */
PUSHW[ ]	/* 2 values pushed */
54 1 
MIAP[0]	/* MoveIndirectAbsPt */
EIF[ ]	/* EndIf */
PUSHW[ ]	/* 1 value pushed */
0 
RCVT[ ]	/* ReadCVT */
IF[ ]	/* If */
PUSHW[ ]	/* 1 value pushed */
57 
MDAP[1]	/* MoveDirectAbsPt */
ELSE[ ]	/* Else */
PUSHW[ ]	/* 2 values pushed */
57 1 
MIAP[0]	/* MoveIndirectAbsPt */
EIF[ ]	/* EndIf */
PUSHW[ ]	/* 3 values pushed */
71 145 3 
CALL[ ]	/* CallFunction */
PUSHW[ ]	/* 3 values pushed */
86 114 3 
CALL[ ]	/* CallFunction */
PUSHW[ ]	/* 1 value pushed */
86 
SRP0[ ]	/* SetRefPoint0 */
PUSHW[ ]	/* 1 value pushed */
101 
MDRP[11100]	/* MoveDirectRelPt */
PUSHW[ ]	/* 1 value pushed */
133 
MDRP[10000]	/* MoveDirectRelPt */
PUSHW[ ]	/* 1 value pushed */
133 
MDAP[1]	/* MoveDirectAbsPt */
PUSHW[ ]	/* 1 value pushed */
0 
MDRP[11100]	/* MoveDirectRelPt */
PUSHW[ ]	/* 1 value pushed */
3 
MDRP[10000]	/* MoveDirectRelPt */
PUSHW[ ]	/* 1 value pushed */
3 
MDAP[1]	/* MoveDirectAbsPt */
PUSHW[ ]	/* 1 value pushed */
45 
SRP0[ ]	/* SetRefPoint0 */
PUSHW[ ]	/* 1 value pushed */
9 
MDRP[11100]	/* MoveDirectRelPt */
NPUSHW[ ]	/* 27 values pushed */
7 9 23 9 39 9 55 9 71 9 87 9 103 9 119 9 135 9 151 9 167 9 183 9 199 9 13 
DELTAP1[ ]	/* DeltaExceptionP1 */
NPUSHW[ ]	/* 5 values pushed */
214 9 230 9 2 
DELTAP1[ ]	/* DeltaExceptionP1 */
PUSHW[ ]	/* 1 value pushed */
86 
SRP0[ ]	/* SetRefPoint0 */
PUSHW[ ]	/* 1 value pushed */
80 
MDRP[10000]	/* MoveDirectRelPt */
PUSHW[ ]	/* 1 value pushed */
80 
MDAP[1]	/* MoveDirectAbsPt */
PUSHW[ ]	/* 1 value pushed */
86 
SRP0[ ]	/* SetRefPoint0 */
PUSHW[ ]	/* 1 value pushed */
83 
MDRP[10000]	/* MoveDirectRelPt */
PUSHW[ ]	/* 1 value pushed */
83 
MDAP[1]	/* MoveDirectAbsPt */
PUSHW[ ]	/* 1 value pushed */
114 
SRP0[ ]	/* SetRefPoint0 */
PUSHW[ ]	/* 1 value pushed */
108 
MDRP[10000]	/* MoveDirectRelPt */
PUSHW[ ]	/* 1 value pushed */
108 
MDAP[1]	/* MoveDirectAbsPt */
PUSHW[ ]	/* 1 value pushed */
114 
SRP0[ ]	/* SetRefPoint0 */
PUSHW[ ]	/* 1 value pushed */
111 
MDRP[10000]	/* MoveDirectRelPt */
PUSHW[ ]	/* 1 value pushed */
111 
MDAP[1]	/* MoveDirectAbsPt */
PUSHW[ ]	/* 1 value pushed */
0 
SRP0[ ]	/* SetRefPoint0 */
PUSHW[ ]	/* 1 value pushed */
122 
MDRP[11100]	/* MoveDirectRelPt */
PUSHW[ ]	/* 1 value pushed */
119 
MDRP[10000]	/* MoveDirectRelPt */
PUSHW[ ]	/* 1 value pushed */
119 
MDAP[1]	/* MoveDirectAbsPt */
PUSHW[ ]	/* 1 value pushed */
9 
SRP0[ ]	/* SetRefPoint0 */
PUSHW[ ]	/* 1 value pushed */
155 
MDRP[10000]	/* MoveDirectRelPt */
PUSHW[ ]	/* 1 value pushed */
156 
MDRP[10000]	/* MoveDirectRelPt */
PUSHW[ ]	/* 1 value pushed */
156 
MDAP[1]	/* MoveDirectAbsPt */
PUSHW[ ]	/* 1 value pushed */
159 
MDRP[10000]	/* MoveDirectRelPt */
PUSHW[ ]	/* 1 value pushed */
159 
MDAP[1]	/* MoveDirectAbsPt */
IUP[0]	/* InterpolateUntPts */
IUP[1]	/* InterpolateUntPts */</string>
			<key>com.schriftgestaltung.Glyphs.lastChange</key>
			<string>2020-01-27 11:09:41 +0000</string>
			<key>com.schriftgestaltung.Glyphs.leftMetricsKey</key>
			<string>O</string>
			<key>com.schriftgestaltung.Glyphs.rightMetricsKey</key>
			<string>E</string>
			<key>public.markColor</key>
			<string>0.67,0.95,0.38,1</string>
		</dict>
	</lib>
</glyph>
