<?xml version="1.0" encoding="UTF-8"?>
<glyph name="_part-fut" format="2">
	<advance width="600"/>
	<outline>
		<contour>
			<point x="259" y="281" type="curve" smooth="yes"/>
			<point x="192" y="281"/>
			<point x="142" y="231"/>
			<point x="172" y="170" type="curve"/>
			<point x="172" y="197"/>
			<point x="190" y="221"/>
			<point x="215" y="221" type="curve" smooth="yes"/>
			<point x="240" y="221"/>
			<point x="255" y="196"/>
			<point x="255" y="171" type="curve" smooth="yes"/>
			<point x="255" y="123"/>
			<point x="213" y="89"/>
			<point x="165" y="89" type="curve" smooth="yes"/>
			<point x="119" y="89"/>
			<point x="88" y="115"/>
			<point x="77" y="127" type="curve"/>
			<point x="85" y="83"/>
			<point x="113" y="48"/>
			<point x="173" y="48" type="curve" smooth="yes"/>
			<point x="199" y="48"/>
			<point x="238" y="62"/>
			<point x="249" y="92" type="curve"/>
			<point x="249" y="24"/>
			<point x="293" y="-9"/>
			<point x="336" y="-24" type="curve"/>
			<point x="309" y="8"/>
			<point x="293" y="39"/>
			<point x="293" y="82" type="curve" smooth="yes"/>
			<point x="293" y="133"/>
			<point x="305" y="149"/>
			<point x="305" y="185" type="curve" smooth="yes"/>
			<point x="305" y="212"/>
			<point x="293" y="237"/>
			<point x="280" y="244" type="curve"/>
			<point x="307" y="246"/>
			<point x="355" y="237"/>
			<point x="387" y="207" type="curve"/>
			<point x="362" y="256"/>
			<point x="311" y="281"/>
		</contour>
		<contour>
			<point x="298" y="294" type="curve"/>
			<point x="281" y="411"/>
			<point x="268" y="497"/>
			<point x="323" y="539" type="curve"/>
			<point x="335" y="720"/>
			<point x="182" y="766"/>
			<point x="139" y="775" type="curve"/>
			<point x="171" y="760"/>
			<point x="269" y="688"/>
			<point x="269" y="561" type="curve"/>
			<point x="253" y="620"/>
			<point x="201" y="644"/>
			<point x="152" y="649" type="curve"/>
			<point x="192" y="632"/>
			<point x="243" y="593"/>
			<point x="243" y="522" type="curve"/>
			<point x="231" y="550"/>
			<point x="195" y="577"/>
			<point x="154" y="577" type="curve" smooth="yes"/>
			<point x="106" y="577"/>
			<point x="69" y="544"/>
			<point x="69" y="499" type="curve" smooth="yes"/>
			<point x="69" y="464"/>
			<point x="95" y="435"/>
			<point x="137" y="435" type="curve" smooth="yes"/>
			<point x="171" y="435"/>
			<point x="192" y="458"/>
			<point x="192" y="479" type="curve"/>
			<point x="187" y="473"/>
			<point x="171" y="459"/>
			<point x="149" y="459" type="curve" smooth="yes"/>
			<point x="126" y="459"/>
			<point x="109" y="476"/>
			<point x="109" y="499" type="curve" smooth="yes"/>
			<point x="109" y="521"/>
			<point x="129" y="539"/>
			<point x="157" y="539" type="curve" smooth="yes"/>
			<point x="197" y="539"/>
			<point x="235" y="505"/>
			<point x="235" y="407" type="curve" smooth="yes"/>
			<point x="235" y="361"/>
			<point x="233" y="321"/>
			<point x="230" y="289" type="curve"/>
			<point x="251" y="297"/>
			<point x="272" y="299"/>
		</contour>
	</outline>
	<lib>
		<dict>
			<key>com.schriftgestaltung.Glyphs.Export</key>
			<false/>
		</dict>
	</lib>
</glyph>
