<?xml version="1.0" encoding="UTF-8"?>
<glyph name="Adieresis" format="2">
	<advance width="633"/>
	<unicode hex="00C4"/>
	<outline>
		<component base="A"/>
		<component base="dieresis.cap" xOffset="136" yOffset="139"/>
	</outline>
	<lib>
		<dict>
			<key>public.markColor</key>
			<string>0.67,0.95,0.38,1</string>
		</dict>
	</lib>
</glyph>
