<?xml version="1.0" encoding="UTF-8"?>
<glyph name="asterisk" format="2">
	<advance width="370"/>
	<unicode hex="002A"/>
	<outline>
		<contour>
			<point x="143" y="779" type="line"/>
			<point x="185" y="779"/>
			<point x="238" y="759"/>
			<point x="238" y="712" type="curve" smooth="yes"/>
			<point x="238" y="692"/>
			<point x="230" y="677"/>
			<point x="221" y="667" type="curve"/>
			<point x="370" y="679" type="line"/>
			<point x="370" y="677" type="line"/>
			<point x="225" y="643" type="line"/>
			<point x="221" y="680" type="line"/>
			<point x="292" y="631"/>
			<point x="293" y="569"/>
			<point x="212" y="498" type="curve"/>
			<point x="211" y="501" type="line"/>
			<point x="266" y="561"/>
			<point x="245" y="628"/>
			<point x="189" y="628" type="curve" smooth="yes"/>
			<point x="118" y="628"/>
			<point x="86" y="551"/>
			<point x="98" y="486" type="curve"/>
			<point x="97" y="486" type="line"/>
			<point x="59" y="559"/>
			<point x="92" y="645"/>
			<point x="145" y="659" type="curve"/>
			<point x="158" y="641" type="line"/>
			<point x="0" y="629" type="line"/>
			<point x="0" y="632" type="line"/>
			<point x="159" y="669" type="line"/>
			<point x="144" y="654" type="line"/>
			<point x="111" y="661"/>
			<point x="87" y="706"/>
			<point x="86" y="760" type="curve"/>
			<point x="87" y="760" type="line"/>
			<point x="94" y="731"/>
			<point x="118" y="699"/>
			<point x="155" y="699" type="curve" smooth="yes"/>
			<point x="175" y="699"/>
			<point x="190" y="710"/>
			<point x="190" y="730" type="curve" smooth="yes"/>
			<point x="190" y="747"/>
			<point x="177" y="769"/>
			<point x="143" y="778" type="curve"/>
		</contour>
	</outline>
	<lib>
		<dict>
			<key>public.markColor</key>
			<string>0.67,0.95,0.38,1</string>
		</dict>
	</lib>
</glyph>
