<?xml version="1.0" encoding="UTF-8"?>
<glyph name="dotlessi" format="2">
	<advance width="329"/>
	<unicode hex="0131"/>
	<anchor x="296" y="10" name="ogonek"/>
	<anchor x="165" y="0" name="bottom"/>
	<anchor x="173" y="521" name="top"/>
	<outline>
		<contour>
			<point x="188" y="242" type="curve" smooth="yes"/>
			<point x="131" y="242"/>
			<point x="93" y="210"/>
			<point x="93" y="169" type="curve" smooth="yes"/>
			<point x="93" y="151"/>
			<point x="101" y="140"/>
			<point x="105" y="135" type="curve"/>
			<point x="105" y="171"/>
			<point x="127" y="193"/>
			<point x="153" y="193" type="curve" smooth="yes"/>
			<point x="179" y="193"/>
			<point x="192" y="167"/>
			<point x="192" y="140" type="curve" smooth="yes"/>
			<point x="192" y="95"/>
			<point x="160" y="73"/>
			<point x="128" y="73" type="curve" smooth="yes"/>
			<point x="97" y="73"/>
			<point x="80" y="92"/>
			<point x="70" y="112" type="curve"/>
			<point x="75" y="75"/>
			<point x="91" y="33"/>
			<point x="135" y="33" type="curve" smooth="yes"/>
			<point x="160" y="33"/>
			<point x="178" y="47"/>
			<point x="183" y="60" type="curve"/>
			<point x="184" y="14"/>
			<point x="234" y="-19"/>
			<point x="269" y="-29" type="curve"/>
			<point x="242" y="6"/>
			<point x="229" y="32"/>
			<point x="229" y="71" type="curve" smooth="yes"/>
			<point x="229" y="102"/>
			<point x="238" y="114"/>
			<point x="238" y="147" type="curve" smooth="yes"/>
			<point x="238" y="172"/>
			<point x="227" y="205"/>
			<point x="202" y="214" type="curve"/>
			<point x="188" y="204" type="line"/>
			<point x="236" y="210"/>
			<point x="269" y="191"/>
			<point x="294" y="168" type="curve"/>
			<point x="274" y="213"/>
			<point x="238" y="242"/>
		</contour>
		<contour>
			<point x="224" y="265" type="curve"/>
			<point x="220" y="289"/>
			<point x="217" y="308"/>
			<point x="217" y="327" type="curve" smooth="yes"/>
			<point x="217" y="373"/>
			<point x="224" y="395"/>
			<point x="249" y="429" type="curve"/>
			<point x="255" y="495"/>
			<point x="217" y="548"/>
			<point x="175" y="565" type="curve"/>
			<point x="189" y="552"/>
			<point x="208" y="516"/>
			<point x="209" y="451" type="curve"/>
			<point x="192" y="519"/>
			<point x="141" y="528"/>
			<point x="88" y="532" type="curve"/>
			<point x="142" y="516"/>
			<point x="179" y="465"/>
			<point x="179" y="422" type="curve"/>
			<point x="171" y="448"/>
			<point x="159" y="463"/>
			<point x="131" y="463" type="curve" smooth="yes"/>
			<point x="108" y="463"/>
			<point x="65" y="445"/>
			<point x="85" y="390" type="curve"/>
			<point x="86" y="390" type="line"/>
			<point x="86" y="410"/>
			<point x="102" y="428"/>
			<point x="121" y="428" type="curve" smooth="yes"/>
			<point x="153" y="428"/>
			<point x="171" y="393"/>
			<point x="171" y="347" type="curve" smooth="yes"/>
			<point x="171" y="305"/>
			<point x="170" y="290"/>
			<point x="166" y="260" type="curve"/>
			<point x="186" y="267"/>
			<point x="205" y="269"/>
		</contour>
	</outline>
	<lib>
		<dict>
			<key>public.markColor</key>
			<string>0.67,0.95,0.38,1</string>
		</dict>
	</lib>
</glyph>
