<?xml version="1.0" encoding="UTF-8"?>
<glyph name="Egrave" format="2">
	<advance width="693"/>
	<unicode hex="00C8"/>
	<outline>
		<component base="E"/>
		<component base="grave.cap" xOffset="105" yOffset="231"/>
	</outline>
	<lib>
		<dict>
			<key>public.markColor</key>
			<string>0.67,0.95,0.38,1</string>
		</dict>
	</lib>
</glyph>
