<?xml version="1.0" encoding="UTF-8"?>
<glyph name="edotaccent" format="2">
	<advance width="600"/>
	<unicode hex="0117"/>
	<outline>
		<component base="e"/>
		<component base="dotaccent" xOffset="193" yOffset="-53"/>
	</outline>
	<lib>
		<dict>
			<key>public.markColor</key>
			<string>0.67,0.95,0.38,1</string>
		</dict>
	</lib>
</glyph>
