<?xml version="1.0" encoding="UTF-8"?>
<glyph name="hyphen" format="2">
	<advance width="628"/>
	<unicode hex="002D"/>
	<note>
		hyphen
  </note>
	<outline>
		<contour>
			<point x="168" y="269" type="curve"/>
			<point x="150" y="279"/>
			<point x="142" y="292"/>
			<point x="142" y="310" type="curve" smooth="yes"/>
			<point x="142" y="354"/>
			<point x="184" y="386"/>
			<point x="280" y="383" type="curve" smooth="yes"/>
			<point x="369" y="381"/>
			<point x="400" y="403"/>
			<point x="391" y="458" type="curve"/>
			<point x="423" y="433"/>
			<point x="429" y="380"/>
			<point x="376" y="356" type="curve"/>
			<point x="356" y="373" type="line"/>
			<point x="388" y="373"/>
			<point x="444" y="361"/>
			<point x="444" y="317" type="curve" smooth="yes"/>
			<point x="444" y="291"/>
			<point x="422" y="275"/>
			<point x="390" y="275" type="curve"/>
			<point x="395" y="279"/>
			<point x="404" y="290"/>
			<point x="404" y="305" type="curve" smooth="yes"/>
			<point x="404" y="337"/>
			<point x="343" y="341"/>
			<point x="306" y="341" type="curve" smooth="yes"/>
			<point x="231" y="341"/>
			<point x="168" y="319"/>
		</contour>
	</outline>
	<lib>
		<dict>
			<key>public.markColor</key>
			<string>0.67,0.95,0.38,1</string>
		</dict>
	</lib>
</glyph>
