<?xml version="1.0" encoding="UTF-8"?>
<glyph name="k" format="2">
	<advance width="599"/>
	<unicode hex="006B"/>
	<note>
		K
  </note>
	<outline>
		<contour>
			<point x="30" y="116" type="curve"/>
			<point x="38" y="79"/>
			<point x="57" y="37"/>
			<point x="110" y="37" type="curve" smooth="yes"/>
			<point x="138" y="37"/>
			<point x="166" y="53"/>
			<point x="173" y="64" type="curve"/>
			<point x="174" y="18"/>
			<point x="224" y="-15"/>
			<point x="259" y="-25" type="curve"/>
			<point x="232" y="10"/>
			<point x="219" y="36"/>
			<point x="219" y="75" type="curve" smooth="yes"/>
			<point x="219" y="106"/>
			<point x="228" y="118"/>
			<point x="228" y="151" type="curve" smooth="yes"/>
			<point x="228" y="171"/>
			<point x="221" y="195"/>
			<point x="206" y="209" type="curve"/>
			<point x="239" y="207"/>
			<point x="264" y="191"/>
			<point x="284" y="172" type="curve"/>
			<point x="267" y="217"/>
			<point x="228" y="246"/>
			<point x="178" y="246" type="curve" smooth="yes"/>
			<point x="121" y="246"/>
			<point x="83" y="214"/>
			<point x="83" y="173" type="curve" smooth="yes"/>
			<point x="83" y="155"/>
			<point x="91" y="144"/>
			<point x="95" y="139" type="curve"/>
			<point x="95" y="175"/>
			<point x="117" y="197"/>
			<point x="143" y="197" type="curve" smooth="yes"/>
			<point x="169" y="197"/>
			<point x="182" y="171"/>
			<point x="182" y="148" type="curve" smooth="yes"/>
			<point x="182" y="103"/>
			<point x="145" y="77"/>
			<point x="106" y="77" type="curve" smooth="yes"/>
			<point x="74" y="77"/>
			<point x="47" y="96"/>
		</contour>
		<contour>
			<point x="214" y="259" type="curve"/>
			<point x="210" y="282"/>
			<point x="201" y="355"/>
			<point x="201" y="429" type="curve" smooth="yes"/>
			<point x="201" y="484"/>
			<point x="208" y="507"/>
			<point x="239" y="541" type="curve"/>
			<point x="239" y="727"/>
			<point x="101" y="762"/>
			<point x="55" y="777" type="curve"/>
			<point x="95" y="752"/>
			<point x="185" y="705"/>
			<point x="185" y="563" type="curve"/>
			<point x="167" y="635"/>
			<point x="94" y="648"/>
			<point x="68" y="651" type="curve"/>
			<point x="96" y="643"/>
			<point x="159" y="600"/>
			<point x="159" y="534" type="curve"/>
			<point x="152" y="548"/>
			<point x="122" y="574"/>
			<point x="70" y="575" type="curve"/>
			<point x="125" y="549"/>
			<point x="154" y="525"/>
			<point x="154" y="429" type="curve" smooth="yes"/>
			<point x="154" y="363"/>
			<point x="152" y="275"/>
			<point x="149" y="264" type="curve"/>
			<point x="170" y="267"/>
			<point x="189" y="267"/>
		</contour>
		<contour>
			<point x="242" y="324" type="curve"/>
			<point x="243" y="324" type="line"/>
			<point x="258" y="416"/>
			<point x="317" y="477"/>
			<point x="400" y="477" type="curve" smooth="yes"/>
			<point x="447" y="477"/>
			<point x="478" y="446"/>
			<point x="478" y="406" type="curve" smooth="yes"/>
			<point x="478" y="324"/>
			<point x="383" y="279"/>
			<point x="238" y="267" type="curve"/>
			<point x="238" y="265" type="line"/>
			<point x="357" y="252"/>
			<point x="422" y="120"/>
			<point x="437" y="-1" type="curve"/>
			<point x="439" y="-1" type="line"/>
			<point x="438" y="33"/>
			<point x="454" y="47"/>
			<point x="471" y="47" type="curve" smooth="yes"/>
			<point x="485" y="47"/>
			<point x="497" y="39"/>
			<point x="497" y="18" type="curve" smooth="yes"/>
			<point x="497" y="1"/>
			<point x="482" y="-22"/>
			<point x="441" y="-22" type="curve"/>
			<point x="441" y="-23" type="line"/>
			<point x="535" y="-49"/>
			<point x="555" y="37"/>
			<point x="507" y="73" type="curve"/>
			<point x="498" y="66" type="line"/>
			<point x="549" y="38"/>
			<point x="600" y="59"/>
			<point x="600" y="103" type="curve" smooth="yes"/>
			<point x="600" y="142"/>
			<point x="559" y="152"/>
			<point x="533" y="142" type="curve"/>
			<point x="533" y="141" type="line"/>
			<point x="550" y="141"/>
			<point x="561" y="131"/>
			<point x="561" y="118" type="curve" smooth="yes"/>
			<point x="561" y="104"/>
			<point x="548" y="96"/>
			<point x="528" y="96" type="curve" smooth="yes"/>
			<point x="448" y="96"/>
			<point x="386" y="248"/>
			<point x="296" y="266" type="curve"/>
			<point x="299" y="263" type="line"/>
			<point x="351" y="270"/>
			<point x="531" y="297"/>
			<point x="531" y="413" type="curve" smooth="yes"/>
			<point x="531" y="473"/>
			<point x="491" y="521"/>
			<point x="411" y="521" type="curve" smooth="yes"/>
			<point x="302" y="521"/>
			<point x="237" y="409"/>
		</contour>
	</outline>
	<lib>
		<dict>
			<key>com.schriftgestaltung.Glyphs.leftMetricsKey</key>
			<string>h</string>
			<key>public.markColor</key>
			<string>0.67,0.95,0.38,1</string>
		</dict>
	</lib>
</glyph>
