<?xml version="1.0" encoding="UTF-8"?>
<glyph name="Ldot" format="2">
	<advance width="617"/>
	<unicode hex="013F"/>
	<outline>
		<component base="L"/>
		<component base="periodcentered" xOffset="301" yOffset="229"/>
	</outline>
	<lib>
		<dict>
			<key>public.markColor</key>
			<string>0.67,0.95,0.38,1</string>
		</dict>
	</lib>
</glyph>
