<?xml version="1.0" encoding="UTF-8"?>
<glyph name="quotedblleft" format="2">
	<advance width="483"/>
	<unicode hex="201C"/>
	<note>
		guillemotleft
  </note>
	<outline>
		<component base="quotedbl" xScale="-1" xOffset="543"/>
	</outline>
	<lib>
		<dict>
			<key>public.markColor</key>
			<string>0.67,0.95,0.38,1</string>
		</dict>
	</lib>
</glyph>
