<?xml version="1.0" encoding="UTF-8"?>
<glyph name="seven" format="2">
	<advance width="592"/>
	<unicode hex="0037"/>
	<outline>
		<contour>
			<point x="637" y="756" type="curve"/>
			<point x="642" y="752" type="line"/>
			<point x="588" y="703"/>
			<point x="541" y="581"/>
			<point x="473" y="425" type="curve" smooth="yes"/>
			<point x="351" y="145"/>
			<point x="247" y="-7"/>
			<point x="41" y="-30" type="curve"/>
			<point x="40" y="-27" type="line"/>
			<point x="212" y="26"/>
			<point x="292" y="123"/>
			<point x="412" y="425" type="curve" smooth="yes"/>
			<point x="447" y="513"/>
			<point x="472" y="576"/>
			<point x="513" y="656" type="curve"/>
			<point x="514" y="651" type="line"/>
			<point x="401" y="610"/>
			<point x="260" y="600"/>
			<point x="162" y="600" type="curve" smooth="yes"/>
			<point x="68" y="600"/>
			<point x="56" y="530"/>
			<point x="144" y="394" type="curve"/>
			<point x="140" y="391" type="line"/>
			<point x="30" y="525"/>
			<point x="30" y="660"/>
			<point x="30" y="754" type="curve"/>
			<point x="31" y="754" type="line"/>
			<point x="119" y="525"/>
			<point x="561" y="688"/>
		</contour>
		<contour>
			<point x="266" y="188" type="curve"/>
			<point x="268" y="187" type="line"/>
			<point x="310" y="247"/>
			<point x="358" y="329"/>
			<point x="385" y="420" type="curve"/>
			<point x="383" y="421" type="line"/>
			<point x="342" y="349"/>
			<point x="261" y="326"/>
			<point x="227" y="326" type="curve" smooth="yes"/>
			<point x="198" y="326"/>
			<point x="157" y="340"/>
			<point x="203" y="390" type="curve"/>
			<point x="201" y="391" type="line"/>
			<point x="119" y="328"/>
			<point x="122" y="226"/>
			<point x="174" y="164" type="curve"/>
			<point x="176" y="166" type="line"/>
			<point x="130" y="249"/>
			<point x="180" y="303"/>
			<point x="228" y="303" type="curve" smooth="yes"/>
			<point x="269" y="303"/>
			<point x="280" y="272"/>
			<point x="280" y="252" type="curve" smooth="yes"/>
			<point x="280" y="224"/>
			<point x="271" y="196"/>
		</contour>
	</outline>
	<lib>
		<dict>
			<key>public.markColor</key>
			<string>0.67,0.95,0.38,1</string>
		</dict>
	</lib>
</glyph>
