<?xml version="1.0" encoding="UTF-8"?>
<glyph name="Z" format="2">
	<advance width="716"/>
	<unicode hex="005A"/>
	<anchor x="358" y="400" name="center"/>
	<anchor x="358" y="0" name="bottom"/>
	<anchor x="438" y="650" name="top"/>
	<note>
		Z
  </note>
	<outline>
		<contour>
			<point x="20" y="122" type="curve"/>
			<point x="27" y="83"/>
			<point x="50" y="43"/>
			<point x="110" y="43" type="curve" smooth="yes"/>
			<point x="139" y="43"/>
			<point x="190" y="57"/>
			<point x="202" y="97" type="curve"/>
			<point x="202" y="19"/>
			<point x="241" y="-14"/>
			<point x="279" y="-29" type="curve"/>
			<point x="248" y="3"/>
			<point x="236" y="27"/>
			<point x="236" y="77" type="curve" smooth="yes"/>
			<point x="236" y="95"/>
			<point x="237" y="108"/>
			<point x="239" y="120" type="curve"/>
			<point x="278" y="42"/>
			<point x="356" y="-10"/>
			<point x="460" y="-10" type="curve" smooth="yes"/>
			<point x="583" y="-10"/>
			<point x="674" y="75"/>
			<point x="696" y="254" type="curve"/>
			<point x="692" y="254" type="line"/>
			<point x="657" y="123"/>
			<point x="574" y="39"/>
			<point x="462" y="39" type="curve" smooth="yes"/>
			<point x="363" y="39"/>
			<point x="311" y="100"/>
			<point x="276" y="147" type="curve" smooth="yes"/>
			<point x="241" y="194"/>
			<point x="226" y="237"/>
			<point x="192" y="246" type="curve"/>
			<point x="218" y="258"/>
			<point x="273" y="263"/>
			<point x="318" y="230" type="curve"/>
			<point x="521" y="296"/>
			<point x="651" y="478"/>
			<point x="680" y="680" type="curve"/>
			<point x="676" y="681" type="line"/>
			<point x="613" y="434"/>
			<point x="474" y="344"/>
			<point x="258" y="293" type="curve" smooth="yes"/>
			<point x="127" y="262"/>
			<point x="87" y="243"/>
			<point x="87" y="202" type="curve" smooth="yes"/>
			<point x="87" y="181"/>
			<point x="103" y="170"/>
			<point x="115" y="165" type="curve"/>
			<point x="115" y="192"/>
			<point x="134" y="216"/>
			<point x="163" y="216" type="curve" smooth="yes"/>
			<point x="195" y="216"/>
			<point x="208" y="191"/>
			<point x="208" y="166" type="curve" smooth="yes"/>
			<point x="208" y="120"/>
			<point x="161" y="84"/>
			<point x="108" y="84" type="curve" smooth="yes"/>
			<point x="62" y="84"/>
			<point x="31" y="110"/>
		</contour>
		<contour>
			<point x="98" y="536" type="curve" smooth="yes"/>
			<point x="98" y="591"/>
			<point x="144" y="636"/>
			<point x="246" y="649" type="curve"/>
			<point x="177" y="655"/>
			<point x="154" y="689"/>
			<point x="167" y="736" type="curve"/>
			<point x="186" y="689"/>
			<point x="283" y="663"/>
			<point x="415" y="663" type="curve" smooth="yes"/>
			<point x="557" y="663"/>
			<point x="647" y="672"/>
			<point x="676" y="750" type="curve"/>
			<point x="678" y="750" type="line"/>
			<point x="667" y="690"/>
			<point x="627" y="578"/>
			<point x="566" y="486" type="curve"/>
			<point x="564" y="487" type="line"/>
			<point x="615" y="592"/>
			<point x="590" y="636"/>
			<point x="385" y="636" type="curve" smooth="yes"/>
			<point x="235" y="636"/>
			<point x="155" y="601"/>
			<point x="155" y="539" type="curve" smooth="yes"/>
			<point x="155" y="515"/>
			<point x="172" y="493"/>
			<point x="201" y="493" type="curve" smooth="yes"/>
			<point x="222" y="493"/>
			<point x="250" y="503"/>
			<point x="264" y="528" type="curve"/>
			<point x="273" y="478"/>
			<point x="233" y="450"/>
			<point x="191" y="450" type="curve" smooth="yes"/>
			<point x="136" y="450"/>
			<point x="98" y="483"/>
		</contour>
	</outline>
	<lib>
		<dict>
			<key>public.markColor</key>
			<string>0.67,0.95,0.38,1</string>
		</dict>
	</lib>
</glyph>
