<?xml version="1.0" encoding="UTF-8"?>
<glyph name="onehalf" format="2">
	<advance width="573"/>
	<unicode hex="00BD"/>
	<note>
		onehalf
  </note>
	<outline>
		<contour>
			<point x="505" y="220" type="qcurve"/>
			<point x="503" y="220" type="line" smooth="yes"/>
			<point x="492" y="220"/>
			<point x="484" y="202"/>
			<point x="477" y="181"/>
			<point x="463" y="163"/>
			<point x="446" y="163" type="qcurve" smooth="yes"/>
			<point x="433" y="163"/>
			<point x="421" y="167" type="qcurve" smooth="yes"/>
			<point x="412" y="170" type="line"/>
			<point x="410" y="170"/>
			<point x="409" y="171" type="qcurve"/>
			<point x="415" y="184"/>
			<point x="440" y="210"/>
			<point x="450" y="224" type="qcurve"/>
			<point x="451" y="225"/>
			<point x="462" y="236"/>
			<point x="474" y="252"/>
			<point x="483" y="272"/>
			<point x="483" y="283" type="qcurve" smooth="yes"/>
			<point x="483" y="295"/>
			<point x="469" y="319"/>
			<point x="448" y="338"/>
			<point x="421" y="350"/>
			<point x="409" y="350" type="qcurve" smooth="yes"/>
			<point x="392" y="350"/>
			<point x="355" y="321"/>
			<point x="347" y="310" type="qcurve"/>
			<point x="346" y="309" type="line"/>
			<point x="327" y="309"/>
			<point x="327" y="288" type="qcurve" smooth="yes"/>
			<point x="327" y="280"/>
			<point x="340" y="270"/>
			<point x="349" y="270" type="qcurve" smooth="yes"/>
			<point x="361" y="270"/>
			<point x="374" y="282"/>
			<point x="377" y="286" type="qcurve"/>
			<point x="377" y="287" type="line"/>
			<point x="378" y="287"/>
			<point x="378" y="288" type="qcurve"/>
			<point x="380" y="290" type="line"/>
			<point x="389" y="298"/>
			<point x="407" y="312"/>
			<point x="414" y="312" type="qcurve" smooth="yes"/>
			<point x="417" y="312"/>
			<point x="427" y="306"/>
			<point x="437" y="297"/>
			<point x="444" y="287"/>
			<point x="444" y="283" type="qcurve" smooth="yes"/>
			<point x="444" y="280"/>
			<point x="436" y="267"/>
			<point x="424" y="251"/>
			<point x="410" y="235"/>
			<point x="405" y="230" type="qcurve" smooth="yes"/>
			<point x="404" y="229" type="line"/>
			<point x="394" y="218"/>
			<point x="375" y="194"/>
			<point x="370" y="177" type="qcurve"/>
			<point x="358" y="176"/>
			<point x="327" y="160"/>
			<point x="327" y="146" type="qcurve" smooth="yes"/>
			<point x="327" y="138"/>
			<point x="338" y="127"/>
			<point x="346" y="127" type="qcurve" smooth="yes"/>
			<point x="352" y="127"/>
			<point x="367" y="138"/>
			<point x="375" y="138" type="qcurve" smooth="yes"/>
			<point x="381" y="138"/>
			<point x="401" y="133" type="qcurve"/>
			<point x="410" y="130" type="line"/>
			<point x="435" y="125"/>
			<point x="446" y="125" type="qcurve" smooth="yes"/>
			<point x="481" y="125"/>
			<point x="519" y="164"/>
			<point x="523" y="199" type="qcurve"/>
			<point x="523" y="218"/>
		</contour>
		<contour>
			<point x="400" y="540" type="qcurve"/>
			<point x="395" y="546"/>
			<point x="388" y="546" type="qcurve" smooth="yes"/>
			<point x="378" y="546"/>
			<point x="373" y="535" type="qcurve"/>
			<point x="371" y="527"/>
			<point x="354" y="500"/>
			<point x="332" y="469"/>
			<point x="309" y="439"/>
			<point x="300" y="428" type="qcurve" smooth="yes"/>
			<point x="256" y="377"/>
			<point x="189" y="253"/>
			<point x="163" y="199" type="qcurve" smooth="yes"/>
			<point x="162" y="197"/>
			<point x="162" y="194" type="qcurve" smooth="yes"/>
			<point x="162" y="189"/>
			<point x="169" y="178"/>
			<point x="178" y="178" type="qcurve" smooth="yes"/>
			<point x="185" y="178"/>
			<point x="190" y="186" type="qcurve"/>
			<point x="213" y="231"/>
			<point x="262" y="322"/>
			<point x="295" y="370" type="qcurve" smooth="yes"/>
			<point x="310" y="392"/>
			<point x="341" y="431"/>
			<point x="355" y="451" type="qcurve"/>
			<point x="360" y="460"/>
			<point x="376" y="479"/>
			<point x="392" y="499"/>
			<point x="403" y="520"/>
			<point x="403" y="531" type="qcurve" smooth="yes"/>
			<point x="403" y="535"/>
		</contour>
		<contour>
			<point x="200" y="373" type="qcurve"/>
			<point x="198" y="380"/>
			<point x="182" y="390"/>
			<point x="163" y="397"/>
			<point x="144" y="401"/>
			<point x="139" y="401" type="qcurve"/>
			<point x="139" y="416"/>
			<point x="147" y="444"/>
			<point x="147" y="460" type="qcurve" smooth="yes"/>
			<point x="147" y="474"/>
			<point x="139" y="492"/>
			<point x="126" y="492" type="qcurve" smooth="yes"/>
			<point x="122" y="492" type="line"/>
			<point x="114" y="490"/>
			<point x="106" y="478"/>
			<point x="106" y="473" type="qcurve" smooth="yes"/>
			<point x="106" y="469"/>
			<point x="108" y="463"/>
			<point x="108" y="459" type="qcurve" smooth="yes"/>
			<point x="108" y="446"/>
			<point x="100" y="415"/>
			<point x="100" y="400" type="qcurve"/>
			<point x="94" y="398"/>
			<point x="76" y="394"/>
			<point x="61" y="386"/>
			<point x="50" y="375"/>
			<point x="50" y="367" type="qcurve" smooth="yes"/>
			<point x="50" y="358"/>
			<point x="62" y="348"/>
			<point x="70" y="348" type="qcurve" smooth="yes"/>
			<point x="82" y="348"/>
			<point x="111" y="363"/>
			<point x="125" y="363" type="qcurve" smooth="yes"/>
			<point x="139" y="363"/>
			<point x="169" y="348"/>
			<point x="182" y="348" type="qcurve" smooth="yes"/>
			<point x="188" y="348"/>
			<point x="201" y="359"/>
			<point x="201" y="367" type="qcurve" smooth="yes"/>
			<point x="201" y="371"/>
		</contour>
		<contour>
			<point x="62" y="536" type="qcurve"/>
			<point x="81" y="527"/>
			<point x="103" y="527" type="qcurve" smooth="yes"/>
			<point x="112" y="527"/>
			<point x="142" y="528"/>
			<point x="169" y="533"/>
			<point x="189" y="544"/>
			<point x="189" y="554" type="qcurve" smooth="yes"/>
			<point x="189" y="562"/>
			<point x="177" y="573"/>
			<point x="169" y="573" type="qcurve" smooth="yes"/>
			<point x="152" y="573"/>
			<point x="120" y="566"/>
			<point x="103" y="566" type="qcurve" smooth="yes"/>
			<point x="94" y="566"/>
			<point x="74" y="573"/>
			<point x="70" y="573" type="qcurve" smooth="yes"/>
			<point x="62" y="573"/>
			<point x="50" y="563"/>
			<point x="50" y="553" type="qcurve" smooth="yes"/>
			<point x="50" y="548"/>
			<point x="58" y="537"/>
		</contour>
	</outline>
	<lib>
		<dict>
			<key>assembly</key>
			<string>PUSHW[ ]	/* 3 values pushed */
140 122 3 
CALL[ ]	/* CallFunction */
PUSHW[ ]	/* 3 values pushed */
57 46 3 
CALL[ ]	/* CallFunction */
NPUSHW[ ]	/* 5 values pushed */
218 46 234 46 2 
DELTAP1[ ]	/* DeltaExceptionP1 */
NPUSHW[ ]	/* 27 values pushed */
9 46 25 46 41 46 57 46 73 46 89 46 105 46 121 46 137 46 153 46 169 46 185 46 201 46 13 
DELTAP1[ ]	/* DeltaExceptionP1 */
PUSHW[ ]	/* 1 value pushed */
46 
SRP0[ ]	/* SetRefPoint0 */
PUSHW[ ]	/* 1 value pushed */
16 
MDRP[10000]	/* MoveDirectRelPt */
NPUSHW[ ]	/* 27 values pushed */
6 140 22 140 38 140 54 140 70 140 86 140 102 140 118 140 134 140 150 140 166 140 182 140 198 140 13 
DELTAP1[ ]	/* DeltaExceptionP1 */
NPUSHW[ ]	/* 5 values pushed */
213 140 229 140 2 
DELTAP1[ ]	/* DeltaExceptionP1 */
PUSHW[ ]	/* 1 value pushed */
140 
SRP0[ ]	/* SetRefPoint0 */
PUSHW[ ]	/* 1 value pushed */
133 
MDRP[11100]	/* MoveDirectRelPt */
PUSHW[ ]	/* 1 value pushed */
127 
MDRP[10000]	/* MoveDirectRelPt */
PUSHW[ ]	/* 1 value pushed */
127 
MDAP[1]	/* MoveDirectAbsPt */
PUSHW[ ]	/* 1 value pushed */
133 
SRP0[ ]	/* SetRefPoint0 */
PUSHW[ ]	/* 1 value pushed */
130 
MDRP[10000]	/* MoveDirectRelPt */
PUSHW[ ]	/* 1 value pushed */
130 
MDAP[1]	/* MoveDirectAbsPt */
PUSHW[ ]	/* 1 value pushed */
122 
SRP0[ ]	/* SetRefPoint0 */
PUSHW[ ]	/* 1 value pushed */
151 
MDRP[10000]	/* MoveDirectRelPt */
PUSHW[ ]	/* 1 value pushed */
122 
SRP0[ ]	/* SetRefPoint0 */
PUSHW[ ]	/* 1 value pushed */
163 
MDRP[11100]	/* MoveDirectRelPt */
PUSHW[ ]	/* 1 value pushed */
57 
SRP0[ ]	/* SetRefPoint0 */
PUSHW[ ]	/* 1 value pushed */
171 
MDRP[11100]	/* MoveDirectRelPt */
SVTCA[0]	/* SetFreedomAndProjectionVectorToAxis */
PUSHW[ ]	/* 3 values pushed */
70 5 3 
CALL[ ]	/* CallFunction */
PUSHW[ ]	/* 3 values pushed */
52 43 3 
CALL[ ]	/* CallFunction */
PUSHW[ ]	/* 3 values pushed */
160 116 3 
CALL[ ]	/* CallFunction */
PUSHW[ ]	/* 1 value pushed */
5 
SRP0[ ]	/* SetRefPoint0 */
PUSHW[ ]	/* 1 value pushed */
13 
MDRP[10000]	/* MoveDirectRelPt */
PUSHW[ ]	/* 1 value pushed */
13 
MDAP[1]	/* MoveDirectAbsPt */
PUSHW[ ]	/* 1 value pushed */
52 
SRP0[ ]	/* SetRefPoint0 */
PUSHW[ ]	/* 1 value pushed */
113 
MDRP[10000]	/* MoveDirectRelPt */
PUSHW[ ]	/* 1 value pushed */
113 
MDAP[1]	/* MoveDirectAbsPt */
PUSHW[ ]	/* 1 value pushed */
52 
SRP0[ ]	/* SetRefPoint0 */
PUSHW[ ]	/* 1 value pushed */
119 
MDRP[10000]	/* MoveDirectRelPt */
PUSHW[ ]	/* 1 value pushed */
119 
MDAP[1]	/* MoveDirectAbsPt */
PUSHW[ ]	/* 1 value pushed */
160 
SRP0[ ]	/* SetRefPoint0 */
PUSHW[ ]	/* 1 value pushed */
154 
MDRP[10000]	/* MoveDirectRelPt */
PUSHW[ ]	/* 1 value pushed */
160 
SRP0[ ]	/* SetRefPoint0 */
PUSHW[ ]	/* 1 value pushed */
157 
MDRP[10000]	/* MoveDirectRelPt */
PUSHW[ ]	/* 1 value pushed */
157 
MDAP[1]	/* MoveDirectAbsPt */
IUP[0]	/* InterpolateUntPts */
IUP[1]	/* InterpolateUntPts */</string>
			<key>com.schriftgestaltung.Glyphs.lastChange</key>
			<string>2019-07-21 17:03:17 +0000</string>
			<key>public.markColor</key>
			<string>0.85,0.26,0.06,1</string>
		</dict>
	</lib>
</glyph>
