<?xml version="1.0" encoding="UTF-8"?>
<glyph name="adieresis" format="2">
	<advance width="552"/>
	<unicode hex="00E4"/>
	<outline>
		<component base="a"/>
		<component base="dieresis" xOffset="67" yOffset="-17"/>
	</outline>
	<lib>
		<dict>
			<key>public.markColor</key>
			<string>0.67,0.95,0.38,1</string>
		</dict>
	</lib>
</glyph>
