<?xml version="1.0" encoding="UTF-8"?>
<glyph name="Racute" format="2">
	<advance width="733"/>
	<unicode hex="0154"/>
	<outline>
		<component base="R"/>
		<component base="acute.cap" xOffset="96" yOffset="208"/>
	</outline>
	<lib>
		<dict>
			<key>public.markColor</key>
			<string>0.67,0.95,0.38,1</string>
		</dict>
	</lib>
</glyph>
