<?xml version="1.0" encoding="UTF-8"?>
<glyph name="Zacute" format="2">
	<advance width="716"/>
	<unicode hex="0179"/>
	<outline>
		<component base="Z"/>
		<component base="acute.cap" xOffset="120" yOffset="189"/>
	</outline>
	<lib>
		<dict>
			<key>public.markColor</key>
			<string>0.67,0.95,0.38,1</string>
		</dict>
	</lib>
</glyph>
