<?xml version="1.0" encoding="UTF-8"?>
<glyph name="lcaron" format="2">
	<advance width="328"/>
	<unicode hex="013E"/>
	<outline>
		<component base="l"/>
		<component base="caroncomb" xOffset="-6" yOffset="300"/>
	</outline>
	<lib>
		<dict>
			<key>com.schriftgestaltung.Glyphs.leftMetricsKey</key>
			<string>l</string>
			<key>com.schriftgestaltung.Glyphs.rightMetricsKey</key>
			<string>l</string>
			<key>public.markColor</key>
			<string>0.67,0.95,0.38,1</string>
		</dict>
	</lib>
</glyph>
