<?xml version="1.0" encoding="UTF-8"?>
<glyph name="M" format="2">
	<advance width="1155"/>
	<unicode hex="004D"/>
	<anchor x="578" y="700" name="top"/>
	<anchor x="578" y="0" name="bottom"/>
	<outline>
		<contour>
			<point x="721" y="1" type="curve"/>
			<point x="1105" y="1" type="line"/>
			<point x="1093" y="267"/>
			<point x="1103" y="827"/>
			<point x="856" y="827" type="curve"/>
			<point x="578" y="827"/>
			<point x="805" y="352"/>
			<point x="578" y="352" type="curve"/>
			<point x="350" y="352"/>
			<point x="578" y="827"/>
			<point x="305" y="827" type="curve"/>
			<point x="51" y="827"/>
			<point x="62" y="267"/>
			<point x="50" y="1" type="curve"/>
			<point x="434" y="1" type="line"/>
			<point x="188" y="239"/>
			<point x="101" y="365"/>
			<point x="101" y="450" type="curve"/>
			<point x="101" y="508"/>
			<point x="144" y="536"/>
			<point x="205" y="536" type="curve"/>
			<point x="422" y="536"/>
			<point x="467" y="464"/>
			<point x="467" y="349" type="curve"/>
			<point x="467" y="268"/>
			<point x="445" y="181"/>
			<point x="445" y="112" type="curve"/>
			<point x="445" y="33"/>
			<point x="472" y="-22"/>
			<point x="578" y="-22" type="curve"/>
			<point x="684" y="-22"/>
			<point x="711" y="33"/>
			<point x="711" y="111" type="curve"/>
			<point x="711" y="180"/>
			<point x="688" y="268"/>
			<point x="688" y="349" type="curve"/>
			<point x="688" y="438"/>
			<point x="734" y="535"/>
			<point x="952" y="535" type="curve"/>
			<point x="1013" y="535"/>
			<point x="1055" y="508"/>
			<point x="1055" y="450" type="curve"/>
			<point x="1055" y="365"/>
			<point x="967" y="239"/>
		</contour>
	</outline>
	<lib>
		<dict>
			<key>public.markColor</key>
			<string>0.06,0.6,0.98,1</string>
		</dict>
	</lib>
</glyph>
