<?xml version="1.0" encoding="UTF-8"?>
<glyph name="quotedblbase" format="2">
	<advance width="188"/>
	<unicode hex="201E"/>
	<outline>
		<component base="comma"/>
		<component base="comma"/>
	</outline>
	<lib>
		<dict>
			<key>public.markColor</key>
			<string>0.98,0.36,0.67,1</string>
		</dict>
	</lib>
</glyph>
