<?xml version="1.0" encoding="UTF-8"?>
<glyph name="s.se" format="2">
	<advance width="587"/>
	<anchor x="294" y="500" name="top"/>
	<anchor x="294" y="0" name="bottom"/>
	<outline>
		<contour>
			<point x="110" y="58" type="line"/>
			<point x="151" y="-5"/>
			<point x="262" y="9"/>
			<point x="292" y="80" type="curve" smooth="yes"/>
			<point x="360" y="229"/>
			<point x="290" y="521"/>
			<point x="235" y="521" type="curve" smooth="yes"/>
			<point x="172" y="521"/>
			<point x="122" y="408"/>
			<point x="95" y="347" type="curve" smooth="yes"/>
			<point x="87" y="330"/>
			<point x="82" y="318"/>
			<point x="77" y="311" type="curve"/>
			<point x="178" y="206"/>
			<point x="187" y="440"/>
			<point x="146" y="464" type="curve" smooth="yes"/>
			<point x="103" y="488"/>
			<point x="25" y="396"/>
			<point x="20" y="314" type="curve"/>
			<point x="40" y="312" type="line"/>
			<point x="46" y="402"/>
			<point x="117" y="457"/>
			<point x="136" y="446" type="curve" smooth="yes"/>
			<point x="160" y="432"/>
			<point x="158" y="274"/>
			<point x="103" y="316" type="curve"/>
			<point x="106" y="322"/>
			<point x="109" y="330"/>
			<point x="113" y="339" type="curve" smooth="yes"/>
			<point x="140" y="399"/>
			<point x="185" y="499"/>
			<point x="235" y="499" type="curve" smooth="yes"/>
			<point x="274" y="500"/>
			<point x="338" y="231"/>
			<point x="274" y="88" type="curve" smooth="yes"/>
			<point x="250" y="33"/>
			<point x="159" y="21"/>
			<point x="126" y="70" type="curve"/>
		</contour>
		<contour>
			<point x="565" y="219" type="line"/>
			<point x="575" y="170"/>
			<point x="555" y="73"/>
			<point x="530" y="46" type="curve" smooth="yes"/>
			<point x="499" y="15"/>
			<point x="359" y="-2"/>
			<point x="307" y="-1" type="curve" smooth="yes"/>
			<point x="-84" y="16"/>
			<point x="178" y="447"/>
			<point x="409" y="171" type="curve"/>
			<point x="413" y="103"/>
			<point x="410" y="45"/>
			<point x="402" y="-7" type="curve"/>
			<point x="422" y="-11" type="line"/>
			<point x="430" y="43"/>
			<point x="433" y="105"/>
			<point x="429" y="176" type="curve"/>
			<point x="427" y="182" type="line"/>
			<point x="170" y="493"/>
			<point x="-129" y="-4"/>
			<point x="307" y="-21" type="curve" smooth="yes"/>
			<point x="359" y="-24"/>
			<point x="509" y="-5"/>
			<point x="544" y="32" type="curve" smooth="yes"/>
			<point x="574" y="63"/>
			<point x="596" y="167"/>
			<point x="585" y="223" type="curve"/>
		</contour>
	</outline>
	<lib>
		<dict>
			<key>public.markColor</key>
			<string>0.97,0.9,0,1</string>
		</dict>
	</lib>
</glyph>
