<?xml version="1.0" encoding="UTF-8"?>
<glyph name="AEacute" format="2">
	<advance width="927"/>
	<unicode hex="01FC"/>
	<outline>
		<component base="AE"/>
		<component base="acutecomb" xOffset="578" yOffset="249"/>
	</outline>
	<lib>
		<dict>
			<key>com.schriftgestaltung.Glyphs.leftMetricsKey</key>
			<string>AEacute</string>
			<key>com.schriftgestaltung.Glyphs.rightMetricsKey</key>
			<string>AEacute</string>
			<key>public.markColor</key>
			<string>0.06,0.6,0.98,1</string>
		</dict>
	</lib>
</glyph>
