<?xml version="1.0" encoding="UTF-8"?>
<glyph name="Amacron" format="2">
	<advance width="1135"/>
	<unicode hex="0100"/>
	<outline>
		<component base="A"/>
		<component base="macroncomb" xOffset="626" yOffset="300"/>
	</outline>
	<lib>
		<dict>
			<key>com.schriftgestaltung.Glyphs.leftMetricsKey</key>
			<string>A</string>
			<key>com.schriftgestaltung.Glyphs.rightMetricsKey</key>
			<string>A</string>
			<key>public.markColor</key>
			<string>0.06,0.6,0.98,1</string>
		</dict>
	</lib>
</glyph>
