<?xml version="1.0" encoding="UTF-8"?>
<glyph name="h" format="2">
	<advance width="534"/>
	<unicode hex="0068"/>
	<anchor x="311" y="400" name="center"/>
	<anchor x="157" y="0" name="bottom"/>
	<anchor x="464" y="800" name="top"/>
	<outline>
		<contour>
			<point x="652" y="555" type="curve"/>
			<point x="694" y="665"/>
			<point x="607" y="755"/>
			<point x="457" y="755" type="curve"/>
			<point x="307" y="755"/>
			<point x="150" y="665"/>
			<point x="108" y="555" type="curve"/>
			<point x="79" y="480"/>
			<point x="101" y="440"/>
			<point x="165" y="403" type="curve"/>
			<point x="142" y="379" type="line"/>
			<point x="114" y="349"/>
			<point x="93" y="315"/>
			<point x="80" y="281" type="curve"/>
			<point x="-30" y="0" type="line"/>
			<point x="87" y="0" type="line"/>
			<point x="87" y="0"/>
			<point x="141" y="145"/>
			<point x="168" y="216" type="curve"/>
			<point x="191" y="275"/>
			<point x="310" y="275"/>
			<point x="284" y="208" type="curve"/>
			<point x="253" y="128"/>
			<point x="202" y="0"/>
			<point x="202" y="0" type="curve"/>
			<point x="354" y="0" type="line"/>
			<point x="354" y="0"/>
			<point x="437" y="216"/>
			<point x="441" y="267" type="curve"/>
			<point x="447" y="408"/>
			<point x="203" y="307"/>
			<point x="203" y="307" type="curve"/>
			<point x="209" y="323" type="line"/>
			<point x="212" y="326" type="line"/>
			<point x="268" y="358"/>
			<point x="337" y="371"/>
			<point x="393" y="379" type="curve"/>
			<point x="516" y="395"/>
			<point x="609" y="443"/>
		</contour>
		<contour>
			<point x="339" y="452" type="curve"/>
			<point x="231" y="452"/>
			<point x="156" y="478"/>
			<point x="169" y="513" type="curve"/>
			<point x="181" y="544"/>
			<point x="277" y="574"/>
			<point x="385" y="574" type="curve"/>
			<point x="494" y="574"/>
			<point x="568" y="544"/>
			<point x="556" y="513" type="curve"/>
			<point x="543" y="478"/>
			<point x="448" y="452"/>
		</contour>
	</outline>
	<lib>
		<dict>
			<key>public.markColor</key>
			<string>0.67,0.95,0.38,1</string>
		</dict>
	</lib>
</glyph>
