<?xml version="1.0" encoding="UTF-8"?>
<glyph name="j" format="2">
	<advance width="301"/>
	<unicode hex="006A"/>
	<outline>
		<contour>
			<point x="-76" y="-53" type="curve" smooth="yes"/>
			<point x="43" y="-327"/>
			<point x="130" y="-235"/>
			<point x="189" y="-5" type="curve" smooth="yes"/>
			<point x="230" y="158"/>
			<point x="276" y="485"/>
			<point x="293" y="529" type="curve"/>
			<point x="55" y="402" type="line"/>
			<point x="69" y="402"/>
			<point x="192" y="467"/>
			<point x="195" y="437" type="curve" smooth="yes"/>
			<point x="200" y="359"/>
			<point x="162" y="96"/>
			<point x="136" y="-5" type="curve" smooth="yes"/>
			<point x="117" y="-93"/>
			<point x="65" y="-273"/>
			<point x="-52" y="-5" type="curve"/>
			<point x="-165" y="-58" type="line"/>
			<point x="-102" y="-35"/>
			<point x="-80" y="-42"/>
		</contour>
		<contour>
			<point x="93" y="520" type="curve"/>
			<point x="142" y="540"/>
			<point x="191" y="579"/>
			<point x="190" y="590" type="curve"/>
			<point x="191" y="579"/>
			<point x="244" y="583"/>
			<point x="292" y="603" type="curve"/>
			<point x="244" y="583"/>
			<point x="194" y="548"/>
			<point x="195" y="535" type="curve"/>
			<point x="194" y="548"/>
			<point x="142" y="540"/>
		</contour>
	</outline>
	<lib>
		<dict>
			<key>public.markColor</key>
			<string>0.67,0.95,0.38,1</string>
		</dict>
	</lib>
</glyph>
