<?xml version="1.0" encoding="UTF-8"?>
<glyph name="Ncaron" format="2">
	<advance width="952"/>
	<unicode hex="0147"/>
	<outline>
		<component base="N"/>
		<component base="caroncomb" xOffset="581" yOffset="310"/>
	</outline>
	<lib>
		<dict>
			<key>com.schriftgestaltung.Glyphs.leftMetricsKey</key>
			<string>N</string>
			<key>com.schriftgestaltung.Glyphs.rightMetricsKey</key>
			<string>N</string>
			<key>public.markColor</key>
			<string>0.06,0.6,0.98,1</string>
		</dict>
	</lib>
</glyph>
