<?xml version="1.0" encoding="UTF-8"?>
<glyph name="oe" format="2">
	<advance width="679"/>
	<unicode hex="0153"/>
	<anchor x="446" y="500" name="top"/>
	<anchor x="254" y="0" name="bottom"/>
	<outline>
		<contour>
			<point x="607" y="121" type="curve"/>
			<point x="515" y="189" type="line"/>
			<point x="513" y="187" type="line"/>
			<point x="511" y="179"/>
			<point x="508" y="172"/>
			<point x="505" y="164" type="curve"/>
			<point x="490" y="126"/>
			<point x="457" y="111"/>
			<point x="429" y="111" type="curve"/>
			<point x="388" y="111"/>
			<point x="381" y="146"/>
			<point x="363" y="177" type="curve"/>
			<point x="351" y="199"/>
			<point x="323" y="237"/>
			<point x="287" y="248" type="curve"/>
			<point x="289" y="253" type="line"/>
			<point x="344" y="265"/>
			<point x="386" y="301"/>
			<point x="423" y="333" type="curve"/>
			<point x="461" y="366"/>
			<point x="495" y="396"/>
			<point x="536" y="396" type="curve"/>
			<point x="579" y="396"/>
			<point x="583" y="362"/>
			<point x="572" y="333" type="curve"/>
			<point x="559" y="300"/>
			<point x="525" y="271"/>
			<point x="478" y="260" type="curve"/>
			<point x="481" y="280"/>
			<point x="467" y="295"/>
			<point x="448" y="295" type="curve"/>
			<point x="423" y="295"/>
			<point x="396" y="275"/>
			<point x="387" y="252" type="curve"/>
			<point x="377" y="227"/>
			<point x="389" y="207"/>
			<point x="414" y="207" type="curve"/>
			<point x="437" y="207"/>
			<point x="465" y="227"/>
			<point x="475" y="252" type="curve"/>
			<point x="584" y="252" type="line"/>
			<point x="637" y="283"/>
			<point x="684" y="329"/>
			<point x="705" y="384" type="curve"/>
			<point x="729" y="445"/>
			<point x="718" y="510"/>
			<point x="640" y="510" type="curve"/>
			<point x="579" y="510"/>
			<point x="511" y="472"/>
			<point x="472" y="396" type="curve"/>
			<point x="467" y="396" type="line"/>
			<point x="497" y="473"/>
			<point x="471" y="510"/>
			<point x="430" y="510" type="curve"/>
			<point x="387" y="510"/>
			<point x="323" y="468"/>
			<point x="289" y="391" type="curve"/>
			<point x="284" y="391" type="line"/>
			<point x="309" y="468"/>
			<point x="274" y="510"/>
			<point x="221" y="510" type="curve"/>
			<point x="173" y="510"/>
			<point x="118" y="478"/>
			<point x="96" y="422" type="curve"/>
			<point x="68" y="349"/>
			<point x="115" y="280"/>
			<point x="177" y="253" type="curve"/>
			<point x="175" y="248" type="line"/>
			<point x="92" y="222"/>
			<point x="-8" y="152"/>
			<point x="-36" y="78" type="curve"/>
			<point x="-57" y="23"/>
			<point x="-27" y="-10"/>
			<point x="21" y="-10" type="curve"/>
			<point x="74" y="-10"/>
			<point x="141" y="31"/>
			<point x="177" y="111" type="curve"/>
			<point x="182" y="111" type="line"/>
			<point x="156" y="33"/>
			<point x="187" y="-10"/>
			<point x="230" y="-10" type="curve"/>
			<point x="271" y="-10"/>
			<point x="326" y="28"/>
			<point x="355" y="104" type="curve"/>
			<point x="360" y="104" type="line"/>
			<point x="341" y="28"/>
			<point x="389" y="-10"/>
			<point x="448" y="-10" type="curve"/>
			<point x="514" y="-10"/>
			<point x="577" y="36"/>
			<point x="602" y="101" type="curve"/>
			<point x="604" y="108"/>
			<point x="606" y="112"/>
		</contour>
		<contour>
			<point x="184" y="275" type="line"/>
			<point x="170" y="304"/>
			<point x="163" y="328"/>
			<point x="172" y="351" type="curve"/>
			<point x="183" y="379"/>
			<point x="210" y="396"/>
			<point x="233" y="396" type="curve"/>
			<point x="255" y="396"/>
			<point x="274" y="381"/>
			<point x="272" y="348" type="curve"/>
			<point x="273" y="348" type="line"/>
			<point x="295" y="381"/>
			<point x="324" y="396"/>
			<point x="344" y="396" type="curve"/>
			<point x="367" y="396"/>
			<point x="382" y="377"/>
			<point x="372" y="351" type="curve"/>
			<point x="361" y="324"/>
			<point x="333" y="301"/>
			<point x="299" y="273" type="curve"/>
			<point x="279" y="256" type="line"/>
			<point x="284" y="278"/>
			<point x="270" y="295"/>
			<point x="251" y="295" type="curve"/>
			<point x="227" y="295"/>
			<point x="203" y="278"/>
			<point x="191" y="256" type="curve"/>
		</contour>
		<contour>
			<point x="233" y="106" type="curve"/>
			<point x="212" y="106"/>
			<point x="195" y="121"/>
			<point x="198" y="154" type="curve"/>
			<point x="197" y="154" type="line"/>
			<point x="174" y="121"/>
			<point x="143" y="104"/>
			<point x="123" y="104" type="curve"/>
			<point x="98" y="104"/>
			<point x="84" y="122"/>
			<point x="94" y="149" type="curve"/>
			<point x="104" y="174"/>
			<point x="128" y="195"/>
			<point x="164" y="225" type="curve"/>
			<point x="186" y="243" type="line"/>
			<point x="182" y="223"/>
			<point x="193" y="207"/>
			<point x="217" y="207" type="curve"/>
			<point x="236" y="207"/>
			<point x="263" y="223"/>
			<point x="274" y="243" type="curve"/>
			<point x="281" y="227" type="line"/>
			<point x="293" y="199"/>
			<point x="304" y="175"/>
			<point x="295" y="151" type="curve"/>
			<point x="285" y="124"/>
			<point x="256" y="106"/>
		</contour>
	</outline>
	<lib>
		<dict>
			<key>public.markColor</key>
			<string>0.67,0.95,0.38,1</string>
		</dict>
	</lib>
</glyph>
