<?xml version="1.0" encoding="UTF-8"?>
<glyph name="parenleft" format="2">
	<advance width="666"/>
	<unicode hex="0028"/>
	<outline>
		<contour>
			<point x="493" y="748" type="curve"/>
			<point x="420" y="735"/>
			<point x="340" y="691"/>
			<point x="296" y="624" type="curve"/>
			<point x="243" y="545"/>
			<point x="289" y="501"/>
			<point x="356" y="495" type="curve"/>
			<point x="359" y="499"/>
			<point x="362" y="501"/>
			<point x="364" y="506" type="curve"/>
			<point x="255" y="469"/>
			<point x="124" y="430"/>
			<point x="70" y="313" type="curve"/>
			<point x="23" y="210"/>
			<point x="150" y="199"/>
			<point x="224" y="199" type="curve"/>
			<point x="227" y="204"/>
			<point x="230" y="208"/>
			<point x="234" y="212" type="curve"/>
			<point x="148" y="193"/>
			<point x="-116" y="123"/>
			<point x="-78" y="4" type="curve"/>
			<point x="-58" y="-62"/>
			<point x="25" y="-74"/>
			<point x="102" y="-69" type="curve"/>
			<point x="180" y="-63"/>
			<point x="273" y="-40"/>
			<point x="350" y="13" type="curve"/>
			<point x="342" y="12"/>
			<point x="329" y="9"/>
			<point x="320" y="9" type="curve"/>
			<point x="256" y="-62"/>
			<point x="195" y="-187"/>
			<point x="297" y="-201" type="curve"/>
			<point x="387" y="-214"/>
			<point x="513" y="-134"/>
			<point x="587" y="-58" type="curve"/>
			<point x="592" y="-52"/>
			<point x="560" y="-56"/>
			<point x="553" y="-63" type="curve"/>
			<point x="489" y="-127"/>
			<point x="364" y="-219"/>
			<point x="298" y="-177" type="curve"/>
			<point x="243" y="-139"/>
			<point x="304" y="-42"/>
			<point x="354" y="14" type="curve"/>
			<point x="360" y="24"/>
			<point x="326" y="14"/>
			<point x="322" y="12" type="curve"/>
			<point x="198" y="-71"/>
			<point x="-25" y="-96"/>
			<point x="-47" y="26" type="curve"/>
			<point x="-63" y="127"/>
			<point x="162" y="185"/>
			<point x="232" y="201" type="curve"/>
			<point x="243" y="202"/>
			<point x="259" y="213"/>
			<point x="242" y="213" type="curve"/>
			<point x="176" y="215"/>
			<point x="74" y="223"/>
			<point x="100" y="310" type="curve"/>
			<point x="136" y="421"/>
			<point x="277" y="465"/>
			<point x="372" y="497" type="curve"/>
			<point x="379" y="499"/>
			<point x="393" y="507"/>
			<point x="380" y="508" type="curve"/>
			<point x="325" y="516"/>
			<point x="286" y="550"/>
			<point x="321" y="615" type="curve"/>
			<point x="351" y="672"/>
			<point x="422" y="723"/>
			<point x="483" y="734" type="curve"/>
			<point x="496" y="735"/>
			<point x="516" y="751"/>
		</contour>
	</outline>
	<lib>
		<dict>
			<key>public.markColor</key>
			<string>0.98,0.36,0.67,1</string>
		</dict>
	</lib>
</glyph>
