<?xml version="1.0" encoding="UTF-8"?>
<glyph name="Rcaron" format="2">
	<advance width="911"/>
	<unicode hex="0158"/>
	<outline>
		<component base="R"/>
		<component base="caroncomb" xOffset="553" yOffset="300"/>
	</outline>
	<lib>
		<dict>
			<key>com.schriftgestaltung.Glyphs.leftMetricsKey</key>
			<string>R</string>
			<key>com.schriftgestaltung.Glyphs.rightMetricsKey</key>
			<string>R</string>
			<key>public.markColor</key>
			<string>0.06,0.6,0.98,1</string>
		</dict>
	</lib>
</glyph>
