<?xml version="1.0" encoding="UTF-8"?>
<glyph name="Ygrave" format="2">
	<advance width="904"/>
	<unicode hex="1EF2"/>
	<outline>
		<component base="Y"/>
		<component base="gravecomb" xOffset="535" yOffset="271"/>
	</outline>
	<lib>
		<dict>
			<key>com.schriftgestaltung.Glyphs.leftMetricsKey</key>
			<string>Y</string>
			<key>com.schriftgestaltung.Glyphs.rightMetricsKey</key>
			<string>Y</string>
			<key>public.markColor</key>
			<string>0.06,0.6,0.98,1</string>
		</dict>
	</lib>
</glyph>
