<?xml version="1.0" encoding="UTF-8"?>
<glyph name="dieresis" format="2">
	<advance width="600"/>
	<unicode hex="00A8"/>
	<note>
		dieresis
  </note>
	<outline>
		<contour>
			<point x="336" y="714" type="curve"/>
			<point x="380" y="735" type="line"/>
			<point x="385.33" y="729"/>
			<point x="394" y="723"/>
			<point x="406" y="717" type="curve"/>
			<point x="418" y="710.33"/>
			<point x="426.67" y="704.17"/>
			<point x="432" y="698.5" type="curve" smooth="yes"/>
			<point x="437.33" y="692.83"/>
			<point x="440" y="684.67"/>
			<point x="440" y="674" type="curve" smooth="yes"/>
			<point x="440" y="669.33"/>
			<point x="439.67" y="665.67"/>
			<point x="439" y="663" type="curve"/>
			<point x="433.67" y="632.33"/>
			<point x="420.67" y="617"/>
			<point x="400" y="617" type="curve" smooth="yes"/>
			<point x="391.33" y="617"/>
			<point x="382" y="620"/>
			<point x="372" y="626" type="curve" smooth="yes"/>
			<point x="360.67" y="632.67"/>
			<point x="349.83" y="643.17"/>
			<point x="339.5" y="657.5" type="curve" smooth="yes"/>
			<point x="329.17" y="671.83"/>
			<point x="324" y="684.33"/>
			<point x="324" y="695" type="curve" smooth="yes"/>
			<point x="324" y="704.33"/>
			<point x="328" y="710.67"/>
		</contour>
		<contour>
			<point x="198" y="620" type="curve" smooth="yes"/>
			<point x="202.67" y="620"/>
			<point x="208.67" y="621"/>
			<point x="216" y="623" type="curve"/>
			<point x="218.67" y="627.67"/>
			<point x="225" y="632"/>
			<point x="235" y="636" type="curve" smooth="yes"/>
			<point x="242.33" y="638.67"/>
			<point x="248" y="642"/>
			<point x="252" y="646" type="curve" smooth="yes"/>
			<point x="256" y="650"/>
			<point x="258" y="656.33"/>
			<point x="258" y="665" type="curve" smooth="yes"/>
			<point x="258" y="671.67"/>
			<point x="257.33" y="677.33"/>
			<point x="256" y="682" type="curve"/>
			<point x="252" y="699.33"/>
			<point x="247.83" y="711.33"/>
			<point x="243.5" y="718" type="curve" smooth="yes"/>
			<point x="239.17" y="724.67"/>
			<point x="233.33" y="728"/>
			<point x="226" y="728" type="curve" smooth="yes"/>
			<point x="220" y="728"/>
			<point x="211.33" y="726"/>
			<point x="200" y="722" type="curve" smooth="yes"/>
			<point x="188" y="718"/>
			<point x="178.5" y="712.17"/>
			<point x="171.5" y="704.5" type="curve" smooth="yes"/>
			<point x="164.5" y="696.83"/>
			<point x="161" y="688.67"/>
			<point x="161" y="680" type="curve" smooth="yes"/>
			<point x="161" y="674"/>
			<point x="163" y="667.33"/>
			<point x="167" y="660" type="curve"/>
			<point x="168.33" y="658"/>
			<point x="171" y="652"/>
			<point x="175" y="642" type="curve" smooth="yes"/>
			<point x="178.33" y="634"/>
			<point x="181.33" y="628.33"/>
			<point x="184" y="625" type="curve" smooth="yes"/>
			<point x="186.67" y="621.67"/>
			<point x="191.33" y="620"/>
		</contour>
	</outline>
	<lib>
		<dict>
			<key>com.schriftgestaltung.Glyphs.Export</key>
			<false/>
			<key>com.schriftgestaltung.Glyphs.lastChange</key>
			<string>2019-05-05 06:51:31 +0000</string>
		</dict>
	</lib>
</glyph>
