<?xml version="1.0" encoding="UTF-8"?>
<glyph name="Igrave" format="2">
	<advance width="423"/>
	<unicode hex="00CC"/>
	<note>
		Igrave
  </note>
	<outline>
		<contour>
			<point x="355" y="822" type="line"/>
			<point x="337" y="770" type="line"/>
			<point x="221" y="776" type="line"/>
			<point x="71" y="826" type="line"/>
			<point x="99" y="924" type="line"/>
			<point x="225" y="828" type="line"/>
		</contour>
		<contour>
			<point x="361" y="156" type="curve" smooth="yes"/>
			<point x="370" y="131"/>
			<point x="374" y="106"/>
			<point x="373" y="79" type="curve"/>
			<point x="362" y="2" type="line"/>
			<point x="126" y="6" type="line"/>
			<point x="130" y="30"/>
			<point x="141" y="67"/>
			<point x="158" y="117" type="curve" smooth="yes"/>
			<point x="170" y="154"/>
			<point x="179" y="183"/>
			<point x="185" y="204" type="curve" smooth="yes"/>
			<point x="190" y="225"/>
			<point x="193" y="244"/>
			<point x="193" y="263" type="curve" smooth="yes"/>
			<point x="193" y="284"/>
			<point x="188" y="301"/>
			<point x="179" y="314" type="curve"/>
			<point x="50" y="566" type="line"/>
			<point x="180" y="521" type="line"/>
			<point x="189" y="532"/>
			<point x="208" y="542"/>
			<point x="237" y="553" type="curve" smooth="yes"/>
			<point x="260" y="562"/>
			<point x="278" y="572"/>
			<point x="289" y="581" type="curve" smooth="yes"/>
			<point x="300" y="590"/>
			<point x="306" y="604"/>
			<point x="306" y="623" type="curve" smooth="yes"/>
			<point x="306" y="634"/>
			<point x="304" y="645"/>
			<point x="301" y="655" type="curve" smooth="yes"/>
			<point x="297" y="668"/>
			<point x="295" y="677"/>
			<point x="295" y="680" type="curve" smooth="yes"/>
			<point x="295" y="681"/>
			<point x="295" y="682"/>
			<point x="296" y="682" type="curve" smooth="yes"/>
			<point x="299" y="682"/>
			<point x="304" y="672"/>
			<point x="312" y="651" type="curve" smooth="yes"/>
			<point x="319" y="630"/>
			<point x="326" y="606"/>
			<point x="333" y="577" type="curve" smooth="yes"/>
			<point x="339" y="548"/>
			<point x="342" y="521"/>
			<point x="342" y="494" type="curve" smooth="yes"/>
			<point x="342" y="467"/>
			<point x="338" y="444"/>
			<point x="331" y="425" type="curve"/>
			<point x="281" y="330" type="line"/>
			<point x="288" y="311"/>
			<point x="300" y="284"/>
			<point x="319" y="248" type="curve" smooth="yes"/>
			<point x="338" y="211"/>
			<point x="352" y="180"/>
		</contour>
	</outline>
	<lib>
		<dict>
			<key>com.schriftgestaltung.Glyphs.lastChange</key>
			<string>2019-08-06 10:26:46 +0000</string>
			<key>com.schriftgestaltung.Glyphs.leftMetricsKey</key>
			<string>I</string>
			<key>com.schriftgestaltung.Glyphs.rightMetricsKey</key>
			<string>I</string>
			<key>public.markColor</key>
			<string>0.67,0.95,0.38,1</string>
		</dict>
	</lib>
</glyph>
