<?xml version="1.0" encoding="UTF-8"?>
<glyph name="lozenge" format="2">
	<advance width="565"/>
	<unicode hex="25CA"/>
	<note>
		lozenge
  </note>
	<outline>
		<contour>
			<point x="122" y="390" type="line"/>
			<point x="257" y="651" type="line"/>
			<point x="272" y="585" type="line"/>
			<point x="452" y="390" type="line"/>
			<point x="278" y="99" type="line"/>
		</contour>
		<contour>
			<point x="515" y="405" type="line"/>
			<point x="242" y="759" type="line"/>
			<point x="50" y="357" type="line"/>
			<point x="275" y="-18" type="line"/>
		</contour>
	</outline>
	<lib>
		<dict>
			<key>com.schriftgestaltung.Glyphs.lastChange</key>
			<string>2020-01-09 08:57:39 +0000</string>
			<key>public.markColor</key>
			<string>0.98,0.36,0.67,1</string>
		</dict>
	</lib>
</glyph>
