<?xml version="1.0" encoding="UTF-8"?>
<glyph name="notequal" format="2">
	<advance width="500"/>
	<unicode hex="2260"/>
	<note>
		notequal
  </note>
	<outline>
		<contour>
			<point x="418" y="629" type="line"/>
			<point x="377" y="660" type="line"/>
			<point x="428" y="657" type="line"/>
			<point x="472" y="723" type="line"/>
			<point x="375" y="733" type="line"/>
			<point x="26" y="-82" type="line"/>
			<point x="136" y="-77" type="line"/>
			<point x="178" y="52" type="line"/>
			<point x="141" y="91" type="line"/>
			<point x="186" y="91" type="line"/>
		</contour>
	</outline>
	<lib>
		<dict>
			<key>com.schriftgestaltung.Glyphs.lastChange</key>
			<string>2020-01-09 08:59:02 +0000</string>
			<key>public.markColor</key>
			<string>0.98,0.36,0.67,1</string>
		</dict>
	</lib>
</glyph>
