<?xml version="1.0" encoding="UTF-8"?>
<glyph name="otilde" format="2">
	<advance width="588"/>
	<unicode hex="00F5"/>
	<note>
		otilde
  </note>
	<outline>
		<contour>
			<point x="118" y="806" type="curve"/>
			<point x="134" y="728" type="line"/>
			<point x="242" y="824" type="line"/>
			<point x="250" y="802"/>
			<point x="287" y="785"/>
			<point x="354" y="774" type="curve" smooth="yes"/>
			<point x="417" y="763"/>
			<point x="456" y="766"/>
			<point x="470" y="784" type="curve"/>
			<point x="444" y="888" type="line"/>
			<point x="350" y="820" type="line"/>
			<point x="335" y="864"/>
			<point x="293" y="884"/>
			<point x="226" y="880" type="curve" smooth="yes"/>
			<point x="182" y="877"/>
			<point x="146" y="853"/>
		</contour>
		<contour>
			<point x="151" y="43" type="curve" smooth="yes"/>
			<point x="190" y="6"/>
			<point x="239" y="-12"/>
			<point x="299" y="-12" type="curve" smooth="yes"/>
			<point x="347" y="-12"/>
			<point x="390" y="7"/>
			<point x="428" y="44" type="curve" smooth="yes"/>
			<point x="466" y="81"/>
			<point x="496" y="129"/>
			<point x="517" y="186" type="curve" smooth="yes"/>
			<point x="538" y="243"/>
			<point x="548" y="299"/>
			<point x="548" y="356" type="curve" smooth="yes"/>
			<point x="548" y="417"/>
			<point x="540" y="474"/>
			<point x="524" y="528" type="curve" smooth="yes"/>
			<point x="508" y="581"/>
			<point x="482" y="626"/>
			<point x="445" y="661" type="curve" smooth="yes"/>
			<point x="408" y="696"/>
			<point x="359" y="713"/>
			<point x="299" y="713" type="curve" smooth="yes"/>
			<point x="251" y="713"/>
			<point x="207" y="695"/>
			<point x="168" y="660" type="curve" smooth="yes"/>
			<point x="128" y="624"/>
			<point x="97" y="578"/>
			<point x="74" y="523" type="curve" smooth="yes"/>
			<point x="51" y="467"/>
			<point x="40" y="411"/>
			<point x="40" y="356" type="curve" smooth="yes"/>
			<point x="40" y="296"/>
			<point x="49" y="238"/>
			<point x="67" y="182" type="curve" smooth="yes"/>
			<point x="84" y="126"/>
			<point x="112" y="80"/>
		</contour>
		<contour>
			<point x="313" y="59" type="curve" smooth="yes"/>
			<point x="296" y="59"/>
			<point x="279" y="62"/>
			<point x="261" y="69" type="curve" smooth="yes"/>
			<point x="214" y="86"/>
			<point x="181" y="122"/>
			<point x="161" y="176" type="curve" smooth="yes"/>
			<point x="141" y="230"/>
			<point x="131" y="292"/>
			<point x="131" y="362" type="curve" smooth="yes"/>
			<point x="131" y="539"/>
			<point x="178" y="627"/>
			<point x="271" y="627" type="curve" smooth="yes"/>
			<point x="290" y="627"/>
			<point x="310" y="624"/>
			<point x="331" y="617" type="curve" smooth="yes"/>
			<point x="413" y="592"/>
			<point x="454" y="507"/>
			<point x="454" y="362" type="curve" smooth="yes"/>
			<point x="454" y="286"/>
			<point x="444" y="217"/>
			<point x="424" y="154" type="curve" smooth="yes"/>
			<point x="404" y="91"/>
			<point x="367" y="59"/>
		</contour>
	</outline>
	<lib>
		<dict>
			<key>com.schriftgestaltung.Glyphs.lastChange</key>
			<string>2019-08-06 10:19:14 +0000</string>
			<key>com.schriftgestaltung.Glyphs.leftMetricsKey</key>
			<string>o</string>
			<key>com.schriftgestaltung.Glyphs.rightMetricsKey</key>
			<string>o</string>
			<key>public.markColor</key>
			<string>0.97,0.9,0,1</string>
		</dict>
	</lib>
</glyph>
