<?xml version="1.0" encoding="UTF-8"?>
<glyph name="plusminus" format="2">
	<advance width="600"/>
	<unicode hex="00B1"/>
	<note>
		plusminus
  </note>
	<outline>
		<contour>
			<point x="203" y="338" type="curve" smooth="yes"/>
			<point x="221.67" y="338"/>
			<point x="241" y="333"/>
			<point x="261" y="323" type="curve"/>
			<point x="260.33" y="315.67"/>
			<point x="261" y="306.33"/>
			<point x="263" y="295" type="curve" smooth="yes"/>
			<point x="265" y="283.67"/>
			<point x="266.33" y="276.33"/>
			<point x="267" y="273" type="curve"/>
			<point x="271.67" y="254.33"/>
			<point x="274" y="239.33"/>
			<point x="274" y="228" type="curve" smooth="yes"/>
			<point x="274" y="210"/>
			<point x="266.67" y="200.67"/>
			<point x="252" y="200" type="curve"/>
			<point x="356" y="197" type="line"/>
			<point x="352.67" y="205.67"/>
			<point x="349.33" y="213.33"/>
			<point x="346" y="220" type="curve" smooth="yes"/>
			<point x="342.67" y="226.67"/>
			<point x="340" y="232.67"/>
			<point x="338" y="238" type="curve"/>
			<point x="329.33" y="256"/>
			<point x="322.67" y="271.17"/>
			<point x="318" y="283.5" type="curve" smooth="yes"/>
			<point x="313.33" y="295.83"/>
			<point x="311" y="308"/>
			<point x="311" y="320" type="curve" smooth="yes"/>
			<point x="311" y="328"/>
			<point x="316.33" y="334"/>
			<point x="327" y="338" type="curve" smooth="yes"/>
			<point x="337.67" y="342"/>
			<point x="351.67" y="344"/>
			<point x="369" y="344" type="curve" smooth="yes"/>
			<point x="392.33" y="344"/>
			<point x="415.17" y="340.5"/>
			<point x="437.5" y="333.5" type="curve" smooth="yes"/>
			<point x="459.83" y="326.5"/>
			<point x="473.67" y="317.67"/>
			<point x="479" y="307" type="curve"/>
			<point x="469" y="420" type="line"/>
			<point x="459.67" y="419.33"/>
			<point x="448" y="417.5"/>
			<point x="434" y="414.5" type="curve" smooth="yes"/>
			<point x="420" y="411.5"/>
			<point x="410" y="409.33"/>
			<point x="404" y="408" type="curve"/>
			<point x="372" y="399.33"/>
			<point x="348.67" y="395"/>
			<point x="334" y="395" type="curve" smooth="yes"/>
			<point x="317.33" y="395"/>
			<point x="309" y="400.67"/>
			<point x="309" y="412" type="curve" smooth="yes"/>
			<point x="309" y="445.33"/>
			<point x="311.33" y="476.17"/>
			<point x="316" y="504.5" type="curve" smooth="yes"/>
			<point x="320.67" y="532.83"/>
			<point x="330.33" y="548"/>
			<point x="345" y="550" type="curve"/>
			<point x="239" y="552" type="line"/>
			<point x="239.67" y="542.67"/>
			<point x="244" y="524"/>
			<point x="252" y="496" type="curve" smooth="yes"/>
			<point x="252.67" y="493.33"/>
			<point x="255" y="485.17"/>
			<point x="259" y="471.5" type="curve" smooth="yes"/>
			<point x="263" y="457.83"/>
			<point x="265" y="446.33"/>
			<point x="265" y="437" type="curve" smooth="yes"/>
			<point x="265" y="422.33"/>
			<point x="259" y="414.67"/>
			<point x="247" y="414" type="curve"/>
			<point x="239.67" y="414"/>
			<point x="224.67" y="412.67"/>
			<point x="202" y="410" type="curve" smooth="yes"/>
			<point x="168.67" y="406"/>
			<point x="143.67" y="404"/>
			<point x="127" y="404" type="curve" smooth="yes"/>
			<point x="103" y="404"/>
			<point x="89.33" y="407.67"/>
			<point x="86" y="415" type="curve"/>
			<point x="75" y="301" type="line"/>
			<point x="89.67" y="302.33"/>
			<point x="109" y="308.33"/>
			<point x="133" y="319" type="curve" smooth="yes"/>
			<point x="146.33" y="325"/>
			<point x="158.33" y="329.67"/>
			<point x="169" y="333" type="curve" smooth="yes"/>
			<point x="179.67" y="336.33"/>
			<point x="191" y="338"/>
		</contour>
		<contour>
			<point x="510" y="59" type="curve"/>
			<point x="511" y="148" type="line"/>
			<point x="470.33" y="147.33"/>
			<point x="420.33" y="144"/>
			<point x="361" y="138" type="curve" smooth="yes"/>
			<point x="285" y="131.33"/>
			<point x="230" y="128"/>
			<point x="196" y="128" type="curve" smooth="yes"/>
			<point x="152.67" y="128"/>
			<point x="119" y="131.33"/>
			<point x="95" y="138" type="curve"/>
			<point x="101" y="45" type="line"/>
			<point x="135" y="46.33"/>
			<point x="177.33" y="52.67"/>
			<point x="228" y="64" type="curve" smooth="yes"/>
			<point x="263.33" y="70.67"/>
			<point x="290.83" y="75.5"/>
			<point x="310.5" y="78.5" type="curve" smooth="yes"/>
			<point x="330.17" y="81.5"/>
			<point x="351.33" y="83"/>
			<point x="374" y="83" type="curve" smooth="yes"/>
			<point x="420" y="83"/>
			<point x="465.33" y="75"/>
		</contour>
	</outline>
	<lib>
		<dict>
			<key>com.schriftgestaltung.Glyphs.lastChange</key>
			<string>2019-05-05 08:30:34 +0000</string>
			<key>public.markColor</key>
			<string>0.98,0.36,0.67,1</string>
		</dict>
	</lib>
</glyph>
