<?xml version="1.0" encoding="UTF-8"?>
<glyph name="zcaron" format="2">
	<advance width="600"/>
	<unicode hex="017E"/>
	<outline>
		<component base="z"/>
		<component base="caron" yOffset="-155"/>
	</outline>
	<lib>
		<dict>
			<key>com.schriftgestaltung.Glyphs.lastChange</key>
			<string>2019-08-06 13:59:13 +0000</string>
			<key>public.markColor</key>
			<string>0.97,0.9,0,1</string>
		</dict>
	</lib>
</glyph>
