<?xml version="1.0" encoding="UTF-8"?>
<glyph name="a" format="2">
	<advance width="592"/>
	<unicode hex="0061"/>
	<note>
		a
  </note>
	<outline>
		<contour>
			<point x="319" y="89" type="curve"/>
			<point x="287" y="0" type="line"/>
			<point x="375" y="0" type="line"/>
			<point x="579" y="560" type="line"/>
			<point x="595" y="609"/>
			<point x="602" y="646"/>
			<point x="599" y="672" type="curve" smooth="yes"/>
			<point x="596" y="697"/>
			<point x="576" y="710"/>
			<point x="539" y="711" type="curve" smooth="yes"/>
			<point x="494" y="710"/>
			<point x="452" y="692"/>
			<point x="411" y="657" type="curve" smooth="yes"/>
			<point x="371" y="622"/>
			<point x="327" y="571"/>
			<point x="281" y="505" type="curve"/>
			<point x="280" y="500"/>
			<point x="278" y="493"/>
			<point x="277" y="484" type="curve" smooth="yes"/>
			<point x="275" y="474"/>
			<point x="274" y="466"/>
			<point x="274" y="459" type="curve"/>
			<point x="314" y="505"/>
			<point x="353" y="545"/>
			<point x="390" y="578" type="curve" smooth="yes"/>
			<point x="427" y="611"/>
			<point x="457" y="627"/>
			<point x="480" y="627" type="curve" smooth="yes"/>
			<point x="491" y="627"/>
			<point x="498" y="624"/>
			<point x="501" y="617" type="curve" smooth="yes"/>
			<point x="504" y="610"/>
			<point x="504" y="600"/>
			<point x="499" y="587" type="curve" smooth="yes"/>
			<point x="495" y="573"/>
			<point x="492" y="564"/>
			<point x="491" y="560" type="curve" smooth="yes"/>
			<point x="422" y="371" type="line"/>
			<point x="398" y="365"/>
			<point x="369" y="359"/>
			<point x="334" y="353" type="curve" smooth="yes"/>
			<point x="310" y="349"/>
			<point x="273" y="345"/>
			<point x="224" y="341" type="curve" smooth="yes"/>
			<point x="174" y="337"/>
			<point x="134" y="332"/>
			<point x="106" y="325" type="curve" smooth="yes"/>
			<point x="77" y="318"/>
			<point x="50" y="305"/>
			<point x="26" y="286" type="curve" smooth="yes"/>
			<point x="2" y="266"/>
			<point x="-17" y="236"/>
			<point x="-32" y="196" type="curve" smooth="yes"/>
			<point x="-55" y="133"/>
			<point x="-55" y="82"/>
			<point x="-31" y="45" type="curve" smooth="yes"/>
			<point x="-7" y="7"/>
			<point x="37" y="-12"/>
			<point x="101" y="-12" type="curve" smooth="yes"/>
			<point x="133" y="-12"/>
			<point x="168" y="-3"/>
			<point x="206" y="16" type="curve" smooth="yes"/>
			<point x="244" y="34"/>
			<point x="282" y="58"/>
		</contour>
		<contour>
			<point x="246" y="72" type="curve" smooth="yes"/>
			<point x="204" y="43"/>
			<point x="158" y="29"/>
			<point x="106" y="29" type="curve" smooth="yes"/>
			<point x="74" y="29"/>
			<point x="53" y="44"/>
			<point x="44" y="73" type="curve" smooth="yes"/>
			<point x="35" y="102"/>
			<point x="40" y="145"/>
			<point x="61" y="202" type="curve" smooth="yes"/>
			<point x="70" y="226"/>
			<point x="84" y="245"/>
			<point x="102" y="258" type="curve" smooth="yes"/>
			<point x="120" y="271"/>
			<point x="140" y="281"/>
			<point x="163" y="288" type="curve" smooth="yes"/>
			<point x="186" y="294"/>
			<point x="219" y="301"/>
			<point x="260" y="308" type="curve" smooth="yes"/>
			<point x="295" y="314"/>
			<point x="327" y="320"/>
			<point x="357" y="327" type="curve" smooth="yes"/>
			<point x="368" y="330"/>
			<point x="378" y="333"/>
			<point x="389" y="336" type="curve" smooth="yes"/>
			<point x="399" y="339"/>
			<point x="407" y="341"/>
			<point x="411" y="342" type="curve"/>
			<point x="354" y="185" type="line"/>
			<point x="324" y="138"/>
			<point x="288" y="101"/>
		</contour>
	</outline>
	<lib>
		<dict>
			<key>com.schriftgestaltung.Glyphs.lastChange</key>
			<string>2019-09-26 18:49:10 +0000</string>
			<key>public.markColor</key>
			<string>0.97,0.9,0,1</string>
		</dict>
	</lib>
</glyph>
