<?xml version="1.0" encoding="UTF-8"?>
<glyph name="adieresis" format="2">
	<advance width="627"/>
	<unicode hex="00E4"/>
	<note>
		adieresis
  </note>
	<outline>
		<contour>
			<point x="563" y="810" type="line"/>
			<point x="582" y="790" type="line"/>
			<point x="614" y="786" type="line"/>
			<point x="696" y="830" type="line"/>
			<point x="729" y="876" type="line"/>
			<point x="640" y="906" type="line"/>
		</contour>
		<contour>
			<point x="423" y="772" type="line"/>
			<point x="496" y="812" type="line"/>
			<point x="512" y="890" type="line"/>
			<point x="465" y="876" type="line"/>
			<point x="424" y="866" type="line"/>
			<point x="399" y="832" type="line"/>
		</contour>
		<contour>
			<point x="319" y="89" type="curve"/>
			<point x="286" y="0" type="line"/>
			<point x="374" y="0" type="line"/>
			<point x="578" y="560" type="line"/>
			<point x="595" y="609"/>
			<point x="601" y="646"/>
			<point x="598" y="672" type="curve" smooth="yes"/>
			<point x="595" y="697"/>
			<point x="575" y="710"/>
			<point x="538" y="711" type="curve" smooth="yes"/>
			<point x="494" y="710"/>
			<point x="451" y="692"/>
			<point x="411" y="657" type="curve" smooth="yes"/>
			<point x="370" y="622"/>
			<point x="327" y="571"/>
			<point x="280" y="505" type="curve"/>
			<point x="279" y="500"/>
			<point x="278" y="493"/>
			<point x="276" y="484" type="curve" smooth="yes"/>
			<point x="275" y="474"/>
			<point x="274" y="466"/>
			<point x="273" y="459" type="curve"/>
			<point x="313" y="505"/>
			<point x="352" y="545"/>
			<point x="389" y="578" type="curve" smooth="yes"/>
			<point x="427" y="611"/>
			<point x="457" y="627"/>
			<point x="480" y="627" type="curve" smooth="yes"/>
			<point x="491" y="627"/>
			<point x="498" y="624"/>
			<point x="501" y="617" type="curve" smooth="yes"/>
			<point x="504" y="610"/>
			<point x="503" y="600"/>
			<point x="499" y="587" type="curve" smooth="yes"/>
			<point x="494" y="573"/>
			<point x="492" y="564"/>
			<point x="490" y="560" type="curve" smooth="yes"/>
			<point x="421" y="371" type="line"/>
			<point x="398" y="365"/>
			<point x="369" y="359"/>
			<point x="334" y="353" type="curve" smooth="yes"/>
			<point x="310" y="349"/>
			<point x="273" y="345"/>
			<point x="223" y="341" type="curve" smooth="yes"/>
			<point x="173" y="337"/>
			<point x="134" y="332"/>
			<point x="105" y="325" type="curve" smooth="yes"/>
			<point x="76" y="318"/>
			<point x="50" y="305"/>
			<point x="26" y="286" type="curve" smooth="yes"/>
			<point x="2" y="266"/>
			<point x="-18" y="236"/>
			<point x="-32" y="196" type="curve" smooth="yes"/>
			<point x="-55" y="133"/>
			<point x="-55" y="82"/>
			<point x="-31" y="45" type="curve" smooth="yes"/>
			<point x="-8" y="7"/>
			<point x="36" y="-12"/>
			<point x="101" y="-12" type="curve" smooth="yes"/>
			<point x="133" y="-12"/>
			<point x="168" y="-3"/>
			<point x="206" y="16" type="curve" smooth="yes"/>
			<point x="244" y="34"/>
			<point x="282" y="58"/>
		</contour>
		<contour>
			<point x="246" y="72" type="curve" smooth="yes"/>
			<point x="204" y="43"/>
			<point x="157" y="29"/>
			<point x="106" y="29" type="curve" smooth="yes"/>
			<point x="73" y="29"/>
			<point x="52" y="44"/>
			<point x="43" y="73" type="curve" smooth="yes"/>
			<point x="34" y="102"/>
			<point x="40" y="145"/>
			<point x="61" y="202" type="curve" smooth="yes"/>
			<point x="70" y="226"/>
			<point x="83" y="245"/>
			<point x="101" y="258" type="curve" smooth="yes"/>
			<point x="119" y="271"/>
			<point x="140" y="281"/>
			<point x="163" y="288" type="curve" smooth="yes"/>
			<point x="186" y="294"/>
			<point x="218" y="301"/>
			<point x="259" y="308" type="curve" smooth="yes"/>
			<point x="294" y="314"/>
			<point x="327" y="320"/>
			<point x="356" y="327" type="curve" smooth="yes"/>
			<point x="367" y="330"/>
			<point x="378" y="333"/>
			<point x="388" y="336" type="curve" smooth="yes"/>
			<point x="399" y="339"/>
			<point x="406" y="341"/>
			<point x="411" y="342" type="curve"/>
			<point x="354" y="185" type="line"/>
			<point x="323" y="138"/>
			<point x="287" y="101"/>
		</contour>
	</outline>
	<lib>
		<dict>
			<key>com.schriftgestaltung.Glyphs.lastChange</key>
			<string>2020-01-22 11:41:27 +0000</string>
			<key>com.schriftgestaltung.Glyphs.leftMetricsKey</key>
			<string>a</string>
			<key>public.markColor</key>
			<string>0.97,0.9,0,1</string>
		</dict>
	</lib>
</glyph>
