<?xml version="1.0" encoding="UTF-8"?>
<glyph name="bracketleft" format="2">
	<advance width="680"/>
	<unicode hex="005B"/>
	<note>
		bracketleft
  </note>
	<outline>
		<contour>
			<point x="361" y="713" type="line"/>
			<point x="787" y="719" type="line"/>
			<point x="807" y="778" type="line"/>
			<point x="696" y="781" type="line"/>
			<point x="300" y="778" type="line"/>
			<point x="-26" y="-152" type="line"/>
			<point x="503" y="-148" type="line"/>
			<point x="529" y="-54" type="line"/>
			<point x="86" y="-59" type="line"/>
			<point x="29" y="-102" type="line"/>
			<point x="31" y="-76" type="line"/>
			<point x="93" y="-37" type="line"/>
			<point x="344" y="707" type="line"/>
			<point x="324" y="740" type="line"/>
			<point x="345" y="754" type="line"/>
		</contour>
	</outline>
	<lib>
		<dict>
			<key>com.schriftgestaltung.Glyphs.lastChange</key>
			<string>2019-08-06 14:04:09 +0000</string>
			<key>public.markColor</key>
			<string>0.06,0.6,0.98,1</string>
		</dict>
	</lib>
</glyph>
