<?xml version="1.0" encoding="UTF-8"?>
<glyph name="Delta" format="2">
	<advance width="590"/>
	<unicode hex="0394"/>
	<outline>
		<contour>
			<point x="394" y="717" type="line"/>
			<point x="471" y="742" type="line"/>
			<point x="410" y="-19" type="line"/>
			<point x="-93" y="-93" type="line"/>
		</contour>
		<contour>
			<point x="395" y="655" type="line"/>
			<point x="-19" y="-46" type="line"/>
			<point x="323" y="39" type="line"/>
			<point x="429" y="650" type="line"/>
		</contour>
	</outline>
	<lib>
		<dict>
			<key>com.schriftgestaltung.Glyphs.lastChange</key>
			<string>2019-08-06 14:05:04 +0000</string>
			<key>public.markColor</key>
			<string>0.98,0.36,0.67,1</string>
		</dict>
	</lib>
</glyph>
