<?xml version="1.0" encoding="UTF-8"?>
<glyph name="daggerdbl" format="2">
	<advance width="590"/>
	<unicode hex="2021"/>
	<note>
		daggerdbl
  </note>
	<outline>
		<contour>
			<point x="598" y="699" type="line"/>
			<point x="397" y="647" type="line"/>
			<point x="446" y="762" type="line"/>
			<point x="333" y="758" type="line"/>
			<point x="327" y="646" type="line"/>
			<point x="179" y="674" type="line"/>
			<point x="127" y="527" type="line"/>
			<point x="307" y="584" type="line"/>
			<point x="256" y="445" type="line"/>
			<point x="120" y="483" type="line"/>
			<point x="75" y="354" type="line"/>
			<point x="234" y="405" type="line"/>
			<point x="153" y="297" type="line"/>
			<point x="312" y="291" type="line"/>
			<point x="314" y="403" type="line"/>
			<point x="496" y="367" type="line"/>
			<point x="537" y="492" type="line"/>
			<point x="346" y="474" type="line"/>
			<point x="380" y="578" type="line"/>
			<point x="551" y="538" type="line"/>
		</contour>
	</outline>
	<lib>
		<dict>
			<key>com.schriftgestaltung.Glyphs.lastChange</key>
			<string>2019-08-06 14:05:13 +0000</string>
			<key>public.markColor</key>
			<string>0.98,0.36,0.67,1</string>
		</dict>
	</lib>
</glyph>
