<?xml version="1.0" encoding="UTF-8"?>
<glyph name="integral" format="2">
	<advance width="570"/>
	<unicode hex="222B"/>
	<note>
		integral
  </note>
	<outline>
		<contour>
			<point x="117" y="-10" type="line"/>
			<point x="-29" y="-95" type="line"/>
			<point x="-47" y="1" type="line"/>
			<point x="-116" y="-177" type="line"/>
			<point x="78" y="-155" type="line"/>
			<point x="330" y="200" type="line"/>
			<point x="300" y="596" type="line"/>
			<point x="548" y="644" type="line"/>
			<point x="451" y="490" type="line"/>
			<point x="675" y="667" type="line"/>
			<point x="692" y="772" type="line"/>
			<point x="200" y="596" type="line"/>
		</contour>
	</outline>
	<lib>
		<dict>
			<key>com.schriftgestaltung.Glyphs.lastChange</key>
			<string>2019-08-06 14:05:04 +0000</string>
			<key>public.markColor</key>
			<string>0.98,0.36,0.67,1</string>
		</dict>
	</lib>
</glyph>
