<?xml version="1.0" encoding="UTF-8"?>
<glyph name="periodcentered" format="2">
	<advance width="430"/>
	<unicode hex="00B7"/>
	<note>
		periodcentered
  </note>
	<outline>
		<contour>
			<point x="213" y="405" type="line"/>
			<point x="124" y="350" type="line"/>
			<point x="70" y="236" type="line"/>
			<point x="114" y="236" type="line"/>
			<point x="223" y="233" type="line"/>
			<point x="295" y="347" type="line"/>
		</contour>
	</outline>
	<lib>
		<dict>
			<key>com.schriftgestaltung.Glyphs.lastChange</key>
			<string>2019-08-06 14:04:09 +0000</string>
			<key>public.markColor</key>
			<string>0.06,0.6,0.98,1</string>
		</dict>
	</lib>
</glyph>
