<?xml version="1.0" encoding="UTF-8"?>
<glyph name="plusminus" format="2">
	<advance width="650"/>
	<unicode hex="00B1"/>
	<note>
		plusminus
  </note>
	<outline>
		<contour>
			<point x="227" y="338" type="curve" smooth="yes"/>
			<point x="246" y="338"/>
			<point x="264" y="333"/>
			<point x="280" y="323" type="curve"/>
			<point x="277" y="316"/>
			<point x="274" y="306"/>
			<point x="272" y="295" type="curve" smooth="yes"/>
			<point x="270" y="284"/>
			<point x="268" y="276"/>
			<point x="268" y="273" type="curve"/>
			<point x="266" y="254"/>
			<point x="262" y="239"/>
			<point x="258" y="228" type="curve" smooth="yes"/>
			<point x="252" y="210"/>
			<point x="241" y="201"/>
			<point x="226" y="200" type="curve"/>
			<point x="329" y="197" type="line"/>
			<point x="329" y="206"/>
			<point x="328" y="213"/>
			<point x="327" y="220" type="curve" smooth="yes"/>
			<point x="327" y="227"/>
			<point x="326" y="233"/>
			<point x="326" y="238" type="curve"/>
			<point x="324" y="256"/>
			<point x="323" y="271"/>
			<point x="323" y="284" type="curve" smooth="yes"/>
			<point x="322" y="296"/>
			<point x="324" y="308"/>
			<point x="329" y="320" type="curve" smooth="yes"/>
			<point x="332" y="328"/>
			<point x="339" y="334"/>
			<point x="351" y="338" type="curve" smooth="yes"/>
			<point x="364" y="342"/>
			<point x="378" y="344"/>
			<point x="396" y="344" type="curve" smooth="yes"/>
			<point x="419" y="344"/>
			<point x="440" y="341"/>
			<point x="460" y="334" type="curve" smooth="yes"/>
			<point x="480" y="327"/>
			<point x="491" y="318"/>
			<point x="492" y="307" type="curve"/>
			<point x="523" y="420" type="line"/>
			<point x="514" y="419"/>
			<point x="501" y="418"/>
			<point x="486" y="415" type="curve" smooth="yes"/>
			<point x="471" y="412"/>
			<point x="460" y="409"/>
			<point x="454" y="408" type="curve"/>
			<point x="419" y="399"/>
			<point x="394" y="395"/>
			<point x="379" y="395" type="curve" smooth="yes"/>
			<point x="362" y="395"/>
			<point x="356" y="401"/>
			<point x="360" y="412" type="curve" smooth="yes"/>
			<point x="372" y="445"/>
			<point x="386" y="476"/>
			<point x="401" y="505" type="curve" smooth="yes"/>
			<point x="416" y="533"/>
			<point x="431" y="548"/>
			<point x="447" y="550" type="curve"/>
			<point x="341" y="552" type="line"/>
			<point x="339" y="543"/>
			<point x="336" y="524"/>
			<point x="334" y="496" type="curve" smooth="yes"/>
			<point x="334" y="493"/>
			<point x="333" y="485"/>
			<point x="332" y="472" type="curve" smooth="yes"/>
			<point x="331" y="458"/>
			<point x="329" y="446"/>
			<point x="325" y="437" type="curve" smooth="yes"/>
			<point x="320" y="422"/>
			<point x="311" y="415"/>
			<point x="299" y="414" type="curve"/>
			<point x="292" y="414"/>
			<point x="276" y="413"/>
			<point x="253" y="410" type="curve" smooth="yes"/>
			<point x="218" y="406"/>
			<point x="192" y="404"/>
			<point x="175" y="404" type="curve" smooth="yes"/>
			<point x="151" y="404"/>
			<point x="139" y="408"/>
			<point x="138" y="415" type="curve"/>
			<point x="86" y="301" type="line"/>
			<point x="101" y="302"/>
			<point x="123" y="308"/>
			<point x="150" y="319" type="curve" smooth="yes"/>
			<point x="166" y="325"/>
			<point x="180" y="330"/>
			<point x="192" y="333" type="curve" smooth="yes"/>
			<point x="203" y="336"/>
			<point x="215" y="338"/>
		</contour>
		<contour>
			<point x="433" y="59" type="curve"/>
			<point x="466" y="148" type="line"/>
			<point x="425" y="147"/>
			<point x="374" y="144"/>
			<point x="313" y="138" type="curve" smooth="yes"/>
			<point x="234" y="131"/>
			<point x="178" y="128"/>
			<point x="144" y="128" type="curve" smooth="yes"/>
			<point x="101" y="128"/>
			<point x="68" y="131"/>
			<point x="47" y="138" type="curve"/>
			<point x="19" y="45" type="line"/>
			<point x="53" y="46"/>
			<point x="98" y="53"/>
			<point x="153" y="64" type="curve" smooth="yes"/>
			<point x="190" y="71"/>
			<point x="220" y="76"/>
			<point x="240" y="79" type="curve" smooth="yes"/>
			<point x="261" y="82"/>
			<point x="283" y="83"/>
			<point x="306" y="83" type="curve" smooth="yes"/>
			<point x="352" y="83"/>
			<point x="394" y="75"/>
		</contour>
	</outline>
	<lib>
		<dict>
			<key>com.schriftgestaltung.Glyphs.lastChange</key>
			<string>2019-08-06 14:05:04 +0000</string>
			<key>public.markColor</key>
			<string>0.98,0.36,0.67,1</string>
		</dict>
	</lib>
</glyph>
