<?xml version="1.0" encoding="UTF-8"?>
<glyph name="six" format="2">
	<advance width="670"/>
	<unicode hex="0036"/>
	<note>
		six
  </note>
	<outline>
		<contour>
			<point x="499" y="653" type="curve" smooth="yes"/>
			<point x="515" y="668"/>
			<point x="531" y="676"/>
			<point x="546" y="675" type="curve"/>
			<point x="699" y="662" type="line"/>
			<point x="691" y="667"/>
			<point x="686" y="677"/>
			<point x="684" y="691" type="curve"/>
			<point x="682" y="700"/>
			<point x="679" y="708"/>
			<point x="676" y="714" type="curve" smooth="yes"/>
			<point x="672" y="719"/>
			<point x="664" y="724"/>
			<point x="651" y="729" type="curve" smooth="yes"/>
			<point x="638" y="733"/>
			<point x="619" y="735"/>
			<point x="592" y="736" type="curve" smooth="yes"/>
			<point x="581" y="736"/>
			<point x="567" y="737"/>
			<point x="550" y="738" type="curve" smooth="yes"/>
			<point x="533" y="739"/>
			<point x="522" y="740"/>
			<point x="516" y="740" type="curve" smooth="yes"/>
			<point x="496" y="740"/>
			<point x="477" y="735"/>
			<point x="461" y="726" type="curve" smooth="yes"/>
			<point x="444" y="717"/>
			<point x="423" y="698"/>
			<point x="397" y="671" type="curve" smooth="yes"/>
			<point x="371" y="644"/>
			<point x="332" y="599"/>
			<point x="280" y="537" type="curve" smooth="yes"/>
			<point x="272" y="527"/>
			<point x="250" y="501"/>
			<point x="214" y="460" type="curve" smooth="yes"/>
			<point x="172" y="411"/>
			<point x="144" y="376"/>
			<point x="129" y="357" type="curve" smooth="yes"/>
			<point x="114" y="337"/>
			<point x="103" y="318"/>
			<point x="97" y="300" type="curve" smooth="yes"/>
			<point x="91" y="284"/>
			<point x="88" y="267"/>
			<point x="87" y="250" type="curve" smooth="yes"/>
			<point x="87" y="232"/>
			<point x="88" y="203"/>
			<point x="90" y="163" type="curve" smooth="yes"/>
			<point x="92" y="106" type="line" smooth="yes"/>
			<point x="93" y="63"/>
			<point x="96" y="34"/>
			<point x="100" y="19" type="curve" smooth="yes"/>
			<point x="105" y="3"/>
			<point x="115" y="-8"/>
			<point x="131" y="-14" type="curve" smooth="yes"/>
			<point x="148" y="-20"/>
			<point x="177" y="-23"/>
			<point x="220" y="-23" type="curve" smooth="yes"/>
			<point x="293" y="-23"/>
			<point x="356" y="-3"/>
			<point x="406" y="37" type="curve" smooth="yes"/>
			<point x="457" y="76"/>
			<point x="496" y="134"/>
			<point x="524" y="209" type="curve" smooth="yes"/>
			<point x="545" y="268"/>
			<point x="548" y="313"/>
			<point x="533" y="344" type="curve" smooth="yes"/>
			<point x="518" y="375"/>
			<point x="486" y="391"/>
			<point x="437" y="391" type="curve" smooth="yes"/>
			<point x="397" y="391"/>
			<point x="364" y="384"/>
			<point x="339" y="369" type="curve" smooth="yes"/>
			<point x="314" y="354"/>
			<point x="297" y="335"/>
			<point x="288" y="310" type="curve" smooth="yes"/>
			<point x="272" y="266" type="line" smooth="yes"/>
			<point x="260" y="235"/>
			<point x="254" y="208"/>
			<point x="255" y="185" type="curve" smooth="yes"/>
			<point x="255" y="162"/>
			<point x="267" y="148"/>
			<point x="291" y="141" type="curve" smooth="yes"/>
			<point x="297" y="139"/>
			<point x="304" y="138"/>
			<point x="311" y="138" type="curve" smooth="yes"/>
			<point x="335" y="138"/>
			<point x="359" y="147"/>
			<point x="384" y="165" type="curve" smooth="yes"/>
			<point x="409" y="182"/>
			<point x="425" y="202"/>
			<point x="433" y="225" type="curve" smooth="yes"/>
			<point x="439" y="239"/>
			<point x="439" y="253"/>
			<point x="434" y="266" type="curve" smooth="yes"/>
			<point x="429" y="279"/>
			<point x="421" y="289"/>
			<point x="411" y="297" type="curve" smooth="yes"/>
			<point x="400" y="305"/>
			<point x="390" y="309"/>
			<point x="380" y="309" type="curve" smooth="yes"/>
			<point x="367" y="309"/>
			<point x="358" y="303"/>
			<point x="353" y="290" type="curve" smooth="yes"/>
			<point x="350" y="282"/>
			<point x="351" y="274"/>
			<point x="355" y="267" type="curve" smooth="yes"/>
			<point x="360" y="260"/>
			<point x="365" y="254"/>
			<point x="371" y="251" type="curve" smooth="yes"/>
			<point x="378" y="247"/>
			<point x="381" y="247"/>
			<point x="383" y="250" type="curve"/>
			<point x="380" y="243"/>
			<point x="375" y="235"/>
			<point x="368" y="225" type="curve" smooth="yes"/>
			<point x="361" y="214"/>
			<point x="349" y="209"/>
			<point x="331" y="209" type="curve" smooth="yes"/>
			<point x="317" y="209"/>
			<point x="309" y="212"/>
			<point x="308" y="218" type="curve" smooth="yes"/>
			<point x="306" y="223"/>
			<point x="309" y="233"/>
			<point x="314" y="246" type="curve"/>
			<point x="322" y="267" type="line"/>
			<point x="325" y="279"/>
			<point x="333" y="292"/>
			<point x="345" y="305" type="curve" smooth="yes"/>
			<point x="357" y="318"/>
			<point x="371" y="328"/>
			<point x="386" y="337" type="curve" smooth="yes"/>
			<point x="402" y="345"/>
			<point x="417" y="349"/>
			<point x="431" y="349" type="curve" smooth="yes"/>
			<point x="445" y="349"/>
			<point x="457" y="342"/>
			<point x="467" y="328" type="curve" smooth="yes"/>
			<point x="478" y="314"/>
			<point x="484" y="295"/>
			<point x="484" y="271" type="curve" smooth="yes"/>
			<point x="485" y="247"/>
			<point x="479" y="221"/>
			<point x="467" y="194" type="curve" smooth="yes"/>
			<point x="456" y="168"/>
			<point x="437" y="145"/>
			<point x="412" y="125" type="curve" smooth="yes"/>
			<point x="386" y="104"/>
			<point x="360" y="89"/>
			<point x="333" y="78" type="curve" smooth="yes"/>
			<point x="305" y="67"/>
			<point x="283" y="61"/>
			<point x="265" y="61" type="curve"/>
			<point x="256" y="62" type="line"/>
			<point x="234" y="66"/>
			<point x="214" y="72"/>
			<point x="198" y="79" type="curve" smooth="yes"/>
			<point x="182" y="86"/>
			<point x="171" y="101"/>
			<point x="163" y="124" type="curve" smooth="yes"/>
			<point x="156" y="147"/>
			<point x="160" y="179"/>
			<point x="175" y="222" type="curve" smooth="yes"/>
			<point x="193" y="271"/>
			<point x="216" y="315"/>
			<point x="243" y="352" type="curve" smooth="yes"/>
			<point x="270" y="389"/>
			<point x="304" y="431"/>
			<point x="346" y="476" type="curve"/>
			<point x="352" y="483"/>
			<point x="359" y="491"/>
			<point x="367" y="500" type="curve" smooth="yes"/>
			<point x="375" y="509"/>
			<point x="384" y="518"/>
			<point x="392" y="529" type="curve" smooth="yes"/>
			<point x="428" y="573" type="line" smooth="yes"/>
			<point x="458" y="610"/>
			<point x="482" y="637"/>
		</contour>
	</outline>
	<lib>
		<dict>
			<key>com.schriftgestaltung.Glyphs.lastChange</key>
			<string>2019-08-06 14:04:28 +0000</string>
			<key>public.markColor</key>
			<string>0.85,0.26,0.06,1</string>
		</dict>
	</lib>
</glyph>
