<?xml version="1.0" encoding="UTF-8"?>
<glyph name="udieresis" format="2">
	<advance width="537"/>
	<unicode hex="00FC"/>
	<note>
		udieresis
  </note>
	<outline>
		<contour>
			<point x="429" y="810" type="line"/>
			<point x="448" y="790" type="line"/>
			<point x="480" y="786" type="line"/>
			<point x="562" y="830" type="line"/>
			<point x="595" y="876" type="line"/>
			<point x="506" y="906" type="line"/>
		</contour>
		<contour>
			<point x="289" y="772" type="line"/>
			<point x="362" y="812" type="line"/>
			<point x="378" y="890" type="line"/>
			<point x="331" y="876" type="line"/>
			<point x="289" y="866" type="line"/>
			<point x="265" y="832" type="line"/>
		</contour>
		<contour>
			<point x="278" y="205" type="curve"/>
			<point x="202" y="1" type="line"/>
			<point x="289" y="0" type="line"/>
			<point x="547" y="700" type="line"/>
			<point x="434" y="631" type="line"/>
			<point x="301" y="270" type="line"/>
			<point x="260" y="221"/>
			<point x="218" y="176"/>
			<point x="174" y="136" type="curve" smooth="yes"/>
			<point x="131" y="95"/>
			<point x="97" y="75"/>
			<point x="71" y="75" type="curve" smooth="yes"/>
			<point x="60" y="75"/>
			<point x="53" y="79"/>
			<point x="50" y="86" type="curve" smooth="yes"/>
			<point x="47" y="93"/>
			<point x="48" y="103"/>
			<point x="53" y="117" type="curve" smooth="yes"/>
			<point x="58" y="130"/>
			<point x="61" y="139"/>
			<point x="62" y="142" type="curve" smooth="yes"/>
			<point x="268" y="702" type="line"/>
			<point x="155" y="633" type="line"/>
			<point x="-26" y="142" type="line" smooth="yes"/>
			<point x="-37" y="111"/>
			<point x="-44" y="85"/>
			<point x="-46" y="66" type="curve" smooth="yes"/>
			<point x="-49" y="46"/>
			<point x="-45" y="30"/>
			<point x="-36" y="19" type="curve" smooth="yes"/>
			<point x="-27" y="7"/>
			<point x="-10" y="1"/>
			<point x="16" y="0" type="curve"/>
			<point x="60" y="1"/>
			<point x="102" y="19"/>
			<point x="143" y="55" type="curve" smooth="yes"/>
			<point x="183" y="91"/>
			<point x="228" y="141"/>
		</contour>
	</outline>
	<lib>
		<dict>
			<key>com.schriftgestaltung.Glyphs.lastChange</key>
			<string>2019-08-06 14:04:23 +0000</string>
			<key>com.schriftgestaltung.Glyphs.leftMetricsKey</key>
			<string>u</string>
			<key>public.markColor</key>
			<string>0.97,0.9,0,1</string>
		</dict>
	</lib>
</glyph>
