<?xml version="1.0" encoding="UTF-8"?>
<glyph name="w" format="2">
	<advance width="650"/>
	<unicode hex="0077"/>
	<note>
		w
  </note>
	<outline>
		<contour>
			<point x="218" y="-10" type="line"/>
			<point x="311" y="-10" type="line"/>
			<point x="785" y="700" type="line"/>
			<point x="660" y="637" type="line"/>
			<point x="318" y="125" type="line"/>
			<point x="326" y="283" type="line"/>
			<point x="605" y="700" type="line"/>
			<point x="480" y="637" type="line"/>
			<point x="333" y="417" type="line"/>
			<point x="346" y="646" type="line"/>
			<point x="263" y="700" type="line"/>
			<point x="236" y="271" type="line"/>
			<point x="138" y="125" type="line"/>
			<point x="166" y="646" type="line"/>
			<point x="83" y="700" type="line"/>
			<point x="38" y="-10" type="line"/>
			<point x="131" y="-10" type="line"/>
			<point x="227" y="134" type="line"/>
		</contour>
	</outline>
	<lib>
		<dict>
			<key>com.schriftgestaltung.Glyphs.lastChange</key>
			<string>2019-08-06 14:03:54 +0000</string>
			<key>public.markColor</key>
			<string>0.97,0.9,0,1</string>
		</dict>
	</lib>
</glyph>
