<?xml version="1.0" encoding="UTF-8"?>
<glyph name="Wcircumflex" format="2">
	<advance width="600"/>
	<unicode hex="0174"/>
	<note>
		Wcircumflex
  </note>
	<outline>
		<contour>
			<point x="584" y="820" type="line"/>
			<point x="527" y="740" type="line"/>
			<point x="415" y="856" type="line"/>
			<point x="254" y="706" type="line"/>
			<point x="228" y="794" type="line"/>
			<point x="371" y="866" type="line"/>
			<point x="426" y="914" type="line"/>
			<point x="467" y="910" type="line"/>
			<point x="510" y="832" type="line"/>
		</contour>
		<contour>
			<point x="615" y="491" type="curve" smooth="yes"/>
			<point x="616" y="493"/>
			<point x="618" y="496"/>
			<point x="622" y="499" type="curve"/>
			<point x="691" y="682" type="line"/>
			<point x="626" y="580" type="line"/>
			<point x="615" y="559"/>
			<point x="601" y="544"/>
			<point x="584" y="535" type="curve" smooth="yes"/>
			<point x="568" y="525"/>
			<point x="548" y="519"/>
			<point x="526" y="516" type="curve"/>
			<point x="529" y="523"/>
			<point x="532" y="530"/>
			<point x="534" y="539" type="curve" smooth="yes"/>
			<point x="536" y="547"/>
			<point x="538" y="554"/>
			<point x="540" y="561" type="curve" smooth="yes"/>
			<point x="546" y="575"/>
			<point x="553" y="590"/>
			<point x="563" y="605" type="curve"/>
			<point x="517" y="667" type="line"/>
			<point x="434" y="655" type="line"/>
			<point x="351" y="592" type="line"/>
			<point x="332" y="438" type="line"/>
			<point x="336" y="410"/>
			<point x="354" y="393"/>
			<point x="387" y="388" type="curve"/>
			<point x="125" y="116" type="line"/>
			<point x="180" y="248" type="line"/>
			<point x="186" y="463" type="line"/>
			<point x="140" y="388" type="line"/>
			<point x="137" y="331" type="line"/>
			<point x="41" y="130" type="line"/>
			<point x="143" y="701" type="line"/>
			<point x="46" y="575" type="line"/>
			<point x="35" y="492" type="line"/>
			<point x="69" y="542" type="line"/>
			<point x="-66" y="-15" type="line"/>
			<point x="8" y="-15" type="line"/>
			<point x="107" y="196" type="line"/>
			<point x="49" y="-15" type="line"/>
			<point x="100" y="-20" type="line"/>
			<point x="386" y="321" type="line" smooth="yes"/>
			<point x="395" y="332"/>
			<point x="415" y="355"/>
			<point x="444" y="391" type="curve"/>
			<point x="473" y="397"/>
			<point x="506" y="411"/>
			<point x="543" y="433" type="curve" smooth="yes"/>
			<point x="590" y="461"/>
			<point x="614" y="478"/>
			<point x="616" y="484" type="curve" smooth="yes"/>
			<point x="617" y="485"/>
			<point x="617" y="487"/>
			<point x="616" y="488" type="curve" smooth="yes"/>
			<point x="615" y="489"/>
			<point x="615" y="490"/>
		</contour>
		<contour>
			<point x="432" y="510" type="curve" smooth="yes"/>
			<point x="420" y="509"/>
			<point x="407" y="506"/>
			<point x="395" y="502" type="curve"/>
			<point x="409" y="565" type="line"/>
			<point x="468" y="629" type="line"/>
			<point x="511" y="587" type="line"/>
			<point x="482" y="513" type="line"/>
			<point x="462" y="512"/>
			<point x="445" y="511"/>
		</contour>
	</outline>
	<lib>
		<dict>
			<key>com.schriftgestaltung.Glyphs.lastChange</key>
			<string>2019-08-06 14:04:20 +0000</string>
			<key>public.markColor</key>
			<string>0.67,0.95,0.38,1</string>
		</dict>
	</lib>
</glyph>
