<?xml version="1.0" encoding="UTF-8"?>
<glyph name="a.ss02" format="2">
	<advance width="319"/>
	<note>
		a
  </note>
	<outline>
		<contour>
			<point x="215" y="-414" type="curve"/>
			<point x="234" y="-423"/>
			<point x="227" y="-393"/>
			<point x="232" y="-381" type="curve"/>
			<point x="238" y="-365"/>
			<point x="248" y="-352"/>
			<point x="248" y="-340" type="curve"/>
			<point x="273" y="-327" type="line" smooth="yes"/>
			<point x="277" y="-325"/>
			<point x="281" y="-325"/>
			<point x="285" y="-323" type="curve"/>
			<point x="295" y="-319"/>
			<point x="292" y="-315"/>
			<point x="299" y="-311" type="curve"/>
			<point x="299" y="-290" type="line"/>
			<point x="291" y="-282"/>
			<point x="292" y="-271"/>
			<point x="289" y="-260" type="curve"/>
			<point x="287" y="-249"/>
			<point x="280" y="-230"/>
			<point x="281" y="-219" type="curve"/>
			<point x="283" y="-205"/>
			<point x="284" y="-213"/>
			<point x="281" y="-204" type="curve"/>
			<point x="281" y="-196" type="line"/>
			<point x="280" y="-181"/>
			<point x="279" y="-176"/>
			<point x="277" y="-171" type="curve"/>
			<point x="276" y="-165"/>
			<point x="279" y="-159"/>
			<point x="277" y="-153" type="curve"/>
			<point x="275" y="-126"/>
			<point x="271" y="-79"/>
			<point x="265" y="-59" type="curve"/>
			<point x="262" y="-46"/>
			<point x="263" y="-42"/>
			<point x="262" y="-30" type="curve"/>
			<point x="260" y="-25"/>
			<point x="258" y="-21"/>
			<point x="258" y="-18" type="curve"/>
			<point x="256" y="-8"/>
			<point x="262" y="0"/>
			<point x="262" y="11" type="curve"/>
			<point x="262" y="9"/>
			<point x="258" y="13"/>
			<point x="258" y="15" type="curve"/>
			<point x="252" y="33"/>
			<point x="256" y="57"/>
			<point x="258" y="73" type="curve"/>
			<point x="258" y="77"/>
			<point x="262" y="75"/>
			<point x="262" y="77" type="curve" smooth="yes"/>
			<point x="262" y="81"/>
			<point x="258" y="81"/>
			<point x="258" y="81" type="curve"/>
			<point x="256" y="86"/>
			<point x="258" y="91"/>
			<point x="258" y="98" type="curve"/>
			<point x="255" y="114"/>
			<point x="250" y="128"/>
			<point x="248" y="139" type="curve"/>
			<point x="246" y="160"/>
			<point x="247" y="172"/>
			<point x="244" y="188" type="curve" smooth="yes"/>
			<point x="243" y="193"/>
			<point x="240" y="197"/>
			<point x="240" y="200" type="curve" smooth="yes"/>
			<point x="240" y="205"/>
			<point x="244" y="204"/>
			<point x="244" y="205" type="curve"/>
			<point x="246" y="208"/>
			<point x="240" y="210"/>
			<point x="240" y="213" type="curve"/>
			<point x="240" y="210"/>
			<point x="244" y="216"/>
			<point x="244" y="217" type="curve"/>
			<point x="247" y="229"/>
			<point x="238" y="237"/>
			<point x="236" y="242" type="curve"/>
			<point x="235" y="246"/>
			<point x="239" y="249"/>
			<point x="240" y="250" type="curve" smooth="yes"/>
			<point x="244" y="254"/>
			<point x="236" y="262"/>
			<point x="236" y="262" type="curve"/>
			<point x="235" y="274"/>
			<point x="240" y="280"/>
			<point x="240" y="283" type="curve"/>
			<point x="240" y="283"/>
			<point x="236" y="283"/>
			<point x="236" y="287" type="curve"/>
			<point x="235" y="298"/>
			<point x="230" y="306"/>
			<point x="228" y="316" type="curve"/>
			<point x="224" y="341"/>
			<point x="226" y="369"/>
			<point x="224" y="394" type="curve"/>
			<point x="224" y="393"/>
			<point x="221" y="397"/>
			<point x="219" y="398" type="curve"/>
			<point x="218" y="406"/>
			<point x="223" y="410"/>
			<point x="224" y="414" type="curve"/>
			<point x="224" y="419"/>
			<point x="221" y="419"/>
			<point x="219" y="423" type="curve"/>
			<point x="219" y="430"/>
			<point x="221" y="437"/>
			<point x="219" y="443" type="curve"/>
			<point x="218" y="458"/>
			<point x="214" y="458"/>
			<point x="219" y="464" type="curve"/>
			<point x="222" y="466"/>
			<point x="214" y="472"/>
			<point x="215" y="476" type="curve"/>
			<point x="215" y="475"/>
			<point x="221" y="481"/>
			<point x="219" y="480" type="curve"/>
			<point x="223" y="484"/>
			<point x="224" y="484"/>
			<point x="219" y="489" type="curve"/>
			<point x="210" y="499"/>
			<point x="230" y="519"/>
			<point x="228" y="521" type="curve"/>
			<point x="232" y="540"/>
			<point x="210" y="530"/>
			<point x="215" y="550" type="curve"/>
			<point x="227" y="548"/>
			<point x="213" y="570"/>
			<point x="224" y="567" type="curve"/>
			<point x="223" y="587"/>
			<point x="224" y="607"/>
			<point x="224" y="624" type="curve"/>
			<point x="222" y="653"/>
			<point x="222" y="668"/>
			<point x="228" y="690" type="curve"/>
			<point x="232" y="690" type="line"/>
			<point x="234" y="693"/>
			<point x="231" y="704"/>
			<point x="232" y="708" type="curve"/>
			<point x="234" y="714"/>
			<point x="239" y="718"/>
			<point x="240" y="723" type="curve" smooth="yes"/>
			<point x="242" y="733"/>
			<point x="240" y="743"/>
			<point x="240" y="753" type="curve" smooth="yes"/>
			<point x="240" y="764"/>
			<point x="244" y="770"/>
			<point x="244" y="772" type="curve" smooth="yes"/>
			<point x="244" y="776"/>
			<point x="240" y="776"/>
			<point x="240" y="778" type="curve"/>
			<point x="239" y="787"/>
			<point x="239" y="795"/>
			<point x="236" y="802" type="curve"/>
			<point x="234" y="809"/>
			<point x="230" y="819"/>
			<point x="224" y="823" type="curve"/>
			<point x="222" y="824"/>
			<point x="209" y="827"/>
			<point x="207" y="827" type="curve"/>
			<point x="190" y="831"/>
			<point x="190" y="827"/>
			<point x="178" y="827" type="curve" smooth="yes"/>
			<point x="170" y="827"/>
			<point x="174" y="819"/>
			<point x="170" y="815" type="curve"/>
			<point x="169" y="813"/>
			<point x="164" y="816"/>
			<point x="162" y="815" type="curve"/>
			<point x="161" y="813"/>
			<point x="164" y="808"/>
			<point x="162" y="805" type="curve"/>
			<point x="162" y="805"/>
			<point x="158" y="807"/>
			<point x="158" y="805" type="curve"/>
			<point x="157" y="805"/>
			<point x="154" y="794"/>
			<point x="154" y="794" type="curve"/>
			<point x="144" y="751"/>
			<point x="153" y="697"/>
			<point x="137" y="661" type="curve"/>
			<point x="142" y="649"/>
			<point x="141" y="632"/>
			<point x="145" y="620" type="curve"/>
			<point x="141" y="620"/>
			<point x="141" y="618"/>
			<point x="141" y="612" type="curve" smooth="yes"/>
			<point x="141" y="608"/>
			<point x="139" y="610"/>
			<point x="137" y="608" type="curve"/>
			<point x="127" y="585"/>
			<point x="133" y="538"/>
			<point x="129" y="517" type="curve"/>
			<point x="125" y="501"/>
			<point x="119" y="470"/>
			<point x="117" y="460" type="curve"/>
			<point x="116" y="458"/>
			<point x="117" y="454"/>
			<point x="117" y="451" type="curve"/>
			<point x="115" y="425"/>
			<point x="108" y="407"/>
			<point x="104" y="386" type="curve"/>
			<point x="103" y="377"/>
			<point x="105" y="365"/>
			<point x="104" y="357" type="curve"/>
			<point x="104" y="357"/>
			<point x="101" y="356"/>
			<point x="100" y="353" type="curve"/>
			<point x="100" y="351"/>
			<point x="101" y="347"/>
			<point x="100" y="344" type="curve"/>
			<point x="88" y="279" type="line"/>
			<point x="76" y="225"/>
			<point x="55" y="160"/>
			<point x="47" y="114" type="curve"/>
			<point x="33" y="110"/>
			<point x="29" y="94"/>
			<point x="18" y="85" type="curve"/>
			<point x="16" y="74"/>
			<point x="30" y="60"/>
			<point x="18" y="52" type="curve"/>
			<point x="23" y="34"/>
			<point x="8" y="32"/>
			<point x="5" y="28" type="curve"/>
			<point x="4" y="24"/>
			<point x="8" y="15"/>
			<point x="1" y="15" type="curve"/>
			<point x="-2" y="-9"/>
			<point x="5" y="-18"/>
			<point x="10" y="-30" type="curve"/>
			<point x="23" y="-32"/>
			<point x="33" y="-29"/>
			<point x="43" y="-26" type="curve"/>
			<point x="62" y="-8"/>
			<point x="68" y="23"/>
			<point x="80" y="48" type="curve"/>
			<point x="94" y="50"/>
			<point x="108" y="54"/>
			<point x="125" y="56" type="curve" smooth="yes"/>
			<point x="144" y="58"/>
			<point x="164" y="56"/>
			<point x="182" y="56" type="curve"/>
			<point x="190" y="32"/>
			<point x="169" y="1"/>
			<point x="166" y="-26" type="curve"/>
			<point x="181" y="-28"/>
			<point x="180" y="-9"/>
			<point x="182" y="-1" type="curve"/>
			<point x="183" y="0"/>
			<point x="186" y="0"/>
			<point x="187" y="3" type="curve"/>
			<point x="187" y="7" type="line" smooth="yes"/>
			<point x="187" y="11"/>
			<point x="190" y="9"/>
			<point x="191" y="11" type="curve"/>
			<point x="194" y="19"/>
			<point x="189" y="27"/>
			<point x="195" y="32" type="curve"/>
			<point x="191" y="45"/>
			<point x="209" y="37"/>
			<point x="211" y="44" type="curve"/>
			<point x="226" y="45"/>
			<point x="219" y="24"/>
			<point x="219" y="19" type="curve"/>
			<point x="221" y="8"/>
			<point x="219" y="-4"/>
			<point x="219" y="-14" type="curve"/>
			<point x="221" y="-18"/>
			<point x="224" y="-24"/>
			<point x="224" y="-26" type="curve" smooth="yes"/>
			<point x="224" y="-32"/>
			<point x="219" y="-32"/>
			<point x="219" y="-38" type="curve"/>
			<point x="224" y="-42" type="line"/>
			<point x="227" y="-54"/>
			<point x="227" y="-59"/>
			<point x="228" y="-67" type="curve" smooth="yes"/>
			<point x="231" y="-100"/>
			<point x="224" y="-133"/>
			<point x="236" y="-167" type="curve"/>
			<point x="222" y="-182"/>
			<point x="228" y="-221"/>
			<point x="219" y="-227" type="curve"/>
			<point x="219" y="-229"/>
			<point x="221" y="-235"/>
			<point x="219" y="-237" type="curve"/>
			<point x="219" y="-237"/>
			<point x="217" y="-235"/>
			<point x="215" y="-237" type="curve"/>
			<point x="215" y="-237"/>
			<point x="211" y="-260"/>
			<point x="211" y="-256" type="curve"/>
			<point x="211" y="-260"/>
			<point x="207" y="-259"/>
			<point x="207" y="-260" type="curve"/>
			<point x="206" y="-268"/>
			<point x="205" y="-274"/>
			<point x="203" y="-282" type="curve"/>
			<point x="202" y="-290"/>
			<point x="198" y="-297"/>
			<point x="199" y="-307" type="curve"/>
			<point x="189" y="-316"/>
			<point x="202" y="-319"/>
			<point x="203" y="-323" type="curve"/>
			<point x="207" y="-331"/>
			<point x="210" y="-336"/>
			<point x="211" y="-348" type="curve"/>
			<point x="213" y="-358"/>
			<point x="209" y="-368"/>
			<point x="207" y="-381" type="curve"/>
			<point x="207" y="-393"/>
			<point x="203" y="-417"/>
		</contour>
		<contour>
			<point x="92" y="114" type="curve"/>
			<point x="91" y="144"/>
			<point x="103" y="175"/>
			<point x="112" y="200" type="curve"/>
			<point x="113" y="202"/>
			<point x="112" y="208"/>
			<point x="112" y="209" type="curve"/>
			<point x="120" y="214"/>
			<point x="117" y="251"/>
			<point x="121" y="266" type="curve" smooth="yes"/>
			<point x="127" y="288"/>
			<point x="132" y="327"/>
			<point x="137" y="353" type="curve"/>
			<point x="139" y="357"/>
			<point x="140" y="362"/>
			<point x="141" y="369" type="curve"/>
			<point x="141" y="377" type="line" smooth="yes"/>
			<point x="141" y="378"/>
			<point x="145" y="377"/>
			<point x="145" y="377" type="curve"/>
			<point x="146" y="381"/>
			<point x="141" y="382"/>
			<point x="141" y="382" type="curve"/>
			<point x="142" y="386"/>
			<point x="145" y="392"/>
			<point x="145" y="398" type="curve"/>
			<point x="146" y="402"/>
			<point x="145" y="407"/>
			<point x="145" y="410" type="curve"/>
			<point x="149" y="419"/>
			<point x="154" y="451"/>
			<point x="158" y="468" type="curve" smooth="yes"/>
			<point x="164" y="491"/>
			<point x="162" y="524"/>
			<point x="166" y="554" type="curve"/>
			<point x="166" y="554"/>
			<point x="170" y="556"/>
			<point x="170" y="558" type="curve" smooth="yes"/>
			<point x="170" y="571" type="line"/>
			<point x="173" y="585"/>
			<point x="177" y="606"/>
			<point x="174" y="628" type="curve"/>
			<point x="178" y="632"/>
			<point x="181" y="636"/>
			<point x="182" y="641" type="curve"/>
			<point x="194" y="634"/>
			<point x="182" y="587"/>
			<point x="187" y="567" type="curve"/>
			<point x="189" y="561"/>
			<point x="190" y="540"/>
			<point x="191" y="521" type="curve"/>
			<point x="191" y="513"/>
			<point x="195" y="511"/>
			<point x="195" y="505" type="curve" smooth="yes"/>
			<point x="195" y="501"/>
			<point x="190" y="499"/>
			<point x="191" y="493" type="curve"/>
			<point x="191" y="483"/>
			<point x="199" y="478"/>
			<point x="195" y="464" type="curve"/>
			<point x="193" y="458"/>
			<point x="194" y="459"/>
			<point x="195" y="443" type="curve"/>
			<point x="195" y="442"/>
			<point x="191" y="414"/>
			<point x="195" y="410" type="curve" smooth="yes"/>
			<point x="199" y="406"/>
			<point x="195" y="407"/>
			<point x="195" y="398" type="curve" smooth="yes"/>
			<point x="195" y="390"/>
			<point x="190" y="357"/>
			<point x="195" y="353" type="curve"/>
			<point x="199" y="353" type="line"/>
			<point x="199" y="349"/>
			<point x="195" y="348"/>
			<point x="195" y="349" type="curve"/>
			<point x="197" y="339"/>
			<point x="202" y="324"/>
			<point x="203" y="307" type="curve"/>
			<point x="203" y="303"/>
			<point x="199" y="306"/>
			<point x="199" y="303" type="curve"/>
			<point x="203" y="291" type="line" smooth="yes"/>
			<point x="206" y="282"/>
			<point x="205" y="288"/>
			<point x="203" y="275" type="curve"/>
			<point x="203" y="266" type="line" smooth="yes"/>
			<point x="203" y="265"/>
			<point x="207" y="262"/>
			<point x="207" y="262" type="curve"/>
			<point x="209" y="250"/>
			<point x="206" y="237"/>
			<point x="207" y="225" type="curve"/>
			<point x="210" y="200"/>
			<point x="217" y="169"/>
			<point x="211" y="139" type="curve"/>
			<point x="205" y="130"/>
			<point x="194" y="130"/>
			<point x="182" y="126" type="curve"/>
			<point x="182" y="126"/>
			<point x="182" y="122"/>
			<point x="178" y="122" type="curve" smooth="yes"/>
			<point x="172" y="122"/>
			<point x="164" y="123"/>
			<point x="158" y="122" type="curve"/>
			<point x="146" y="119"/>
			<point x="107" y="106"/>
		</contour>
	</outline>
	<lib>
		<dict>
			<key>com.schriftgestaltung.Glyphs.lastChange</key>
			<string>2019-04-20 17:05:34 +0000</string>
			<key>public.markColor</key>
			<string>0.67,0.95,0.38,1</string>
		</dict>
	</lib>
</glyph>
