<?xml version="1.0" encoding="UTF-8"?>
<glyph name="d.ss01" format="2">
	<advance width="758"/>
	<note>
		d
  </note>
	<outline>
		<contour>
			<point x="32" y="-310" type="line"/>
			<point x="37" y="-310" type="line"/>
			<point x="35" y="-296"/>
			<point x="49" y="-292"/>
			<point x="50" y="-305" type="curve"/>
			<point x="60" y="-302"/>
			<point x="67" y="-297"/>
			<point x="74" y="-291" type="curve"/>
			<point x="80" y="-287"/>
			<point x="85" y="-275"/>
			<point x="97" y="-278" type="curve"/>
			<point x="93" y="-266"/>
			<point x="86" y="-259"/>
			<point x="82" y="-246" type="curve"/>
			<point x="94" y="-241"/>
			<point x="85" y="-233"/>
			<point x="82" y="-223" type="curve"/>
			<point x="81" y="-215"/>
			<point x="85" y="-203"/>
			<point x="82" y="-195" type="curve"/>
			<point x="81" y="-181"/>
			<point x="75" y="-171"/>
			<point x="78" y="-149" type="curve" smooth="yes"/>
			<point x="79" y="-143"/>
			<point x="82" y="-140"/>
			<point x="82" y="-136" type="curve"/>
			<point x="81" y="-124"/>
			<point x="72" y="-127"/>
			<point x="74" y="-117" type="curve"/>
			<point x="92" y="-117" type="line"/>
			<point x="89" y="-108"/>
			<point x="74" y="-112"/>
			<point x="78" y="-98" type="curve"/>
			<point x="86" y="-92"/>
			<point x="85" y="-74"/>
			<point x="92" y="-66" type="curve"/>
			<point x="89" y="-55"/>
			<point x="87" y="-50"/>
			<point x="87" y="-43" type="curve"/>
			<point x="88" y="-35"/>
			<point x="88" y="-38"/>
			<point x="92" y="-34" type="curve"/>
			<point x="93" y="-31"/>
			<point x="97" y="-35"/>
			<point x="97" y="-30" type="curve" smooth="yes"/>
			<point x="97" y="-23"/>
			<point x="100" y="-12"/>
			<point x="101" y="-2" type="curve"/>
			<point x="117" y="-6"/>
			<point x="107" y="13"/>
			<point x="119" y="12" type="curve"/>
			<point x="123" y="18"/>
			<point x="125" y="24"/>
			<point x="124" y="34" type="curve"/>
			<point x="137" y="15"/>
			<point x="165" y="36"/>
			<point x="184" y="34" type="curve"/>
			<point x="193" y="34"/>
			<point x="199" y="28"/>
			<point x="207" y="26" type="curve"/>
			<point x="209" y="25"/>
			<point x="228" y="40"/>
			<point x="225" y="21" type="curve"/>
			<point x="240" y="21"/>
			<point x="236" y="39"/>
			<point x="257" y="34" type="curve"/>
			<point x="272" y="39"/>
			<point x="263" y="20"/>
			<point x="272" y="18" type="curve"/>
			<point x="278" y="19"/>
			<point x="281" y="22"/>
			<point x="280" y="31" type="curve"/>
			<point x="287" y="32"/>
			<point x="292" y="22"/>
			<point x="294" y="31" type="curve"/>
			<point x="302" y="28"/>
			<point x="293" y="26"/>
			<point x="294" y="21" type="curve"/>
			<point x="300" y="22"/>
			<point x="303" y="20"/>
			<point x="304" y="18" type="curve"/>
			<point x="315" y="20"/>
			<point x="323" y="21"/>
			<point x="330" y="12" type="curve"/>
			<point x="337" y="14"/>
			<point x="347" y="20"/>
			<point x="354" y="21" type="curve"/>
			<point x="358" y="21"/>
			<point x="359" y="18"/>
			<point x="362" y="18" type="curve" smooth="yes"/>
			<point x="367" y="18"/>
			<point x="368" y="21"/>
			<point x="372" y="21" type="curve" smooth="yes"/>
			<point x="380" y="21"/>
			<point x="380" y="18"/>
			<point x="386" y="18" type="curve"/>
			<point x="392" y="15"/>
			<point x="399" y="18"/>
			<point x="404" y="18" type="curve"/>
			<point x="410" y="15"/>
			<point x="408" y="21"/>
			<point x="410" y="21" type="curve"/>
			<point x="414" y="22"/>
			<point x="419" y="13"/>
			<point x="427" y="12" type="curve"/>
			<point x="437" y="12"/>
			<point x="441" y="20"/>
			<point x="455" y="18" type="curve"/>
			<point x="457" y="12"/>
			<point x="459" y="14"/>
			<point x="459" y="18" type="curve"/>
			<point x="467" y="15"/>
			<point x="470" y="9"/>
			<point x="468" y="-2" type="curve"/>
			<point x="480" y="7"/>
			<point x="497" y="10"/>
			<point x="510" y="18" type="curve"/>
			<point x="510" y="-12"/>
			<point x="533" y="9"/>
			<point x="548" y="-6" type="curve"/>
			<point x="563" y="-11"/>
			<point x="553" y="9"/>
			<point x="565" y="8" type="curve"/>
			<point x="582" y="12"/>
			<point x="584" y="1"/>
			<point x="597" y="2" type="curve" smooth="yes"/>
			<point x="610" y="3"/>
			<point x="619" y="14"/>
			<point x="629" y="18" type="curve"/>
			<point x="639" y="19"/>
			<point x="642" y="15"/>
			<point x="653" y="21" type="curve"/>
			<point x="664" y="26"/>
			<point x="676" y="36"/>
			<point x="685" y="44" type="curve"/>
			<point x="695" y="52"/>
			<point x="707" y="58"/>
			<point x="713" y="66" type="curve"/>
			<point x="714" y="69"/>
			<point x="711" y="75"/>
			<point x="713" y="76" type="curve"/>
			<point x="714" y="77"/>
			<point x="716" y="76"/>
			<point x="719" y="76" type="curve"/>
			<point x="719" y="78"/>
			<point x="716" y="84"/>
			<point x="719" y="86" type="curve"/>
			<point x="719" y="87"/>
			<point x="722" y="86"/>
			<point x="722" y="86" type="curve"/>
			<point x="723" y="87"/>
			<point x="721" y="94"/>
			<point x="722" y="95" type="curve"/>
			<point x="727" y="95" type="line"/>
			<point x="727" y="96"/>
			<point x="726" y="102"/>
			<point x="727" y="105" type="curve"/>
			<point x="733" y="108"/>
			<point x="728" y="114"/>
			<point x="732" y="123" type="curve"/>
			<point x="733" y="130"/>
			<point x="734" y="140"/>
			<point x="735" y="159" type="curve"/>
			<point x="738" y="177"/>
			<point x="739" y="205"/>
			<point x="735" y="237" type="curve"/>
			<point x="734" y="250"/>
			<point x="730" y="267"/>
			<point x="727" y="279" type="curve" smooth="yes"/>
			<point x="722" y="300"/>
			<point x="720" y="319"/>
			<point x="709" y="335" type="curve"/>
			<point x="706" y="336"/>
			<point x="701" y="336"/>
			<point x="700" y="338" type="curve"/>
			<point x="698" y="340"/>
			<point x="701" y="347"/>
			<point x="700" y="348" type="curve"/>
			<point x="685" y="358"/>
			<point x="689" y="395"/>
			<point x="671" y="407" type="curve"/>
			<point x="672" y="413"/>
			<point x="658" y="423"/>
			<point x="658" y="412" type="curve"/>
			<point x="647" y="413"/>
			<point x="658" y="430"/>
			<point x="661" y="431" type="curve"/>
			<point x="661" y="441"/>
			<point x="641" y="432"/>
			<point x="639" y="441" type="curve"/>
			<point x="641" y="454"/>
			<point x="626" y="450"/>
			<point x="629" y="467" type="curve"/>
			<point x="617" y="470"/>
			<point x="616" y="481"/>
			<point x="603" y="481" type="curve"/>
			<point x="601" y="493"/>
			<point x="598" y="505"/>
			<point x="584" y="505" type="curve"/>
			<point x="586" y="507"/>
			<point x="590" y="512"/>
			<point x="590" y="518" type="curve"/>
			<point x="588" y="525"/>
			<point x="573" y="524"/>
			<point x="580" y="541" type="curve"/>
			<point x="574" y="540"/>
			<point x="576" y="531"/>
			<point x="571" y="531" type="curve"/>
			<point x="561" y="540"/>
			<point x="558" y="542"/>
			<point x="542" y="537" type="curve"/>
			<point x="549" y="549"/>
			<point x="534" y="547"/>
			<point x="529" y="550" type="curve"/>
			<point x="526" y="553"/>
			<point x="523" y="561"/>
			<point x="520" y="563" type="curve"/>
			<point x="511" y="571"/>
			<point x="495" y="568"/>
			<point x="491" y="586" type="curve"/>
			<point x="487" y="591"/>
			<point x="477" y="588"/>
			<point x="474" y="592" type="curve"/>
			<point x="473" y="592"/>
			<point x="474" y="596"/>
			<point x="474" y="596" type="curve"/>
			<point x="472" y="598"/>
			<point x="466" y="594"/>
			<point x="465" y="596" type="curve"/>
			<point x="458" y="604"/>
			<point x="454" y="604"/>
			<point x="442" y="615" type="curve"/>
			<point x="437" y="618"/>
			<point x="431" y="618"/>
			<point x="433" y="628" type="curve"/>
			<point x="426" y="629"/>
			<point x="419" y="629"/>
			<point x="418" y="624" type="curve"/>
			<point x="409" y="625"/>
			<point x="410" y="636"/>
			<point x="404" y="643" type="curve"/>
			<point x="400" y="643"/>
			<point x="395" y="642"/>
			<point x="391" y="643" type="curve"/>
			<point x="387" y="643"/>
			<point x="389" y="647"/>
			<point x="386" y="647" type="curve"/>
			<point x="379" y="649"/>
			<point x="368" y="653"/>
			<point x="359" y="656" type="curve"/>
			<point x="355" y="658"/>
			<point x="348" y="661"/>
			<point x="346" y="669" type="curve"/>
			<point x="332" y="663"/>
			<point x="322" y="684"/>
			<point x="317" y="669" type="curve"/>
			<point x="306" y="668"/>
			<point x="312" y="684"/>
			<point x="304" y="684" type="curve"/>
			<point x="282" y="681"/>
			<point x="278" y="691"/>
			<point x="262" y="684" type="curve"/>
			<point x="259" y="692"/>
			<point x="249" y="687"/>
			<point x="257" y="698" type="curve"/>
			<point x="238" y="681"/>
			<point x="207" y="696"/>
			<point x="179" y="692" type="curve"/>
			<point x="178" y="692"/>
			<point x="172" y="693"/>
			<point x="169" y="692" type="curve"/>
			<point x="169" y="692"/>
			<point x="172" y="688"/>
			<point x="169" y="688" type="curve"/>
			<point x="168" y="687"/>
			<point x="162" y="690"/>
			<point x="161" y="688" type="curve"/>
			<point x="161" y="688"/>
			<point x="162" y="685"/>
			<point x="161" y="684" type="curve"/>
			<point x="144" y="679"/>
			<point x="129" y="684"/>
			<point x="115" y="675" type="curve"/>
			<point x="112" y="674"/>
			<point x="111" y="671"/>
			<point x="110" y="669" type="curve"/>
			<point x="107" y="668"/>
			<point x="100" y="668"/>
			<point x="97" y="666" type="curve"/>
			<point x="94" y="665"/>
			<point x="93" y="656"/>
			<point x="92" y="656" type="curve"/>
			<point x="87" y="654"/>
			<point x="79" y="654"/>
			<point x="74" y="647" type="curve"/>
			<point x="70" y="643"/>
			<point x="70" y="636"/>
			<point x="69" y="634" type="curve"/>
			<point x="66" y="624"/>
			<point x="64" y="615"/>
			<point x="69" y="601" type="curve" smooth="yes"/>
			<point x="70" y="598"/>
			<point x="70" y="592"/>
			<point x="74" y="586" type="curve"/>
			<point x="75" y="584"/>
			<point x="81" y="588"/>
			<point x="82" y="582" type="curve"/>
			<point x="85" y="574"/>
			<point x="85" y="569"/>
			<point x="92" y="563" type="curve"/>
			<point x="107" y="562"/>
			<point x="117" y="575"/>
			<point x="124" y="582" type="curve"/>
			<point x="132" y="591"/>
			<point x="141" y="600"/>
			<point x="147" y="611" type="curve"/>
			<point x="154" y="616"/>
			<point x="160" y="616"/>
			<point x="166" y="611" type="curve"/>
			<point x="165" y="627"/>
			<point x="184" y="623"/>
			<point x="184" y="637" type="curve"/>
			<point x="194" y="624"/>
			<point x="204" y="643"/>
			<point x="216" y="643" type="curve"/>
			<point x="215" y="643"/>
			<point x="219" y="637"/>
			<point x="221" y="637" type="curve"/>
			<point x="226" y="636"/>
			<point x="247" y="643"/>
			<point x="248" y="628" type="curve"/>
			<point x="260" y="637"/>
			<point x="268" y="622"/>
			<point x="275" y="634" type="curve"/>
			<point x="282" y="632"/>
			<point x="280" y="622"/>
			<point x="280" y="615" type="curve"/>
			<point x="303" y="617"/>
			<point x="311" y="605"/>
			<point x="327" y="615" type="curve"/>
			<point x="328" y="594"/>
			<point x="352" y="598"/>
			<point x="372" y="596" type="curve"/>
			<point x="372" y="582"/>
			<point x="349" y="592"/>
			<point x="349" y="579" type="curve"/>
			<point x="360" y="581"/>
			<point x="379" y="584"/>
			<point x="391" y="582" type="curve"/>
			<point x="391" y="582"/>
			<point x="392" y="579"/>
			<point x="395" y="579" type="curve" smooth="yes"/>
			<point x="399" y="579"/>
			<point x="400" y="579"/>
			<point x="400" y="582" type="curve"/>
			<point x="414" y="569" type="line"/>
			<point x="418" y="566"/>
			<point x="422" y="561"/>
			<point x="423" y="555" type="curve"/>
			<point x="436" y="559"/>
			<point x="433" y="559"/>
			<point x="446" y="555" type="curve"/>
			<point x="447" y="540"/>
			<point x="426" y="548"/>
			<point x="418" y="541" type="curve"/>
			<point x="421" y="530"/>
			<point x="443" y="541"/>
			<point x="446" y="531" type="curve"/>
			<point x="455" y="532"/>
			<point x="448" y="548"/>
			<point x="459" y="545" type="curve"/>
			<point x="480" y="545"/>
			<point x="450" y="536"/>
			<point x="459" y="518" type="curve"/>
			<point x="477" y="512"/>
			<point x="468" y="530"/>
			<point x="484" y="528" type="curve"/>
			<point x="480" y="524"/>
			<point x="478" y="519"/>
			<point x="478" y="513" type="curve"/>
			<point x="502" y="524"/>
			<point x="501" y="505"/>
			<point x="523" y="505" type="curve"/>
			<point x="522" y="494"/>
			<point x="533" y="498"/>
			<point x="533" y="491" type="curve"/>
			<point x="534" y="485"/>
			<point x="541" y="484"/>
			<point x="548" y="476" type="curve" smooth="yes"/>
			<point x="554" y="469"/>
			<point x="565" y="463"/>
			<point x="565" y="449" type="curve"/>
			<point x="571" y="445"/>
			<point x="578" y="443"/>
			<point x="590" y="444" type="curve"/>
			<point x="592" y="441"/>
			<point x="593" y="434"/>
			<point x="593" y="426" type="curve"/>
			<point x="614" y="432"/>
			<point x="605" y="411"/>
			<point x="621" y="412" type="curve"/>
			<point x="620" y="401"/>
			<point x="628" y="399"/>
			<point x="626" y="385" type="curve"/>
			<point x="627" y="379"/>
			<point x="634" y="380"/>
			<point x="639" y="380" type="curve"/>
			<point x="636" y="366"/>
			<point x="636" y="370"/>
			<point x="639" y="357" type="curve"/>
			<point x="640" y="345"/>
			<point x="647" y="363"/>
			<point x="658" y="357" type="curve"/>
			<point x="646" y="347"/>
			<point x="651" y="337"/>
			<point x="653" y="320" type="curve"/>
			<point x="650" y="308"/>
			<point x="663" y="312"/>
			<point x="667" y="306" type="curve"/>
			<point x="664" y="294"/>
			<point x="663" y="288"/>
			<point x="667" y="274" type="curve" smooth="yes"/>
			<point x="669" y="267"/>
			<point x="676" y="258"/>
			<point x="677" y="251" type="curve" smooth="yes"/>
			<point x="678" y="244"/>
			<point x="676" y="236"/>
			<point x="677" y="229" type="curve"/>
			<point x="678" y="215"/>
			<point x="683" y="206"/>
			<point x="681" y="182" type="curve"/>
			<point x="681" y="175"/>
			<point x="677" y="168"/>
			<point x="677" y="159" type="curve"/>
			<point x="673" y="142"/>
			<point x="678" y="137"/>
			<point x="671" y="127" type="curve"/>
			<point x="666" y="119"/>
			<point x="659" y="96"/>
			<point x="648" y="86" type="curve"/>
			<point x="634" y="84"/>
			<point x="628" y="72"/>
			<point x="607" y="76" type="curve"/>
			<point x="604" y="66"/>
			<point x="588" y="71"/>
			<point x="580" y="63" type="curve"/>
			<point x="571" y="53"/>
			<point x="576" y="64"/>
			<point x="561" y="63" type="curve"/>
			<point x="558" y="63"/>
			<point x="558" y="58"/>
			<point x="552" y="58" type="curve"/>
			<point x="548" y="57"/>
			<point x="515" y="55"/>
			<point x="510" y="58" type="curve"/>
			<point x="506" y="64"/>
			<point x="509" y="57"/>
			<point x="501" y="58" type="curve"/>
			<point x="479" y="59"/>
			<point x="459" y="75"/>
			<point x="433" y="63" type="curve"/>
			<point x="418" y="63"/>
			<point x="414" y="72"/>
			<point x="404" y="76" type="curve"/>
			<point x="393" y="75"/>
			<point x="389" y="71"/>
			<point x="378" y="72" type="curve"/>
			<point x="368" y="72"/>
			<point x="362" y="80"/>
			<point x="354" y="82" type="curve"/>
			<point x="334" y="84"/>
			<point x="300" y="76"/>
			<point x="285" y="90" type="curve"/>
			<point x="286" y="89"/>
			<point x="278" y="95"/>
			<point x="280" y="95" type="curve"/>
			<point x="272" y="95"/>
			<point x="274" y="84"/>
			<point x="257" y="86" type="curve" smooth="yes"/>
			<point x="248" y="87"/>
			<point x="241" y="94"/>
			<point x="230" y="95" type="curve"/>
			<point x="216" y="97"/>
			<point x="194" y="93"/>
			<point x="175" y="95" type="curve" smooth="yes"/>
			<point x="161" y="96"/>
			<point x="160" y="99"/>
			<point x="137" y="95" type="curve" smooth="yes"/>
			<point x="126" y="93"/>
			<point x="111" y="93"/>
			<point x="106" y="82" type="curve"/>
			<point x="93" y="87"/>
			<point x="88" y="84"/>
			<point x="78" y="82" type="curve"/>
			<point x="66" y="83"/>
			<point x="75" y="63"/>
			<point x="60" y="66" type="curve"/>
			<point x="57" y="59"/>
			<point x="51" y="56"/>
			<point x="45" y="53" type="curve"/>
			<point x="45" y="36"/>
			<point x="31" y="32"/>
			<point x="32" y="12" type="curve"/>
			<point x="25" y="13"/>
			<point x="24" y="8"/>
			<point x="18" y="8" type="curve"/>
			<point x="17" y="-18"/>
			<point x="16" y="-43"/>
			<point x="5" y="-56" type="curve"/>
			<point x="14" y="-63"/>
			<point x="5" y="-73"/>
			<point x="5" y="-79" type="curve" smooth="yes"/>
			<point x="5" y="-85"/>
			<point x="10" y="-84"/>
			<point x="10" y="-85" type="curve" smooth="yes"/>
			<point x="10" y="-100"/>
			<point x="6" y="-97"/>
			<point x="10" y="-108" type="curve"/>
			<point x="10" y="-117" type="line" smooth="yes"/>
			<point x="10" y="-133"/>
			<point x="6" y="-129"/>
			<point x="10" y="-140" type="curve"/>
			<point x="11" y="-148"/>
			<point x="1" y="-150"/>
			<point x="5" y="-159" type="curve"/>
			<point x="5" y="-160"/>
			<point x="11" y="-159"/>
			<point x="10" y="-162" type="curve"/>
			<point x="10" y="-161"/>
			<point x="4" y="-168"/>
			<point x="5" y="-168" type="curve"/>
			<point x="2" y="-169"/>
			<point x="5" y="-173"/>
			<point x="0" y="-172" type="curve"/>
			<point x="2" y="-179"/>
			<point x="6" y="-183"/>
			<point x="13" y="-185" type="curve"/>
			<point x="5" y="-190"/>
			<point x="14" y="-212"/>
			<point x="5" y="-214" type="curve"/>
			<point x="5" y="-218"/>
			<point x="10" y="-216"/>
			<point x="10" y="-214" type="curve"/>
			<point x="13" y="-215"/>
			<point x="13" y="-217"/>
			<point x="18" y="-217" type="curve"/>
			<point x="13" y="-234"/>
			<point x="12" y="-251"/>
			<point x="0" y="-259" type="curve"/>
			<point x="5" y="-265"/>
			<point x="5" y="-275"/>
			<point x="5" y="-287" type="curve"/>
			<point x="2" y="-302"/>
			<point x="16" y="-290"/>
			<point x="18" y="-291" type="curve"/>
			<point x="23" y="-293"/>
			<point x="20" y="-308"/>
			<point x="32" y="-305" type="curve"/>
		</contour>
		<contour>
			<point x="156" y="219" type="curve"/>
			<point x="163" y="220"/>
			<point x="160" y="229"/>
			<point x="156" y="233" type="curve"/>
			<point x="169" y="233"/>
			<point x="174" y="243"/>
			<point x="184" y="246" type="curve"/>
			<point x="185" y="271"/>
			<point x="193" y="295"/>
			<point x="193" y="320" type="curve" smooth="yes"/>
			<point x="193" y="331"/>
			<point x="187" y="338"/>
			<point x="188" y="348" type="curve"/>
			<point x="188" y="349"/>
			<point x="193" y="358"/>
			<point x="193" y="357" type="curve"/>
			<point x="192" y="367"/>
			<point x="184" y="373"/>
			<point x="184" y="380" type="curve"/>
			<point x="199" y="383"/>
			<point x="188" y="395"/>
			<point x="188" y="399" type="curve" smooth="yes"/>
			<point x="188" y="400"/>
			<point x="193" y="406"/>
			<point x="193" y="403" type="curve"/>
			<point x="192" y="413"/>
			<point x="187" y="413"/>
			<point x="184" y="422" type="curve"/>
			<point x="185" y="429"/>
			<point x="192" y="430"/>
			<point x="193" y="435" type="curve"/>
			<point x="175" y="438"/>
			<point x="197" y="526"/>
			<point x="179" y="528" type="curve"/>
			<point x="167" y="528"/>
			<point x="180" y="555"/>
			<point x="166" y="555" type="curve"/>
			<point x="156" y="556"/>
			<point x="151" y="575"/>
			<point x="147" y="563" type="curve"/>
			<point x="150" y="563"/>
			<point x="153" y="563"/>
			<point x="151" y="560" type="curve"/>
			<point x="134" y="571"/>
			<point x="135" y="555"/>
			<point x="115" y="555" type="curve"/>
			<point x="108" y="542"/>
			<point x="112" y="531"/>
			<point x="110" y="518" type="curve"/>
			<point x="110" y="510"/>
			<point x="103" y="510"/>
			<point x="110" y="505" type="curve"/>
			<point x="111" y="504"/>
			<point x="110" y="497"/>
			<point x="110" y="495" type="curve"/>
			<point x="111" y="494"/>
			<point x="113" y="495"/>
			<point x="115" y="495" type="curve"/>
			<point x="119" y="492"/>
			<point x="115" y="470"/>
			<point x="115" y="467" type="curve"/>
			<point x="117" y="455"/>
			<point x="123" y="443"/>
			<point x="124" y="435" type="curve"/>
			<point x="124" y="430"/>
			<point x="118" y="429"/>
			<point x="119" y="422" type="curve"/>
			<point x="125" y="419"/>
			<point x="129" y="411"/>
			<point x="129" y="403" type="curve"/>
			<point x="123" y="403"/>
			<point x="125" y="398"/>
			<point x="124" y="394" type="curve"/>
			<point x="122" y="389"/>
			<point x="118" y="388"/>
			<point x="115" y="385" type="curve"/>
			<point x="125" y="387"/>
			<point x="126" y="347"/>
			<point x="129" y="348" type="curve"/>
			<point x="118" y="337"/>
			<point x="136" y="338"/>
			<point x="124" y="330" type="curve"/>
			<point x="119" y="325"/>
			<point x="124" y="309"/>
			<point x="119" y="306" type="curve"/>
			<point x="124" y="305"/>
			<point x="132" y="308"/>
			<point x="134" y="302" type="curve"/>
			<point x="132" y="294"/>
			<point x="135" y="286"/>
			<point x="129" y="283" type="curve"/>
			<point x="129" y="276"/>
			<point x="117" y="280"/>
			<point x="119" y="270" type="curve"/>
			<point x="125" y="269"/>
			<point x="123" y="261"/>
			<point x="129" y="261" type="curve"/>
			<point x="134" y="260"/>
			<point x="136" y="256"/>
			<point x="137" y="251" type="curve"/>
			<point x="135" y="237"/>
			<point x="150" y="239"/>
			<point x="151" y="229" type="curve"/>
			<point x="146" y="227"/>
			<point x="147" y="217"/>
		</contour>
	</outline>
	<lib>
		<dict>
			<key>com.schriftgestaltung.Glyphs.lastChange</key>
			<string>2019-05-02 15:56:55 +0000</string>
			<key>public.markColor</key>
			<string>0.67,0.95,0.38,1</string>
		</dict>
	</lib>
</glyph>
