<?xml version="1.0" encoding="UTF-8"?>
<glyph name="E" format="2">
	<advance width="735"/>
	<unicode hex="0045"/>
	<outline>
		<contour>
			<point x="427" y="-37" type="curve"/>
			<point x="427" y="-9" type="line"/>
			<point x="452" y="-1"/>
			<point x="465" y="20"/>
			<point x="480" y="38" type="curve"/>
			<point x="476" y="56"/>
			<point x="484" y="80"/>
			<point x="480" y="94" type="curve"/>
			<point x="480" y="96"/>
			<point x="471" y="98"/>
			<point x="470" y="99" type="curve"/>
			<point x="465" y="107"/>
			<point x="470" y="114"/>
			<point x="461" y="118" type="curve"/>
			<point x="455" y="120"/>
			<point x="448" y="117"/>
			<point x="442" y="118" type="curve"/>
			<point x="425" y="109"/>
			<point x="439" y="72"/>
			<point x="427" y="57" type="curve"/>
			<point x="419" y="53"/>
			<point x="416" y="45"/>
			<point x="410" y="43" type="curve"/>
			<point x="390" y="34"/>
			<point x="366" y="40"/>
			<point x="358" y="43" type="curve"/>
			<point x="354" y="44"/>
			<point x="349" y="42"/>
			<point x="344" y="43" type="curve" smooth="yes"/>
			<point x="323" y="47"/>
			<point x="321" y="50"/>
			<point x="316" y="57" type="curve"/>
			<point x="315" y="58"/>
			<point x="309" y="56"/>
			<point x="306" y="57" type="curve"/>
			<point x="301" y="61"/>
			<point x="295" y="68"/>
			<point x="293" y="70" type="curve"/>
			<point x="284" y="80"/>
			<point x="274" y="94"/>
			<point x="269" y="104" type="curve"/>
			<point x="268" y="107"/>
			<point x="270" y="110"/>
			<point x="269" y="113" type="curve" smooth="yes"/>
			<point x="266" y="122"/>
			<point x="263" y="127"/>
			<point x="260" y="137" type="curve" smooth="yes"/>
			<point x="250" y="170"/>
			<point x="244" y="229"/>
			<point x="251" y="263" type="curve"/>
			<point x="415" y="263" type="line"/>
			<point x="430" y="275"/>
			<point x="461" y="283"/>
			<point x="465" y="310" type="curve" smooth="yes"/>
			<point x="467" y="321"/>
			<point x="467" y="335"/>
			<point x="456" y="348" type="curve"/>
			<point x="441" y="354"/>
			<point x="429" y="348"/>
			<point x="415" y="343" type="curve"/>
			<point x="414" y="341"/>
			<point x="411" y="334"/>
			<point x="410" y="333" type="curve"/>
			<point x="402" y="329"/>
			<point x="400" y="334"/>
			<point x="395" y="328" type="curve"/>
			<point x="394" y="327"/>
			<point x="388" y="329"/>
			<point x="385" y="328" type="curve"/>
			<point x="366" y="320"/>
			<point x="310" y="324"/>
			<point x="298" y="328" type="curve"/>
			<point x="279" y="333"/>
			<point x="274" y="335"/>
			<point x="264" y="343" type="curve" smooth="yes"/>
			<point x="255" y="350"/>
			<point x="247" y="359"/>
			<point x="246" y="370" type="curve"/>
			<point x="235" y="425"/>
			<point x="256" y="531"/>
			<point x="246" y="581" type="curve" smooth="yes"/>
			<point x="245" y="586"/>
			<point x="238" y="595"/>
			<point x="246" y="599" type="curve"/>
			<point x="266" y="602"/>
			<point x="281" y="591"/>
			<point x="288" y="586" type="curve"/>
			<point x="290" y="584"/>
			<point x="294" y="579"/>
			<point x="298" y="576" type="curve"/>
			<point x="301" y="574"/>
			<point x="307" y="575"/>
			<point x="311" y="571" type="curve"/>
			<point x="315" y="569"/>
			<point x="314" y="560"/>
			<point x="316" y="556" type="curve"/>
			<point x="319" y="554"/>
			<point x="325" y="555"/>
			<point x="330" y="554" type="curve"/>
			<point x="334" y="550"/>
			<point x="336" y="542"/>
			<point x="340" y="539" type="curve"/>
			<point x="346" y="533"/>
			<point x="351" y="525"/>
			<point x="358" y="520" type="curve" smooth="yes"/>
			<point x="362" y="517"/>
			<point x="367" y="519"/>
			<point x="372" y="516" type="curve"/>
			<point x="374" y="515"/>
			<point x="376" y="507"/>
			<point x="377" y="506" type="curve"/>
			<point x="379" y="505"/>
			<point x="384" y="507"/>
			<point x="385" y="506" type="curve"/>
			<point x="389" y="504"/>
			<point x="391" y="499"/>
			<point x="395" y="496" type="curve"/>
			<point x="402" y="493"/>
			<point x="410" y="488"/>
			<point x="415" y="487" type="curve" smooth="yes"/>
			<point x="420" y="486"/>
			<point x="424" y="485"/>
			<point x="427" y="482" type="curve"/>
			<point x="432" y="482" type="line" smooth="yes"/>
			<point x="437" y="482"/>
			<point x="436" y="479"/>
			<point x="437" y="477" type="curve"/>
			<point x="445" y="476"/>
			<point x="452" y="479"/>
			<point x="461" y="477" type="curve"/>
			<point x="469" y="477"/>
			<point x="477" y="474"/>
			<point x="484" y="474" type="curve" smooth="yes"/>
			<point x="492" y="474"/>
			<point x="495" y="477"/>
			<point x="504" y="477" type="curve"/>
			<point x="518" y="480"/>
			<point x="531" y="481"/>
			<point x="536" y="482" type="curve"/>
			<point x="543" y="485"/>
			<point x="546" y="482"/>
			<point x="550" y="487" type="curve"/>
			<point x="551" y="488"/>
			<point x="557" y="487"/>
			<point x="559" y="487" type="curve"/>
			<point x="568" y="489"/>
			<point x="585" y="496"/>
			<point x="591" y="496" type="curve" smooth="yes"/>
			<point x="597" y="496"/>
			<point x="601" y="504"/>
			<point x="606" y="506" type="curve" smooth="yes"/>
			<point x="620" y="512"/>
			<point x="631" y="515"/>
			<point x="643" y="520" type="curve"/>
			<point x="645" y="521"/>
			<point x="643" y="524"/>
			<point x="643" y="524" type="curve"/>
			<point x="645" y="526"/>
			<point x="651" y="523"/>
			<point x="652" y="524" type="curve"/>
			<point x="656" y="526"/>
			<point x="665" y="539"/>
			<point x="671" y="549" type="curve"/>
			<point x="677" y="555"/>
			<point x="678" y="560"/>
			<point x="681" y="566" type="curve"/>
			<point x="682" y="569"/>
			<point x="688" y="570"/>
			<point x="690" y="571" type="curve"/>
			<point x="692" y="576"/>
			<point x="693" y="582"/>
			<point x="695" y="586" type="curve" smooth="yes"/>
			<point x="696" y="588"/>
			<point x="700" y="593"/>
			<point x="700" y="595" type="curve" smooth="yes"/>
			<point x="700" y="600"/>
			<point x="703" y="597"/>
			<point x="705" y="599" type="curve"/>
			<point x="712" y="617"/>
			<point x="720" y="660"/>
			<point x="710" y="670" type="curve"/>
			<point x="707" y="671"/>
			<point x="710" y="677"/>
			<point x="710" y="680" type="curve"/>
			<point x="708" y="680"/>
			<point x="705" y="679"/>
			<point x="705" y="680" type="curve"/>
			<point x="703" y="680"/>
			<point x="705" y="687"/>
			<point x="705" y="687" type="curve"/>
			<point x="702" y="694"/>
			<point x="700" y="702"/>
			<point x="695" y="707" type="curve"/>
			<point x="672" y="720"/>
			<point x="651" y="706"/>
			<point x="638" y="692" type="curve"/>
			<point x="636" y="676"/>
			<point x="651" y="666"/>
			<point x="652" y="660" type="curve"/>
			<point x="657" y="639"/>
			<point x="655" y="634"/>
			<point x="652" y="622" type="curve"/>
			<point x="651" y="615"/>
			<point x="652" y="614"/>
			<point x="648" y="609" type="curve"/>
			<point x="647" y="607"/>
			<point x="650" y="601"/>
			<point x="648" y="599" type="curve"/>
			<point x="645" y="588"/>
			<point x="640" y="586"/>
			<point x="633" y="581" type="curve"/>
			<point x="632" y="580"/>
			<point x="635" y="572"/>
			<point x="633" y="571" type="curve"/>
			<point x="632" y="570"/>
			<point x="626" y="572"/>
			<point x="625" y="571" type="curve"/>
			<point x="623" y="571"/>
			<point x="621" y="563"/>
			<point x="620" y="561" type="curve"/>
			<point x="587" y="535"/>
			<point x="526" y="514"/>
			<point x="480" y="516" type="curve"/>
			<point x="476" y="516"/>
			<point x="475" y="520"/>
			<point x="475" y="520" type="curve"/>
			<point x="456" y="523"/>
			<point x="451" y="519"/>
			<point x="447" y="524" type="curve"/>
			<point x="447" y="525"/>
			<point x="432" y="529"/>
			<point x="432" y="529" type="curve"/>
			<point x="426" y="530"/>
			<point x="426" y="530"/>
			<point x="424" y="534" type="curve"/>
			<point x="421" y="535"/>
			<point x="416" y="533"/>
			<point x="415" y="534" type="curve"/>
			<point x="411" y="536"/>
			<point x="407" y="545"/>
			<point x="405" y="549" type="curve"/>
			<point x="404" y="550"/>
			<point x="397" y="547"/>
			<point x="395" y="549" type="curve"/>
			<point x="385" y="555"/>
			<point x="377" y="576"/>
			<point x="367" y="576" type="curve" smooth="yes"/>
			<point x="358" y="576"/>
			<point x="356" y="587"/>
			<point x="353" y="590" type="curve"/>
			<point x="344" y="600"/>
			<point x="332" y="614"/>
			<point x="320" y="622" type="curve"/>
			<point x="314" y="629"/>
			<point x="305" y="637"/>
			<point x="302" y="641" type="curve"/>
			<point x="300" y="644"/>
			<point x="289" y="645"/>
			<point x="288" y="646" type="curve"/>
			<point x="282" y="650"/>
			<point x="279" y="651"/>
			<point x="269" y="651" type="curve" smooth="yes"/>
			<point x="265" y="651"/>
			<point x="265" y="655"/>
			<point x="264" y="655" type="curve"/>
			<point x="233" y="661"/>
			<point x="201" y="653"/>
			<point x="184" y="646" type="curve"/>
			<point x="180" y="646" type="line" smooth="yes"/>
			<point x="175" y="646"/>
			<point x="178" y="642"/>
			<point x="176" y="641" type="curve"/>
			<point x="161" y="635"/>
			<point x="159" y="636"/>
			<point x="152" y="627" type="curve"/>
			<point x="151" y="625"/>
			<point x="145" y="629"/>
			<point x="143" y="627" type="curve"/>
			<point x="139" y="624"/>
			<point x="136" y="617"/>
			<point x="134" y="614" type="curve"/>
			<point x="122" y="602"/>
			<point x="104" y="590"/>
			<point x="96" y="581" type="curve"/>
			<point x="92" y="576"/>
			<point x="94" y="567"/>
			<point x="92" y="561" type="curve"/>
			<point x="89" y="558"/>
			<point x="83" y="559"/>
			<point x="83" y="554" type="curve" smooth="yes"/>
			<point x="83" y="547"/>
			<point x="79" y="551"/>
			<point x="78" y="549" type="curve"/>
			<point x="70" y="536"/>
			<point x="63" y="524"/>
			<point x="63" y="511" type="curve"/>
			<point x="25" y="477" type="line"/>
			<point x="14" y="461"/>
			<point x="25" y="436"/>
			<point x="35" y="426" type="curve"/>
			<point x="50" y="424"/>
			<point x="63" y="430"/>
			<point x="68" y="431" type="curve"/>
			<point x="74" y="431"/>
			<point x="70" y="434"/>
			<point x="73" y="435" type="curve"/>
			<point x="85" y="446"/>
			<point x="103" y="470"/>
			<point x="105" y="482" type="curve"/>
			<point x="108" y="488"/>
			<point x="106" y="489"/>
			<point x="110" y="491" type="curve"/>
			<point x="111" y="493"/>
			<point x="109" y="499"/>
			<point x="110" y="501" type="curve"/>
			<point x="111" y="504"/>
			<point x="118" y="507"/>
			<point x="119" y="511" type="curve"/>
			<point x="122" y="516"/>
			<point x="122" y="521"/>
			<point x="124" y="524" type="curve"/>
			<point x="126" y="529"/>
			<point x="133" y="535"/>
			<point x="134" y="539" type="curve"/>
			<point x="134" y="544"/>
			<point x="136" y="541"/>
			<point x="139" y="544" type="curve"/>
			<point x="144" y="552"/>
			<point x="148" y="561"/>
			<point x="152" y="566" type="curve" smooth="yes"/>
			<point x="155" y="570"/>
			<point x="160" y="570"/>
			<point x="166" y="571" type="curve"/>
			<point x="173" y="552"/>
			<point x="188" y="546"/>
			<point x="194" y="529" type="curve"/>
			<point x="196" y="524"/>
			<point x="198" y="515"/>
			<point x="199" y="506" type="curve"/>
			<point x="203" y="485"/>
			<point x="203" y="452"/>
			<point x="204" y="431" type="curve"/>
			<point x="204" y="428"/>
			<point x="209" y="425"/>
			<point x="209" y="426" type="curve"/>
			<point x="209" y="421"/>
			<point x="205" y="421"/>
			<point x="204" y="418" type="curve"/>
			<point x="203" y="410"/>
			<point x="205" y="405"/>
			<point x="209" y="403" type="curve"/>
			<point x="211" y="400"/>
			<point x="204" y="396"/>
			<point x="204" y="398" type="curve"/>
			<point x="205" y="390"/>
			<point x="211" y="390"/>
			<point x="204" y="385" type="curve" smooth="yes"/>
			<point x="201" y="383"/>
			<point x="205" y="365"/>
			<point x="204" y="360" type="curve"/>
			<point x="200" y="346"/>
			<point x="189" y="334"/>
			<point x="189" y="319" type="curve" smooth="yes"/>
			<point x="189" y="299"/>
			<point x="204" y="273"/>
			<point x="209" y="249" type="curve" smooth="yes"/>
			<point x="214" y="221"/>
			<point x="209" y="190"/>
			<point x="214" y="164" type="curve"/>
			<point x="215" y="157"/>
			<point x="219" y="144"/>
			<point x="221" y="142" type="curve" smooth="yes"/>
			<point x="223" y="140"/>
			<point x="221" y="133"/>
			<point x="221" y="132" type="curve"/>
			<point x="223" y="124"/>
			<point x="223" y="121"/>
			<point x="226" y="118" type="curve"/>
			<point x="228" y="118"/>
			<point x="231" y="103"/>
			<point x="231" y="104" type="curve"/>
			<point x="233" y="98"/>
			<point x="233" y="97"/>
			<point x="236" y="94" type="curve"/>
			<point x="238" y="93"/>
			<point x="235" y="87"/>
			<point x="236" y="85" type="curve"/>
			<point x="239" y="80"/>
			<point x="244" y="79"/>
			<point x="246" y="75" type="curve"/>
			<point x="250" y="68"/>
			<point x="251" y="58"/>
			<point x="255" y="53" type="curve"/>
			<point x="258" y="48"/>
			<point x="261" y="47"/>
			<point x="264" y="43" type="curve" smooth="yes"/>
			<point x="268" y="38"/>
			<point x="265" y="33"/>
			<point x="269" y="28" type="curve"/>
			<point x="272" y="26"/>
			<point x="281" y="24"/>
			<point x="288" y="20" type="curve"/>
			<point x="291" y="18"/>
			<point x="291" y="10"/>
			<point x="298" y="10" type="curve" smooth="yes"/>
			<point x="302" y="10"/>
			<point x="300" y="7"/>
			<point x="302" y="6" type="curve" smooth="yes"/>
			<point x="310" y="2"/>
			<point x="323" y="3"/>
			<point x="335" y="1" type="curve"/>
			<point x="335" y="1"/>
			<point x="336" y="-3"/>
			<point x="340" y="-4" type="curve" smooth="yes"/>
			<point x="365" y="-11"/>
			<point x="390" y="-8"/>
			<point x="419" y="-9" type="curve"/>
			<point x="421" y="-18"/>
			<point x="411" y="-42"/>
		</contour>
	</outline>
	<lib>
		<dict>
			<key>com.schriftgestaltung.Glyphs.lastChange</key>
			<string>2019-04-20 17:05:34 +0000</string>
			<key>public.markColor</key>
			<string>0.67,0.95,0.38,1</string>
		</dict>
	</lib>
</glyph>
