<?xml version="1.0" encoding="UTF-8"?>
<glyph name="emdash" format="2">
	<advance width="1077"/>
	<unicode hex="2014"/>
	<note>
		emdash
  </note>
	<outline>
		<contour>
			<point x="78" y="128" type="curve"/>
			<point x="79" y="128" type="line"/>
			<point x="89" y="134" type="line"/>
			<point x="89" y="141" type="line"/>
			<point x="94" y="150" type="line"/>
			<point x="94" y="155" type="line"/>
			<point x="93" y="156"/>
			<point x="92" y="157"/>
			<point x="92" y="158" type="curve" smooth="yes"/>
			<point x="92" y="171" type="line"/>
			<point x="94" y="174" type="line"/>
			<point x="94" y="181" type="line"/>
			<point x="95" y="182"/>
			<point x="97" y="184"/>
			<point x="98" y="187" type="curve"/>
			<point x="99" y="189"/>
			<point x="100" y="190"/>
			<point x="103" y="190" type="curve"/>
			<point x="107" y="187"/>
			<point x="110" y="186"/>
			<point x="113" y="185" type="curve"/>
			<point x="115" y="184"/>
			<point x="116" y="183"/>
			<point x="117" y="181" type="curve"/>
			<point x="118" y="178"/>
			<point x="119" y="176"/>
			<point x="120" y="175" type="curve"/>
			<point x="120" y="158" type="line"/>
			<point x="122" y="154"/>
			<point x="123" y="151"/>
			<point x="123" y="150" type="curve" smooth="yes"/>
			<point x="123" y="149"/>
			<point x="124" y="148"/>
			<point x="125" y="147" type="curve"/>
			<point x="127" y="144"/>
			<point x="128" y="143"/>
			<point x="131" y="145" type="curve"/>
			<point x="132" y="146"/>
			<point x="134" y="146"/>
			<point x="135" y="146" type="curve" smooth="yes"/>
			<point x="140" y="146" type="line"/>
			<point x="144" y="150" type="line"/>
			<point x="144" y="175" type="line"/>
			<point x="146" y="180" type="line"/>
			<point x="146" y="181"/>
			<point x="148" y="188"/>
			<point x="153" y="193" type="curve"/>
			<point x="173" y="193" type="line"/>
			<point x="188" y="201" type="line"/>
			<point x="197" y="201" type="line" smooth="yes"/>
			<point x="198" y="201"/>
			<point x="198" y="201"/>
			<point x="199" y="202" type="curve"/>
			<point x="199" y="203"/>
			<point x="200" y="203"/>
			<point x="201" y="203" type="curve"/>
			<point x="204" y="204"/>
			<point x="206" y="206"/>
			<point x="206" y="209" type="curve"/>
			<point x="208" y="211" type="line"/>
			<point x="209" y="210"/>
			<point x="210" y="209"/>
			<point x="211" y="209" type="curve"/>
			<point x="211" y="210"/>
			<point x="212" y="215"/>
			<point x="215" y="216" type="curve"/>
			<point x="216" y="216"/>
			<point x="219" y="216"/>
			<point x="220" y="219" type="curve"/>
			<point x="220" y="222"/>
			<point x="222" y="224"/>
			<point x="225" y="224" type="curve"/>
			<point x="229" y="227" type="line"/>
			<point x="236" y="227" type="line"/>
			<point x="239" y="224"/>
			<point x="241" y="224"/>
			<point x="243" y="226" type="curve"/>
			<point x="242" y="227"/>
			<point x="242" y="228"/>
			<point x="243" y="230" type="curve"/>
			<point x="243" y="234"/>
			<point x="242" y="235"/>
			<point x="240" y="235" type="curve" smooth="yes"/>
			<point x="239" y="235"/>
			<point x="238" y="235"/>
			<point x="238" y="236" type="curve"/>
			<point x="242" y="238" type="line"/>
			<point x="244" y="242" type="line"/>
			<point x="264" y="242" type="line"/>
			<point x="266" y="243" type="line"/>
			<point x="267" y="248" type="line"/>
			<point x="286" y="248" type="line"/>
			<point x="289" y="250" type="line"/>
			<point x="309" y="250" type="line"/>
			<point x="312" y="253" type="line"/>
			<point x="322" y="253" type="line"/>
			<point x="325" y="255" type="line"/>
			<point x="326" y="256"/>
			<point x="328" y="256"/>
			<point x="330" y="255" type="curve" smooth="yes"/>
			<point x="332" y="254"/>
			<point x="333" y="253"/>
			<point x="334" y="253" type="curve" smooth="yes"/>
			<point x="338" y="253" type="line"/>
			<point x="339" y="254"/>
			<point x="340" y="255"/>
			<point x="341" y="255" type="curve" smooth="yes"/>
			<point x="361" y="255" type="line"/>
			<point x="364" y="258" type="line"/>
			<point x="382" y="258" type="line"/>
			<point x="385" y="261" type="line"/>
			<point x="396" y="261" type="line"/>
			<point x="398" y="263" type="line"/>
			<point x="416" y="263" type="line"/>
			<point x="419" y="261" type="line"/>
			<point x="421" y="263" type="line"/>
			<point x="424" y="261" type="line"/>
			<point x="427" y="263" type="line"/>
			<point x="432" y="263" type="line"/>
			<point x="435" y="266" type="line"/>
			<point x="445" y="266" type="line"/>
			<point x="446" y="265"/>
			<point x="447" y="264"/>
			<point x="448" y="264" type="curve" smooth="yes"/>
			<point x="449" y="264"/>
			<point x="450" y="265"/>
			<point x="450" y="266" type="curve"/>
			<point x="453" y="263" type="line"/>
			<point x="469" y="263" type="line"/>
			<point x="472" y="264" type="line"/>
			<point x="474" y="266" type="line"/>
			<point x="487" y="266" type="line"/>
			<point x="489" y="264" type="line"/>
			<point x="498" y="268" type="line"/>
			<point x="501" y="265" type="line" smooth="yes"/>
			<point x="502" y="264"/>
			<point x="503" y="263"/>
			<point x="505" y="263" type="curve"/>
			<point x="508" y="266" type="line"/>
			<point x="524" y="266" type="line"/>
			<point x="527" y="265" type="line"/>
			<point x="528" y="263" type="line"/>
			<point x="531" y="266" type="line"/>
			<point x="532" y="264"/>
			<point x="534" y="263"/>
			<point x="537" y="264" type="curve"/>
			<point x="542" y="264" type="line"/>
			<point x="544" y="265" type="line"/>
			<point x="545" y="265"/>
			<point x="551" y="264"/>
			<point x="552" y="261" type="curve"/>
			<point x="552" y="260"/>
			<point x="552" y="260"/>
			<point x="553" y="261" type="curve"/>
			<point x="554" y="261"/>
			<point x="556" y="262"/>
			<point x="556" y="264" type="curve" smooth="yes"/>
			<point x="556" y="265"/>
			<point x="556" y="265"/>
			<point x="557" y="266" type="curve"/>
			<point x="562" y="266" type="line"/>
			<point x="571" y="261" type="line"/>
			<point x="571" y="261"/>
			<point x="572" y="262"/>
			<point x="573" y="263" type="curve"/>
			<point x="575" y="261" type="line"/>
			<point x="594" y="261" type="line"/>
			<point x="596" y="263" type="line"/>
			<point x="621" y="263" type="line"/>
			<point x="625" y="261" type="line"/>
			<point x="628" y="266" type="line"/>
			<point x="630" y="261" type="line"/>
			<point x="631" y="262"/>
			<point x="632" y="263"/>
			<point x="633" y="263" type="curve" smooth="yes"/>
			<point x="641" y="263" type="line"/>
			<point x="643" y="261" type="line"/>
			<point x="647" y="263" type="line"/>
			<point x="648" y="263"/>
			<point x="649" y="264"/>
			<point x="650" y="265" type="curve" smooth="yes"/>
			<point x="651" y="266"/>
			<point x="651" y="266"/>
			<point x="652" y="265" type="curve"/>
			<point x="652" y="265"/>
			<point x="653" y="263"/>
			<point x="654" y="258" type="curve"/>
			<point x="659" y="266" type="line"/>
			<point x="667" y="266" type="line"/>
			<point x="668" y="265"/>
			<point x="669" y="264"/>
			<point x="670" y="264" type="curve"/>
			<point x="672" y="266" type="line"/>
			<point x="680" y="266" type="line"/>
			<point x="682" y="268" type="line"/>
			<point x="686" y="265" type="line"/>
			<point x="687" y="266"/>
			<point x="688" y="267"/>
			<point x="691" y="268" type="curve"/>
			<point x="693" y="266" type="line"/>
			<point x="705" y="266" type="line"/>
			<point x="707" y="267"/>
			<point x="709" y="268"/>
			<point x="710" y="269" type="curve"/>
			<point x="714" y="266" type="line"/>
			<point x="715" y="267"/>
			<point x="716" y="268"/>
			<point x="716" y="269" type="curve"/>
			<point x="724" y="269" type="line"/>
			<point x="728" y="265" type="line"/>
			<point x="733" y="269" type="line"/>
			<point x="742" y="269" type="line"/>
			<point x="745" y="271" type="line"/>
			<point x="748" y="268" type="line"/>
			<point x="758" y="268" type="line"/>
			<point x="761" y="266" type="line"/>
			<point x="763" y="268"/>
			<point x="764" y="269"/>
			<point x="765" y="269" type="curve"/>
			<point x="766" y="271" type="line"/>
			<point x="774" y="271" type="line"/>
			<point x="776" y="269" type="line"/>
			<point x="781" y="272" type="line"/>
			<point x="782" y="270"/>
			<point x="783" y="269"/>
			<point x="784" y="269" type="curve"/>
			<point x="788" y="271" type="line"/>
			<point x="792" y="269" type="line"/>
			<point x="795" y="272" type="line" smooth="yes"/>
			<point x="796" y="273"/>
			<point x="796" y="273"/>
			<point x="797" y="273" type="curve"/>
			<point x="802" y="276" type="line"/>
			<point x="810" y="276" type="line"/>
			<point x="813" y="274" type="line"/>
			<point x="814" y="273"/>
			<point x="816" y="274"/>
			<point x="817" y="275" type="curve" smooth="yes"/>
			<point x="818" y="276"/>
			<point x="818" y="276"/>
			<point x="819" y="276" type="curve" smooth="yes"/>
			<point x="826" y="276" type="line"/>
			<point x="828" y="278" type="line"/>
			<point x="830" y="278"/>
			<point x="832" y="277"/>
			<point x="833" y="276" type="curve"/>
			<point x="836" y="276"/>
			<point x="838" y="275"/>
			<point x="839" y="274" type="curve"/>
			<point x="843" y="274" type="line"/>
			<point x="844" y="273"/>
			<point x="846" y="273"/>
			<point x="848" y="274" type="curve"/>
			<point x="849" y="279" type="line"/>
			<point x="850" y="280"/>
			<point x="852" y="280"/>
			<point x="853" y="279" type="curve" smooth="yes"/>
			<point x="854" y="278"/>
			<point x="854" y="277"/>
			<point x="855" y="277" type="curve"/>
			<point x="860" y="274" type="line"/>
			<point x="861" y="276"/>
			<point x="864" y="277"/>
			<point x="868" y="278" type="curve"/>
			<point x="871" y="279"/>
			<point x="874" y="280"/>
			<point x="876" y="281" type="curve"/>
			<point x="879" y="279" type="line"/>
			<point x="882" y="278"/>
			<point x="883" y="276"/>
			<point x="886" y="279" type="curve"/>
			<point x="891" y="274" type="line"/>
			<point x="892" y="274"/>
			<point x="893" y="275"/>
			<point x="894" y="276" type="curve" smooth="yes"/>
			<point x="895" y="277"/>
			<point x="895" y="277"/>
			<point x="896" y="276" type="curve"/>
			<point x="899" y="274" type="line"/>
			<point x="904" y="274" type="line"/>
			<point x="907" y="271" type="line"/>
			<point x="910" y="274"/>
			<point x="912" y="274"/>
			<point x="913" y="272" type="curve"/>
			<point x="913" y="270" type="line"/>
			<point x="914" y="269"/>
			<point x="915" y="269"/>
			<point x="917" y="268" type="curve" smooth="yes"/>
			<point x="919" y="267"/>
			<point x="920" y="266"/>
			<point x="921" y="265" type="curve" smooth="yes"/>
			<point x="922" y="264"/>
			<point x="923" y="264"/>
			<point x="925" y="264" type="curve"/>
			<point x="928" y="261" type="line"/>
			<point x="930" y="263" type="line"/>
			<point x="936" y="263" type="line"/>
			<point x="944" y="255" type="line" smooth="yes"/>
			<point x="945" y="254"/>
			<point x="947" y="253"/>
			<point x="950" y="252" type="curve"/>
			<point x="952" y="251"/>
			<point x="953" y="249"/>
			<point x="954" y="248" type="curve"/>
			<point x="970" y="248" type="line"/>
			<point x="971" y="247"/>
			<point x="972" y="247"/>
			<point x="974" y="246" type="curve" smooth="yes"/>
			<point x="976" y="245"/>
			<point x="977" y="243"/>
			<point x="978" y="242" type="curve"/>
			<point x="980" y="237" type="line"/>
			<point x="985" y="233" type="line"/>
			<point x="981" y="227" type="line"/>
			<point x="982" y="226"/>
			<point x="982" y="225"/>
			<point x="982" y="224" type="curve"/>
			<point x="981" y="220"/>
			<point x="981" y="218"/>
			<point x="984" y="218" type="curve"/>
			<point x="984" y="207" type="line"/>
			<point x="981" y="204" type="line"/>
			<point x="981" y="199" type="line"/>
			<point x="979" y="198"/>
			<point x="977" y="196"/>
			<point x="976" y="193" type="curve"/>
			<point x="971" y="186" type="line"/>
			<point x="971" y="175" type="line"/>
			<point x="975" y="175"/>
			<point x="975" y="175"/>
			<point x="978" y="172" type="curve"/>
			<point x="981" y="176" type="line"/>
			<point x="982" y="177"/>
			<point x="983" y="177"/>
			<point x="985" y="178" type="curve"/>
			<point x="986" y="178"/>
			<point x="987" y="179"/>
			<point x="988" y="180" type="curve"/>
			<point x="991" y="179"/>
			<point x="993" y="181"/>
			<point x="994" y="185" type="curve"/>
			<point x="996" y="188" type="line"/>
			<point x="999" y="190"/>
			<point x="1001" y="193"/>
			<point x="1003" y="196" type="curve"/>
			<point x="1006" y="203"/>
			<point x="1007" y="204"/>
			<point x="1008" y="208" type="curve"/>
			<point x="1008" y="210"/>
			<point x="1009" y="211"/>
			<point x="1010" y="212" type="curve"/>
			<point x="1010" y="217" type="line"/>
			<point x="1013" y="220" type="line"/>
			<point x="1013" y="226" type="line"/>
			<point x="1016" y="229"/>
			<point x="1017" y="230"/>
			<point x="1017" y="230" type="curve"/>
			<point x="1020" y="232" type="line"/>
			<point x="1021" y="232"/>
			<point x="1022" y="233"/>
			<point x="1023" y="234" type="curve" smooth="yes"/>
			<point x="1024" y="235"/>
			<point x="1025" y="236"/>
			<point x="1026" y="236" type="curve"/>
			<point x="1026" y="241" type="line"/>
			<point x="1029" y="245" type="line"/>
			<point x="1033" y="245" type="line" smooth="yes"/>
			<point x="1036" y="245"/>
			<point x="1036" y="246"/>
			<point x="1036" y="249" type="curve"/>
			<point x="1035" y="252"/>
			<point x="1037" y="253"/>
			<point x="1040" y="253" type="curve"/>
			<point x="1041" y="256"/>
			<point x="1043" y="258"/>
			<point x="1044" y="261" type="curve"/>
			<point x="1045" y="263"/>
			<point x="1046" y="265"/>
			<point x="1049" y="268" type="curve"/>
			<point x="1049" y="271"/>
			<point x="1048" y="274"/>
			<point x="1047" y="275" type="curve"/>
			<point x="1047" y="276"/>
			<point x="1048" y="277"/>
			<point x="1049" y="278" type="curve"/>
			<point x="1049" y="290" type="line"/>
			<point x="1055" y="301" type="line"/>
			<point x="1052" y="302"/>
			<point x="1051" y="305"/>
			<point x="1052" y="309" type="curve"/>
			<point x="1055" y="312" type="line"/>
			<point x="1055" y="320" type="line"/>
			<point x="1057" y="322" type="line"/>
			<point x="1052" y="327" type="line"/>
			<point x="1052" y="332" type="line"/>
			<point x="1049" y="336" type="line"/>
			<point x="1049" y="342" type="line"/>
			<point x="1045" y="349" type="line"/>
			<point x="1042" y="349"/>
			<point x="1041" y="350"/>
			<point x="1040" y="354" type="curve"/>
			<point x="1039" y="356"/>
			<point x="1038" y="357"/>
			<point x="1035" y="357" type="curve" smooth="yes"/>
			<point x="1034" y="357"/>
			<point x="1032" y="359"/>
			<point x="1032" y="360" type="curve"/>
			<point x="1031" y="362"/>
			<point x="1028" y="366"/>
			<point x="1023" y="371" type="curve"/>
			<point x="1023" y="374" type="line"/>
			<point x="1018" y="377" type="line"/>
			<point x="1013" y="381" type="line"/>
			<point x="1012" y="384"/>
			<point x="1011" y="387"/>
			<point x="1008" y="390" type="curve"/>
			<point x="1005" y="392"/>
			<point x="1003" y="394"/>
			<point x="1002" y="395" type="curve"/>
			<point x="1002" y="398" type="line"/>
			<point x="1000" y="400"/>
			<point x="998" y="401"/>
			<point x="997" y="401" type="curve"/>
			<point x="994" y="402"/>
			<point x="992" y="404"/>
			<point x="992" y="406" type="curve"/>
			<point x="991" y="409"/>
			<point x="989" y="411"/>
			<point x="985" y="412" type="curve"/>
			<point x="984" y="413"/>
			<point x="981" y="415"/>
			<point x="974" y="418" type="curve"/>
			<point x="973" y="418"/>
			<point x="972" y="419"/>
			<point x="972" y="420" type="curve"/>
			<point x="968" y="420" type="line" smooth="yes"/>
			<point x="966" y="420"/>
			<point x="965" y="420"/>
			<point x="964" y="421" type="curve"/>
			<point x="962" y="422" type="line"/>
			<point x="957" y="422" type="line"/>
			<point x="954" y="425" type="line"/>
			<point x="953" y="424"/>
			<point x="952" y="423"/>
			<point x="951" y="423" type="curve"/>
			<point x="949" y="425" type="line"/>
			<point x="935" y="425" type="line"/>
			<point x="935" y="424"/>
			<point x="934" y="423"/>
			<point x="933" y="422" type="curve"/>
			<point x="925" y="422" type="line"/>
			<point x="924" y="421"/>
			<point x="923" y="420"/>
			<point x="922" y="420" type="curve" smooth="yes"/>
			<point x="915" y="420" type="line"/>
			<point x="908" y="415" type="line"/>
			<point x="907" y="414"/>
			<point x="904" y="412"/>
			<point x="900" y="411" type="curve"/>
			<point x="900" y="406" type="line"/>
			<point x="897" y="403" type="line"/>
			<point x="895" y="402"/>
			<point x="894" y="402"/>
			<point x="893" y="401" type="curve" smooth="yes"/>
			<point x="892" y="400"/>
			<point x="892" y="398"/>
			<point x="891" y="397" type="curve"/>
			<point x="889" y="394"/>
			<point x="887" y="393"/>
			<point x="887" y="389" type="curve"/>
			<point x="886" y="387"/>
			<point x="885" y="386"/>
			<point x="884" y="385" type="curve"/>
			<point x="884" y="374" type="line"/>
			<point x="882" y="372" type="line"/>
			<point x="885" y="369" type="line"/>
			<point x="885" y="364" type="line"/>
			<point x="882" y="361" type="line"/>
			<point x="882" y="359"/>
			<point x="882" y="358"/>
			<point x="883" y="357" type="curve" smooth="yes"/>
			<point x="884" y="356"/>
			<point x="884" y="354"/>
			<point x="884" y="353" type="curve"/>
			<point x="887" y="345" type="line"/>
			<point x="886" y="344"/>
			<point x="884" y="342"/>
			<point x="883" y="339" type="curve"/>
			<point x="880" y="340" type="line"/>
			<point x="880" y="343" type="line" smooth="yes"/>
			<point x="880" y="345"/>
			<point x="877" y="344"/>
			<point x="877" y="341" type="curve" smooth="yes"/>
			<point x="877" y="338"/>
			<point x="876" y="336"/>
			<point x="873" y="335" type="curve"/>
			<point x="872" y="334"/>
			<point x="870" y="334"/>
			<point x="869" y="333" type="curve"/>
			<point x="857" y="333" type="line"/>
			<point x="856" y="330"/>
			<point x="855" y="329"/>
			<point x="855" y="328" type="curve"/>
			<point x="851" y="329" type="line"/>
			<point x="851" y="333" type="line" smooth="yes"/>
			<point x="851" y="334"/>
			<point x="850" y="335"/>
			<point x="849" y="336" type="curve"/>
			<point x="844" y="331" type="line"/>
			<point x="834" y="331" type="line"/>
			<point x="831" y="328"/>
			<point x="830" y="327"/>
			<point x="830" y="326" type="curve"/>
			<point x="832" y="322" type="line"/>
			<point x="826" y="315" type="line"/>
			<point x="823" y="315"/>
			<point x="820" y="316"/>
			<point x="819" y="317" type="curve"/>
			<point x="819" y="319" type="line"/>
			<point x="814" y="322" type="line"/>
			<point x="814" y="327" type="line"/>
			<point x="813" y="329"/>
			<point x="812" y="330"/>
			<point x="810" y="331" type="curve"/>
			<point x="803" y="331" type="line"/>
			<point x="799" y="328" type="line"/>
			<point x="795" y="331" type="line"/>
			<point x="787" y="331" type="line"/>
			<point x="783" y="328" type="line"/>
			<point x="779" y="331" type="line"/>
			<point x="778" y="328"/>
			<point x="777" y="327"/>
			<point x="777" y="326" type="curve"/>
			<point x="753" y="326" type="line"/>
			<point x="750" y="328" type="line"/>
			<point x="748" y="329" type="line"/>
			<point x="745" y="326" type="line"/>
			<point x="730" y="326" type="line"/>
			<point x="726" y="329" type="line"/>
			<point x="721" y="326" type="line"/>
			<point x="721" y="327"/>
			<point x="720" y="328"/>
			<point x="719" y="328" type="curve" smooth="yes"/>
			<point x="718" y="328"/>
			<point x="717" y="327"/>
			<point x="716" y="326" type="curve"/>
			<point x="716" y="327"/>
			<point x="715" y="328"/>
			<point x="714" y="328" type="curve" smooth="yes"/>
			<point x="713" y="328"/>
			<point x="712" y="327"/>
			<point x="711" y="326" type="curve"/>
			<point x="701" y="326" type="line"/>
			<point x="698" y="323" type="line"/>
			<point x="696" y="326" type="line"/>
			<point x="688" y="326" type="line"/>
			<point x="687" y="325"/>
			<point x="686" y="324"/>
			<point x="683" y="323" type="curve"/>
			<point x="680" y="326" type="line"/>
			<point x="674" y="326" type="line"/>
			<point x="672" y="325"/>
			<point x="670" y="325"/>
			<point x="667" y="326" type="curve"/>
			<point x="666" y="327"/>
			<point x="665" y="328"/>
			<point x="664" y="328" type="curve" smooth="yes"/>
			<point x="663" y="328"/>
			<point x="662" y="327"/>
			<point x="661" y="326" type="curve"/>
			<point x="633" y="326" type="line"/>
			<point x="632" y="325"/>
			<point x="631" y="324"/>
			<point x="630" y="324" type="curve" smooth="yes"/>
			<point x="629" y="324"/>
			<point x="629" y="324"/>
			<point x="629" y="325" type="curve"/>
			<point x="628" y="326"/>
			<point x="628" y="326"/>
			<point x="627" y="326" type="curve" smooth="yes"/>
			<point x="622" y="326" type="line"/>
			<point x="620" y="328" type="line"/>
			<point x="617" y="326" type="line"/>
			<point x="598" y="326" type="line" smooth="yes"/>
			<point x="597" y="326"/>
			<point x="596" y="326"/>
			<point x="596" y="327" type="curve"/>
			<point x="595" y="327"/>
			<point x="594" y="328"/>
			<point x="593" y="329" type="curve"/>
			<point x="589" y="323" type="line"/>
			<point x="588" y="323"/>
			<point x="588" y="323"/>
			<point x="587" y="324" type="curve"/>
			<point x="586" y="324" type="line"/>
			<point x="585" y="325"/>
			<point x="585" y="326"/>
			<point x="585" y="327" type="curve" smooth="yes"/>
			<point x="585" y="328"/>
			<point x="584" y="328"/>
			<point x="583" y="328" type="curve"/>
			<point x="581" y="324" type="line"/>
			<point x="579" y="323"/>
			<point x="577" y="323"/>
			<point x="576" y="326" type="curve"/>
			<point x="570" y="326" type="line"/>
			<point x="570" y="325"/>
			<point x="569" y="324"/>
			<point x="568" y="323" type="curve"/>
			<point x="542" y="323" type="line"/>
			<point x="539" y="321" type="line"/>
			<point x="538" y="320"/>
			<point x="536" y="321"/>
			<point x="535" y="322" type="curve" smooth="yes"/>
			<point x="534" y="323"/>
			<point x="532" y="324"/>
			<point x="531" y="324" type="curve"/>
			<point x="529" y="323" type="line"/>
			<point x="525" y="326"/>
			<point x="522" y="327"/>
			<point x="520" y="328" type="curve"/>
			<point x="518" y="326" type="line"/>
			<point x="515" y="329"/>
			<point x="513" y="329"/>
			<point x="512" y="328" type="curve" smooth="yes"/>
			<point x="508" y="324" type="line" smooth="yes"/>
			<point x="507" y="323"/>
			<point x="505" y="324"/>
			<point x="504" y="325" type="curve" smooth="yes"/>
			<point x="503" y="326"/>
			<point x="501" y="326"/>
			<point x="500" y="326" type="curve" smooth="yes"/>
			<point x="493" y="326" type="line"/>
			<point x="488" y="329" type="line"/>
			<point x="485" y="327" type="line"/>
			<point x="484" y="326"/>
			<point x="483" y="325"/>
			<point x="482" y="326" type="curve" smooth="yes"/>
			<point x="481" y="327"/>
			<point x="480" y="328"/>
			<point x="479" y="328" type="curve" smooth="yes"/>
			<point x="474" y="328" type="line" smooth="yes"/>
			<point x="473" y="328"/>
			<point x="472" y="327"/>
			<point x="471" y="326" type="curve"/>
			<point x="466" y="326" type="line"/>
			<point x="463" y="329"/>
			<point x="461" y="326"/>
			<point x="461" y="326" type="curve" smooth="yes"/>
			<point x="424" y="326" type="line"/>
			<point x="422" y="328" type="line"/>
			<point x="421" y="327"/>
			<point x="419" y="326"/>
			<point x="416" y="323" type="curve"/>
			<point x="403" y="323" type="line"/>
			<point x="401" y="321" type="line"/>
			<point x="398" y="323" type="line"/>
			<point x="380" y="323" type="line"/>
			<point x="379" y="322" type="line" smooth="yes"/>
			<point x="378" y="321"/>
			<point x="378" y="321"/>
			<point x="377" y="321" type="curve" smooth="yes"/>
			<point x="340" y="321" type="line"/>
			<point x="338" y="323" type="line"/>
			<point x="329" y="318" type="line"/>
			<point x="325" y="318" type="line"/>
			<point x="322" y="321" type="line"/>
			<point x="317" y="321" type="line"/>
			<point x="315" y="319" type="line"/>
			<point x="310" y="321" type="line"/>
			<point x="307" y="318" type="line"/>
			<point x="299" y="318" type="line"/>
			<point x="295" y="321" type="line"/>
			<point x="291" y="318" type="line"/>
			<point x="262" y="318" type="line"/>
			<point x="259" y="315" type="line"/>
			<point x="242" y="315" type="line"/>
			<point x="239" y="313" type="line"/>
			<point x="234" y="316" type="line"/>
			<point x="231" y="313" type="line"/>
			<point x="226" y="313" type="line"/>
			<point x="222" y="316" type="line"/>
			<point x="218" y="313" type="line"/>
			<point x="213" y="318" type="line"/>
			<point x="212" y="318" type="line"/>
			<point x="212" y="317"/>
			<point x="211" y="316"/>
			<point x="210" y="316" type="curve" smooth="yes"/>
			<point x="197" y="316" type="line"/>
			<point x="195" y="318" type="line"/>
			<point x="189" y="318" type="line"/>
			<point x="189" y="317"/>
			<point x="188" y="316"/>
			<point x="187" y="315" type="curve"/>
			<point x="182" y="315" type="line"/>
			<point x="179" y="318" type="line"/>
			<point x="174" y="318" type="line"/>
			<point x="173" y="319"/>
			<point x="172" y="320"/>
			<point x="171" y="320" type="curve" smooth="yes"/>
			<point x="170" y="320"/>
			<point x="169" y="319"/>
			<point x="168" y="318" type="curve"/>
			<point x="141" y="318" type="line"/>
			<point x="136" y="321" type="line"/>
			<point x="133" y="319" type="line"/>
			<point x="132" y="318"/>
			<point x="130" y="317"/>
			<point x="129" y="318" type="curve"/>
			<point x="129" y="319"/>
			<point x="128" y="320"/>
			<point x="127" y="321" type="curve"/>
			<point x="122" y="321" type="line"/>
			<point x="119" y="318" type="line"/>
			<point x="106" y="318" type="line"/>
			<point x="103" y="316" type="line"/>
			<point x="93" y="316" type="line"/>
			<point x="90" y="313" type="line"/>
			<point x="82" y="313" type="line"/>
			<point x="77" y="308" type="line"/>
			<point x="71" y="308" type="line"/>
			<point x="64" y="300" type="line"/>
			<point x="60" y="300" type="line"/>
			<point x="56" y="297" type="line"/>
			<point x="54" y="296"/>
			<point x="52" y="295"/>
			<point x="51" y="294" type="curve"/>
			<point x="50" y="294"/>
			<point x="49" y="293"/>
			<point x="48" y="292" type="curve"/>
			<point x="44" y="289" type="line"/>
			<point x="41" y="289"/>
			<point x="40" y="287"/>
			<point x="39" y="286" type="curve"/>
			<point x="40" y="284"/>
			<point x="39" y="282"/>
			<point x="38" y="281" type="curve" smooth="yes"/>
			<point x="36" y="279"/>
			<point x="35" y="278"/>
			<point x="34" y="277" type="curve"/>
			<point x="34" y="275" type="line" smooth="yes"/>
			<point x="34" y="274"/>
			<point x="34" y="272"/>
			<point x="33" y="271" type="curve"/>
			<point x="30" y="272"/>
			<point x="32" y="276"/>
			<point x="33" y="276" type="curve"/>
			<point x="30" y="279"/>
			<point x="29" y="281"/>
			<point x="28" y="282" type="curve"/>
			<point x="27" y="281"/>
			<point x="26" y="280"/>
			<point x="26" y="279" type="curve" smooth="yes"/>
			<point x="26" y="275" type="line"/>
			<point x="29" y="272" type="line"/>
			<point x="29" y="271"/>
			<point x="29" y="270"/>
			<point x="30" y="269" type="curve"/>
			<point x="30" y="267"/>
			<point x="29" y="265"/>
			<point x="28" y="264" type="curve"/>
			<point x="20" y="262" type="line"/>
			<point x="27" y="259" type="line"/>
			<point x="24" y="254" type="line"/>
			<point x="26" y="251" type="line"/>
			<point x="26" y="245" type="line"/>
			<point x="28" y="242"/>
			<point x="29" y="240"/>
			<point x="29" y="239" type="curve"/>
			<point x="28" y="238"/>
			<point x="25" y="236"/>
			<point x="26" y="233" type="curve"/>
			<point x="28" y="232"/>
			<point x="30" y="230"/>
			<point x="31" y="228" type="curve"/>
			<point x="31" y="225"/>
			<point x="32" y="222"/>
			<point x="34" y="219" type="curve"/>
			<point x="34" y="207" type="line"/>
			<point x="37" y="206" type="line"/>
			<point x="37" y="207"/>
			<point x="38" y="208"/>
			<point x="39" y="209" type="curve" smooth="yes"/>
			<point x="40" y="210"/>
			<point x="40" y="211"/>
			<point x="41" y="212" type="curve"/>
			<point x="43" y="210" type="line" smooth="yes"/>
			<point x="44" y="209"/>
			<point x="44" y="209"/>
			<point x="44" y="208" type="curve"/>
			<point x="45" y="203"/>
			<point x="49" y="199"/>
			<point x="56" y="196" type="curve" smooth="yes"/>
			<point x="61" y="194"/>
			<point x="64" y="191"/>
			<point x="65" y="188" type="curve"/>
			<point x="68" y="182" type="line"/>
			<point x="68" y="140" type="line"/>
			<point x="70" y="137" type="line"/>
			<point x="71" y="136"/>
			<point x="71" y="134"/>
			<point x="72" y="133" type="curve" smooth="yes"/>
			<point x="75" y="130"/>
			<point x="77" y="129"/>
		</contour>
	</outline>
	<lib>
		<dict>
			<key>com.schriftgestaltung.Glyphs.lastChange</key>
			<string>2019-04-20 11:18:58 +0000</string>
			<key>public.markColor</key>
			<string>0.67,0.95,0.38,1</string>
		</dict>
	</lib>
</glyph>
