<?xml version="1.0" encoding="UTF-8"?>
<glyph name="five" format="2">
	<advance width="463"/>
	<unicode hex="0035"/>
	<note>
		five
  </note>
	<outline>
		<contour>
			<point x="161" y="-66" type="line"/>
			<point x="162" y="-66"/>
			<point x="163" y="-65"/>
			<point x="166" y="-64" type="curve"/>
			<point x="167" y="-63"/>
			<point x="168" y="-63"/>
			<point x="170" y="-63" type="curve" smooth="yes"/>
			<point x="173" y="-63" type="line"/>
			<point x="174" y="-64"/>
			<point x="174" y="-64"/>
			<point x="175" y="-63" type="curve"/>
			<point x="178" y="-59" type="line"/>
			<point x="180" y="-58" type="line"/>
			<point x="183" y="-58"/>
			<point x="184" y="-58"/>
			<point x="185" y="-59" type="curve"/>
			<point x="188" y="-56" type="line" smooth="yes"/>
			<point x="190" y="-54"/>
			<point x="194" y="-54"/>
			<point x="203" y="-54" type="curve"/>
			<point x="206" y="-49"/>
			<point x="208" y="-45"/>
			<point x="211" y="-42" type="curve"/>
			<point x="217" y="-42" type="line"/>
			<point x="219" y="-39"/>
			<point x="224" y="-36"/>
			<point x="232" y="-30" type="curve"/>
			<point x="236" y="-30"/>
			<point x="238" y="-29"/>
			<point x="238" y="-27" type="curve"/>
			<point x="240" y="-27"/>
			<point x="241" y="-26"/>
			<point x="243" y="-24" type="curve"/>
			<point x="247" y="-24"/>
			<point x="250" y="-23"/>
			<point x="253" y="-19" type="curve"/>
			<point x="255" y="-16"/>
			<point x="256" y="-15"/>
			<point x="260" y="-15" type="curve" smooth="yes"/>
			<point x="264" y="-15" type="line"/>
			<point x="263" y="-8"/>
			<point x="265" y="-6"/>
			<point x="268" y="-5" type="curve"/>
			<point x="271" y="-5"/>
			<point x="273" y="-4"/>
			<point x="276" y="-3" type="curve"/>
			<point x="274" y="-1"/>
			<point x="274" y="3"/>
			<point x="276" y="3" type="curve" smooth="yes"/>
			<point x="279" y="3"/>
			<point x="279" y="6"/>
			<point x="279" y="8" type="curve"/>
			<point x="283" y="8"/>
			<point x="285" y="9"/>
			<point x="286" y="12" type="curve"/>
			<point x="286" y="14"/>
			<point x="288" y="15"/>
			<point x="290" y="17" type="curve"/>
			<point x="290" y="20"/>
			<point x="292" y="23"/>
			<point x="295" y="23" type="curve" smooth="yes"/>
			<point x="298" y="23"/>
			<point x="300" y="26"/>
			<point x="300" y="29" type="curve"/>
			<point x="301" y="29"/>
			<point x="302" y="29"/>
			<point x="303" y="28" type="curve" smooth="yes"/>
			<point x="304" y="27"/>
			<point x="306" y="26"/>
			<point x="308" y="26" type="curve"/>
			<point x="311" y="33"/>
			<point x="315" y="38"/>
			<point x="320" y="41" type="curve"/>
			<point x="320" y="39"/>
			<point x="321" y="38"/>
			<point x="323" y="38" type="curve" smooth="yes"/>
			<point x="325" y="38"/>
			<point x="326" y="39"/>
			<point x="326" y="41" type="curve"/>
			<point x="324" y="41"/>
			<point x="323" y="44"/>
			<point x="323" y="49" type="curve"/>
			<point x="328" y="48"/>
			<point x="331" y="48"/>
			<point x="330" y="51" type="curve"/>
			<point x="329" y="52"/>
			<point x="329" y="54"/>
			<point x="329" y="58" type="curve"/>
			<point x="333" y="60"/>
			<point x="337" y="63"/>
			<point x="339" y="66" type="curve" smooth="yes"/>
			<point x="341" y="69"/>
			<point x="345" y="73"/>
			<point x="349" y="76" type="curve"/>
			<point x="349" y="87" type="line"/>
			<point x="353" y="84"/>
			<point x="356" y="89"/>
			<point x="356" y="94" type="curve"/>
			<point x="357" y="96"/>
			<point x="359" y="96"/>
			<point x="362" y="97" type="curve"/>
			<point x="364" y="98"/>
			<point x="366" y="100"/>
			<point x="367" y="102" type="curve"/>
			<point x="364" y="103"/>
			<point x="363" y="105"/>
			<point x="365" y="107" type="curve" smooth="yes"/>
			<point x="368" y="110"/>
			<point x="370" y="114"/>
			<point x="371" y="118" type="curve"/>
			<point x="373" y="124" type="line"/>
			<point x="377" y="124" type="line"/>
			<point x="377" y="129" type="line" smooth="yes"/>
			<point x="377" y="131"/>
			<point x="378" y="131"/>
			<point x="379" y="133" type="curve"/>
			<point x="381" y="134"/>
			<point x="382" y="136"/>
			<point x="382" y="138" type="curve" smooth="yes"/>
			<point x="382" y="139"/>
			<point x="383" y="140"/>
			<point x="384" y="140" type="curve"/>
			<point x="385" y="139"/>
			<point x="385" y="140"/>
			<point x="385" y="141" type="curve"/>
			<point x="386" y="146"/>
			<point x="389" y="149"/>
			<point x="392" y="150" type="curve"/>
			<point x="394" y="151"/>
			<point x="395" y="151"/>
			<point x="396" y="152" type="curve"/>
			<point x="396" y="161"/>
			<point x="398" y="164"/>
			<point x="405" y="167" type="curve"/>
			<point x="405" y="178"/>
			<point x="410" y="185"/>
			<point x="415" y="192" type="curve" smooth="yes"/>
			<point x="418" y="196"/>
			<point x="422" y="196"/>
			<point x="424" y="196" type="curve"/>
			<point x="424" y="205"/>
			<point x="425" y="211"/>
			<point x="429" y="217" type="curve"/>
			<point x="429" y="224" type="line"/>
			<point x="432" y="234" type="line"/>
			<point x="435" y="247" type="line"/>
			<point x="438" y="253"/>
			<point x="440" y="255"/>
			<point x="443" y="255" type="curve"/>
			<point x="443" y="276" type="line" smooth="yes"/>
			<point x="443" y="302"/>
			<point x="442" y="320"/>
			<point x="440" y="330" type="curve"/>
			<point x="438" y="367"/>
			<point x="422" y="399"/>
			<point x="391" y="425" type="curve"/>
			<point x="390" y="425"/>
			<point x="388" y="427"/>
			<point x="388" y="427" type="curve"/>
			<point x="387" y="429"/>
			<point x="386" y="430"/>
			<point x="385" y="429" type="curve" smooth="yes"/>
			<point x="382" y="426"/>
			<point x="379" y="430"/>
			<point x="379" y="432" type="curve"/>
			<point x="362" y="432" type="line"/>
			<point x="360" y="434"/>
			<point x="359" y="436"/>
			<point x="360" y="438" type="curve"/>
			<point x="360" y="440"/>
			<point x="358" y="440"/>
			<point x="356" y="439" type="curve"/>
			<point x="354" y="441"/>
			<point x="348" y="441"/>
			<point x="340" y="441" type="curve"/>
			<point x="335" y="447"/>
			<point x="327" y="450"/>
			<point x="317" y="450" type="curve"/>
			<point x="317" y="451"/>
			<point x="317" y="453"/>
			<point x="316" y="456" type="curve"/>
			<point x="311" y="462" type="line"/>
			<point x="308" y="462"/>
			<point x="306" y="461"/>
			<point x="304" y="458" type="curve"/>
			<point x="302" y="457"/>
			<point x="300" y="456"/>
			<point x="297" y="456" type="curve" smooth="yes"/>
			<point x="294" y="456" type="line"/>
			<point x="288" y="458" type="line"/>
			<point x="286" y="459"/>
			<point x="284" y="460"/>
			<point x="282" y="462" type="curve"/>
			<point x="279" y="458" type="line"/>
			<point x="274" y="458"/>
			<point x="273" y="459"/>
			<point x="273" y="462" type="curve"/>
			<point x="271" y="460" type="line"/>
			<point x="271" y="459"/>
			<point x="269" y="459"/>
			<point x="267" y="462" type="curve"/>
			<point x="266" y="464"/>
			<point x="264" y="465"/>
			<point x="261" y="465" type="curve" smooth="yes"/>
			<point x="256" y="465"/>
			<point x="251" y="464"/>
			<point x="242" y="463" type="curve"/>
			<point x="240" y="462"/>
			<point x="238" y="462"/>
			<point x="235" y="462" type="curve" smooth="yes"/>
			<point x="234" y="462"/>
			<point x="233" y="464"/>
			<point x="232" y="464" type="curve" smooth="yes"/>
			<point x="231" y="464"/>
			<point x="230" y="465"/>
			<point x="228" y="465" type="curve"/>
			<point x="221" y="466"/>
			<point x="214" y="467"/>
			<point x="209" y="467" type="curve" smooth="yes"/>
			<point x="202" y="467" type="line"/>
			<point x="193" y="466"/>
			<point x="186" y="467"/>
			<point x="178" y="469" type="curve"/>
			<point x="175" y="469"/>
			<point x="172" y="469"/>
			<point x="170" y="470" type="curve" smooth="yes"/>
			<point x="168" y="471"/>
			<point x="165" y="471"/>
			<point x="161" y="471" type="curve"/>
			<point x="160" y="472" type="line"/>
			<point x="160" y="473"/>
			<point x="160" y="473"/>
			<point x="161" y="473" type="curve"/>
			<point x="158" y="473"/>
			<point x="156" y="473"/>
			<point x="156" y="471" type="curve" smooth="yes"/>
			<point x="156" y="469" type="line"/>
			<point x="152" y="471" type="line"/>
			<point x="149" y="473"/>
			<point x="146" y="474"/>
			<point x="146" y="474" type="curve"/>
			<point x="145" y="473"/>
			<point x="142" y="473"/>
			<point x="137" y="473" type="curve"/>
			<point x="137" y="475"/>
			<point x="134" y="476"/>
			<point x="128" y="476" type="curve"/>
			<point x="121" y="478" type="line"/>
			<point x="120" y="477"/>
			<point x="117" y="478"/>
			<point x="114" y="479" type="curve"/>
			<point x="111" y="482"/>
			<point x="109" y="486"/>
			<point x="108" y="490" type="curve"/>
			<point x="106" y="496"/>
			<point x="107" y="504"/>
			<point x="111" y="513" type="curve"/>
			<point x="114" y="526" type="line"/>
			<point x="120" y="530"/>
			<point x="123" y="534"/>
			<point x="123" y="539" type="curve" smooth="yes"/>
			<point x="123" y="541"/>
			<point x="124" y="541"/>
			<point x="125" y="541" type="curve" smooth="yes"/>
			<point x="126" y="541" type="line"/>
			<point x="130" y="549"/>
			<point x="131" y="556"/>
			<point x="131" y="562" type="curve"/>
			<point x="135" y="562"/>
			<point x="138" y="564"/>
			<point x="139" y="566" type="curve"/>
			<point x="140" y="569"/>
			<point x="142" y="571"/>
			<point x="146" y="571" type="curve"/>
			<point x="145" y="575"/>
			<point x="146" y="579"/>
			<point x="148" y="583" type="curve"/>
			<point x="156" y="592" type="line"/>
			<point x="156" y="595" type="line" smooth="yes"/>
			<point x="156" y="596"/>
			<point x="158" y="597"/>
			<point x="161" y="597" type="curve"/>
			<point x="161" y="612" type="line"/>
			<point x="165" y="615" type="line"/>
			<point x="166" y="616"/>
			<point x="167" y="617"/>
			<point x="167" y="618" type="curve" smooth="yes"/>
			<point x="167" y="623"/>
			<point x="168" y="624"/>
			<point x="170" y="624" type="curve"/>
			<point x="175" y="623"/>
			<point x="179" y="623"/>
			<point x="182" y="625" type="curve"/>
			<point x="186" y="626"/>
			<point x="190" y="627"/>
			<point x="193" y="626" type="curve" smooth="yes"/>
			<point x="199" y="624"/>
			<point x="203" y="627"/>
			<point x="204" y="626" type="curve" smooth="yes"/>
			<point x="205" y="625"/>
			<point x="207" y="626"/>
			<point x="208" y="626" type="curve"/>
			<point x="209" y="628"/>
			<point x="212" y="629"/>
			<point x="215" y="629" type="curve"/>
			<point x="223" y="628"/>
			<point x="227" y="626"/>
			<point x="230" y="626" type="curve"/>
			<point x="235" y="624" type="line"/>
			<point x="261" y="624" type="line"/>
			<point x="270" y="623"/>
			<point x="281" y="624"/>
			<point x="296" y="623" type="curve" smooth="yes"/>
			<point x="324" y="621"/>
			<point x="342" y="624"/>
			<point x="349" y="626" type="curve"/>
			<point x="348" y="627"/>
			<point x="348" y="627"/>
			<point x="349" y="628" type="curve"/>
			<point x="349" y="629"/>
			<point x="350" y="630"/>
			<point x="353" y="630" type="curve" smooth="yes"/>
			<point x="358" y="630" type="line"/>
			<point x="362" y="631"/>
			<point x="363" y="633"/>
			<point x="364" y="636" type="curve" smooth="yes"/>
			<point x="365" y="639"/>
			<point x="366" y="639"/>
			<point x="367" y="639" type="curve"/>
			<point x="370" y="640"/>
			<point x="370" y="642"/>
			<point x="369" y="642" type="curve" smooth="yes"/>
			<point x="367" y="642"/>
			<point x="368" y="644"/>
			<point x="371" y="644" type="curve"/>
			<point x="371" y="683" type="line"/>
			<point x="368" y="687"/>
			<point x="364" y="691"/>
			<point x="360" y="695" type="curve"/>
			<point x="356" y="698"/>
			<point x="352" y="702"/>
			<point x="349" y="706" type="curve"/>
			<point x="328" y="707"/>
			<point x="310" y="709"/>
			<point x="297" y="708" type="curve" smooth="yes"/>
			<point x="278" y="707"/>
			<point x="263" y="710"/>
			<point x="250" y="713" type="curve"/>
			<point x="217" y="713" type="line"/>
			<point x="214" y="714"/>
			<point x="209" y="714"/>
			<point x="206" y="714" type="curve" smooth="yes"/>
			<point x="202" y="714" type="line"/>
			<point x="195" y="713"/>
			<point x="183" y="711"/>
			<point x="177" y="711" type="curve"/>
			<point x="167" y="712" type="line"/>
			<point x="162" y="713"/>
			<point x="155" y="713"/>
			<point x="146" y="713" type="curve"/>
			<point x="144" y="714"/>
			<point x="141" y="714"/>
			<point x="137" y="714" type="curve" smooth="yes"/>
			<point x="133" y="714" type="line"/>
			<point x="131" y="713"/>
			<point x="127" y="713"/>
			<point x="123" y="713" type="curve" smooth="yes"/>
			<point x="117" y="713" type="line" smooth="yes"/>
			<point x="115" y="713"/>
			<point x="113" y="713"/>
			<point x="112" y="714" type="curve" smooth="yes"/>
			<point x="111" y="715"/>
			<point x="110" y="715"/>
			<point x="109" y="713" type="curve"/>
			<point x="109" y="711"/>
			<point x="108" y="711"/>
			<point x="106" y="710" type="curve" smooth="yes"/>
			<point x="104" y="709"/>
			<point x="103" y="711"/>
			<point x="102" y="713" type="curve"/>
			<point x="99" y="709" type="line"/>
			<point x="93" y="706"/>
			<point x="90" y="706"/>
			<point x="87" y="709" type="curve"/>
			<point x="86" y="706"/>
			<point x="86" y="705"/>
			<point x="87" y="703" type="curve"/>
			<point x="87" y="703"/>
			<point x="88" y="703"/>
			<point x="87" y="701" type="curve"/>
			<point x="84" y="702"/>
			<point x="82" y="702"/>
			<point x="81" y="701" type="curve" smooth="yes"/>
			<point x="79" y="699" type="line"/>
			<point x="77" y="696" type="line"/>
			<point x="76" y="695"/>
			<point x="73" y="695"/>
			<point x="70" y="698" type="curve"/>
			<point x="70" y="693"/>
			<point x="69" y="689"/>
			<point x="65" y="688" type="curve"/>
			<point x="58" y="683" type="line"/>
			<point x="56" y="681"/>
			<point x="55" y="677"/>
			<point x="55" y="671" type="curve"/>
			<point x="52" y="671" type="line"/>
			<point x="52" y="669" type="line" smooth="yes"/>
			<point x="52" y="665"/>
			<point x="47" y="664"/>
			<point x="46" y="665" type="curve"/>
			<point x="46" y="662"/>
			<point x="47" y="660"/>
			<point x="48" y="657" type="curve"/>
			<point x="49" y="657"/>
			<point x="49" y="655"/>
			<point x="49" y="654" type="curve"/>
			<point x="44" y="654"/>
			<point x="43" y="653"/>
			<point x="43" y="651" type="curve"/>
			<point x="47" y="651"/>
			<point x="49" y="650"/>
			<point x="49" y="647" type="curve"/>
			<point x="47" y="645"/>
			<point x="47" y="643"/>
			<point x="48" y="641" type="curve"/>
			<point x="51" y="636" type="line"/>
			<point x="53" y="630"/>
			<point x="52" y="626"/>
			<point x="49" y="624" type="curve"/>
			<point x="58" y="615" type="line"/>
			<point x="58" y="609" type="line"/>
			<point x="60" y="604" type="line"/>
			<point x="61" y="602"/>
			<point x="61" y="600"/>
			<point x="61" y="598" type="curve" smooth="yes"/>
			<point x="61" y="596" type="line"/>
			<point x="58" y="586" type="line"/>
			<point x="57" y="586"/>
			<point x="56" y="585"/>
			<point x="57" y="584" type="curve" smooth="yes"/>
			<point x="58" y="583"/>
			<point x="58" y="582"/>
			<point x="58" y="580" type="curve"/>
			<point x="55" y="580" type="line"/>
			<point x="53" y="575"/>
			<point x="52" y="571"/>
			<point x="52" y="564" type="curve"/>
			<point x="49" y="564" type="line"/>
			<point x="46" y="556" type="line"/>
			<point x="43" y="550" type="line"/>
			<point x="43" y="549"/>
			<point x="43" y="548"/>
			<point x="42" y="547" type="curve" smooth="yes"/>
			<point x="41" y="546"/>
			<point x="41" y="545"/>
			<point x="41" y="541" type="curve" smooth="yes"/>
			<point x="41" y="540"/>
			<point x="40" y="539"/>
			<point x="39" y="539" type="curve" smooth="yes"/>
			<point x="38" y="539" type="line"/>
			<point x="38" y="538"/>
			<point x="38" y="537"/>
			<point x="39" y="538" type="curve"/>
			<point x="40" y="538"/>
			<point x="41" y="537"/>
			<point x="41" y="536" type="curve" smooth="yes"/>
			<point x="41" y="533"/>
			<point x="38" y="534"/>
			<point x="38" y="536" type="curve"/>
			<point x="37" y="530"/>
			<point x="35" y="525"/>
			<point x="32" y="520" type="curve"/>
			<point x="30" y="516"/>
			<point x="28" y="511"/>
			<point x="28" y="506" type="curve"/>
			<point x="26" y="506" type="line"/>
			<point x="23" y="501"/>
			<point x="23" y="495"/>
			<point x="23" y="488" type="curve" smooth="yes"/>
			<point x="23" y="487"/>
			<point x="23" y="487"/>
			<point x="22" y="486" type="curve" smooth="yes"/>
			<point x="21" y="485"/>
			<point x="20" y="482"/>
			<point x="20" y="479" type="curve"/>
			<point x="20" y="479"/>
			<point x="22" y="478"/>
			<point x="22" y="476" type="curve" smooth="yes"/>
			<point x="22" y="475"/>
			<point x="23" y="475"/>
			<point x="23" y="473" type="curve" smooth="yes"/>
			<point x="23" y="472"/>
			<point x="23" y="469"/>
			<point x="24" y="465" type="curve"/>
			<point x="26" y="462" type="line"/>
			<point x="27" y="456"/>
			<point x="27" y="452"/>
			<point x="28" y="450" type="curve" smooth="yes"/>
			<point x="31" y="444" type="line"/>
			<point x="32" y="443"/>
			<point x="32" y="442"/>
			<point x="32" y="441" type="curve"/>
			<point x="31" y="439" type="line"/>
			<point x="35" y="439" type="line"/>
			<point x="35" y="432" type="line"/>
			<point x="38" y="432" type="line"/>
			<point x="38" y="429" type="line" smooth="yes"/>
			<point x="38" y="428"/>
			<point x="38" y="426"/>
			<point x="39" y="426" type="curve"/>
			<point x="43" y="424" type="line"/>
			<point x="48" y="417" type="line"/>
			<point x="52" y="411" type="line"/>
			<point x="58" y="411" type="line"/>
			<point x="60" y="407" type="line"/>
			<point x="61" y="404"/>
			<point x="62" y="403"/>
			<point x="64" y="403" type="curve"/>
			<point x="66" y="401"/>
			<point x="69" y="400"/>
			<point x="76" y="400" type="curve"/>
			<point x="79" y="395" type="line"/>
			<point x="80" y="394"/>
			<point x="81" y="395"/>
			<point x="82" y="394" type="curve" smooth="yes"/>
			<point x="83" y="393"/>
			<point x="84" y="394"/>
			<point x="84" y="393" type="curve"/>
			<point x="83" y="392"/>
			<point x="84" y="392"/>
			<point x="85" y="391" type="curve" smooth="yes"/>
			<point x="87" y="389"/>
			<point x="90" y="391"/>
			<point x="93" y="390" type="curve"/>
			<point x="97" y="389"/>
			<point x="100" y="388"/>
			<point x="102" y="388" type="curve"/>
			<point x="109" y="390" type="line"/>
			<point x="112" y="391"/>
			<point x="115" y="391"/>
			<point x="117" y="391" type="curve" smooth="yes"/>
			<point x="146" y="391" type="line" smooth="yes"/>
			<point x="148" y="391"/>
			<point x="150" y="393"/>
			<point x="153" y="394" type="curve" smooth="yes"/>
			<point x="156" y="395"/>
			<point x="159" y="396"/>
			<point x="161" y="396" type="curve"/>
			<point x="169" y="393"/>
			<point x="176" y="391"/>
			<point x="181" y="391" type="curve" smooth="yes"/>
			<point x="182" y="391"/>
			<point x="184" y="392"/>
			<point x="187" y="393" type="curve"/>
			<point x="188" y="394"/>
			<point x="189" y="394"/>
			<point x="191" y="394" type="curve" smooth="yes"/>
			<point x="203" y="394" type="line"/>
			<point x="206" y="392"/>
			<point x="208" y="391"/>
			<point x="211" y="391" type="curve" smooth="yes"/>
			<point x="228" y="391" type="line" smooth="yes"/>
			<point x="229" y="391"/>
			<point x="231" y="391"/>
			<point x="232" y="390" type="curve" smooth="yes"/>
			<point x="233" y="389"/>
			<point x="234" y="388"/>
			<point x="235" y="388" type="curve" smooth="yes"/>
			<point x="237" y="388"/>
			<point x="238" y="389"/>
			<point x="238" y="390" type="curve" smooth="yes"/>
			<point x="238" y="391" type="line"/>
			<point x="239" y="391"/>
			<point x="240" y="391"/>
			<point x="240" y="390" type="curve"/>
			<point x="241" y="388" type="line"/>
			<point x="279" y="388" type="line"/>
			<point x="281" y="386"/>
			<point x="282" y="384"/>
			<point x="282" y="382" type="curve"/>
			<point x="285" y="381"/>
			<point x="288" y="380"/>
			<point x="291" y="381" type="curve"/>
			<point x="300" y="382" type="line"/>
			<point x="300" y="380" type="line"/>
			<point x="300" y="380"/>
			<point x="301" y="380"/>
			<point x="302" y="379" type="curve" smooth="yes"/>
			<point x="303" y="378"/>
			<point x="306" y="378"/>
			<point x="308" y="377" type="curve"/>
			<point x="317" y="377" type="line"/>
			<point x="319" y="375" type="line" smooth="yes"/>
			<point x="320" y="374"/>
			<point x="322" y="374"/>
			<point x="323" y="374" type="curve"/>
			<point x="326" y="371"/>
			<point x="329" y="369"/>
			<point x="332" y="368" type="curve"/>
			<point x="339" y="364" type="line"/>
			<point x="347" y="357"/>
			<point x="350" y="353"/>
			<point x="350" y="353" type="curve"/>
			<point x="356" y="347"/>
			<point x="358" y="344"/>
			<point x="358" y="339" type="curve" smooth="yes"/>
			<point x="358" y="337"/>
			<point x="360" y="334"/>
			<point x="364" y="330" type="curve"/>
			<point x="365" y="327"/>
			<point x="365" y="324"/>
			<point x="365" y="318" type="curve" smooth="yes"/>
			<point x="365" y="312" type="line"/>
			<point x="364" y="308"/>
			<point x="364" y="302"/>
			<point x="364" y="297" type="curve" smooth="yes"/>
			<point x="364" y="296"/>
			<point x="364" y="294"/>
			<point x="363" y="294" type="curve" smooth="yes"/>
			<point x="362" y="294" type="line"/>
			<point x="362" y="279" type="line"/>
			<point x="362" y="279"/>
			<point x="361" y="277"/>
			<point x="359" y="276" type="curve"/>
			<point x="356" y="276"/>
			<point x="354" y="275"/>
			<point x="356" y="273" type="curve" smooth="yes"/>
			<point x="357" y="272"/>
			<point x="356" y="271"/>
			<point x="357" y="270" type="curve" smooth="yes"/>
			<point x="358" y="269"/>
			<point x="358" y="268"/>
			<point x="358" y="264" type="curve"/>
			<point x="356" y="264" type="line" smooth="yes"/>
			<point x="355" y="264"/>
			<point x="355" y="264"/>
			<point x="356" y="261" type="curve"/>
			<point x="357" y="257"/>
			<point x="355" y="255"/>
			<point x="353" y="255" type="curve"/>
			<point x="353" y="252"/>
			<point x="353" y="250"/>
			<point x="354" y="249" type="curve"/>
			<point x="354" y="248"/>
			<point x="352" y="247"/>
			<point x="349" y="247" type="curve"/>
			<point x="351" y="243"/>
			<point x="350" y="238"/>
			<point x="347" y="231" type="curve"/>
			<point x="342" y="225"/>
			<point x="340" y="222"/>
			<point x="340" y="220" type="curve"/>
			<point x="343" y="220" type="line" smooth="yes"/>
			<point x="344" y="220"/>
			<point x="346" y="218"/>
			<point x="343" y="217" type="curve"/>
			<point x="339" y="217" type="line"/>
			<point x="339" y="215" type="line"/>
			<point x="339" y="211" type="line"/>
			<point x="332" y="211" type="line"/>
			<point x="332" y="209"/>
			<point x="332" y="207"/>
			<point x="330" y="206" type="curve" smooth="yes"/>
			<point x="328" y="205"/>
			<point x="328" y="202"/>
			<point x="329" y="196" type="curve"/>
			<point x="328" y="196"/>
			<point x="327" y="196"/>
			<point x="326" y="195" type="curve"/>
			<point x="323" y="194" type="line"/>
			<point x="323" y="193"/>
			<point x="319" y="191"/>
			<point x="319" y="187" type="curve" smooth="yes"/>
			<point x="319" y="184" type="line" smooth="yes"/>
			<point x="319" y="182"/>
			<point x="317" y="180"/>
			<point x="315" y="181" type="curve"/>
			<point x="312" y="176"/>
			<point x="311" y="171"/>
			<point x="310" y="168" type="curve"/>
			<point x="309" y="163"/>
			<point x="306" y="161"/>
			<point x="300" y="159" type="curve"/>
			<point x="301" y="156"/>
			<point x="301" y="153"/>
			<point x="300" y="152" type="curve"/>
			<point x="298" y="151"/>
			<point x="297" y="149"/>
			<point x="297" y="144" type="curve" smooth="yes"/>
			<point x="297" y="143"/>
			<point x="296" y="142"/>
			<point x="294" y="143" type="curve"/>
			<point x="291" y="143"/>
			<point x="290" y="142"/>
			<point x="290" y="141" type="curve"/>
			<point x="289" y="141"/>
			<point x="288" y="140"/>
			<point x="288" y="137" type="curve" smooth="yes"/>
			<point x="288" y="134" type="line"/>
			<point x="287" y="131"/>
			<point x="286" y="130"/>
			<point x="283" y="129" type="curve"/>
			<point x="279" y="129"/>
			<point x="277" y="127"/>
			<point x="276" y="124" type="curve"/>
			<point x="275" y="124"/>
			<point x="273" y="123"/>
			<point x="273" y="122" type="curve" smooth="yes"/>
			<point x="273" y="121"/>
			<point x="271" y="120"/>
			<point x="271" y="120" type="curve"/>
			<point x="271" y="115"/>
			<point x="270" y="113"/>
			<point x="267" y="112" type="curve"/>
			<point x="263" y="109" type="line"/>
			<point x="262" y="108"/>
			<point x="261" y="106"/>
			<point x="261" y="105" type="curve" smooth="yes"/>
			<point x="261" y="102"/>
			<point x="260" y="100"/>
			<point x="257" y="100" type="curve" smooth="yes"/>
			<point x="256" y="100"/>
			<point x="256" y="101"/>
			<point x="255" y="101" type="curve" smooth="yes"/>
			<point x="254" y="101"/>
			<point x="253" y="102"/>
			<point x="250" y="102" type="curve"/>
			<point x="253" y="96"/>
			<point x="250" y="94"/>
			<point x="243" y="94" type="curve" smooth="yes"/>
			<point x="242" y="94"/>
			<point x="241" y="92"/>
			<point x="241" y="89" type="curve" smooth="yes"/>
			<point x="241" y="87"/>
			<point x="240" y="84"/>
			<point x="238" y="84" type="curve" smooth="yes"/>
			<point x="235" y="84"/>
			<point x="234" y="84"/>
			<point x="232" y="80" type="curve" smooth="yes"/>
			<point x="231" y="78"/>
			<point x="228" y="78"/>
			<point x="224" y="79" type="curve"/>
			<point x="217" y="79" type="line"/>
			<point x="209" y="82" type="line"/>
			<point x="208" y="83"/>
			<point x="206" y="85"/>
			<point x="206" y="87" type="curve" smooth="yes"/>
			<point x="206" y="90" type="line"/>
			<point x="199" y="90" type="line"/>
			<point x="199" y="96" type="line"/>
			<point x="202" y="96"/>
			<point x="204" y="96"/>
			<point x="206" y="94" type="curve"/>
			<point x="203" y="96" type="line"/>
			<point x="205" y="99"/>
			<point x="206" y="102"/>
			<point x="206" y="102" type="curve"/>
			<point x="206" y="103" type="line" smooth="yes"/>
			<point x="206" y="104"/>
			<point x="205" y="105"/>
			<point x="203" y="105" type="curve"/>
			<point x="203" y="106"/>
			<point x="203" y="107"/>
			<point x="204" y="108" type="curve"/>
			<point x="206" y="109" type="line"/>
			<point x="206" y="115"/>
			<point x="205" y="118"/>
			<point x="203" y="120" type="curve"/>
			<point x="203" y="121"/>
			<point x="202" y="123"/>
			<point x="201" y="124" type="curve" smooth="yes"/>
			<point x="200" y="125"/>
			<point x="199" y="126"/>
			<point x="199" y="127" type="curve"/>
			<point x="197" y="127"/>
			<point x="196" y="128"/>
			<point x="196" y="129" type="curve"/>
			<point x="167" y="129" type="line"/>
			<point x="167" y="128" type="line" smooth="yes"/>
			<point x="167" y="127"/>
			<point x="166" y="127"/>
			<point x="164" y="127" type="curve"/>
			<point x="161" y="124" type="line"/>
			<point x="159" y="124" type="line"/>
			<point x="159" y="120" type="line"/>
			<point x="156" y="120" type="line"/>
			<point x="152" y="117"/>
			<point x="149" y="114"/>
			<point x="146" y="109" type="curve"/>
			<point x="141" y="102" type="line"/>
			<point x="139" y="101"/>
			<point x="138" y="101"/>
			<point x="139" y="100" type="curve" smooth="yes"/>
			<point x="140" y="99"/>
			<point x="139" y="98"/>
			<point x="137" y="96" type="curve"/>
			<point x="137" y="94" type="line"/>
			<point x="133" y="90" type="line" smooth="yes"/>
			<point x="132" y="89"/>
			<point x="132" y="89"/>
			<point x="131" y="90" type="curve"/>
			<point x="131" y="84"/>
			<point x="131" y="81"/>
			<point x="128" y="80" type="curve"/>
			<point x="126" y="79"/>
			<point x="125" y="75"/>
			<point x="126" y="70" type="curve"/>
			<point x="125" y="70"/>
			<point x="122" y="69"/>
			<point x="117" y="64" type="curve"/>
			<point x="120" y="64"/>
			<point x="121" y="64"/>
			<point x="118" y="61" type="curve" smooth="yes"/>
			<point x="115" y="58"/>
			<point x="115" y="54"/>
			<point x="117" y="52" type="curve"/>
			<point x="111" y="52"/>
			<point x="111" y="51"/>
			<point x="111" y="43" type="curve" smooth="yes"/>
			<point x="111" y="42"/>
			<point x="110" y="41"/>
			<point x="110" y="41" type="curve"/>
			<point x="105" y="38" type="line"/>
			<point x="105" y="32" type="line" smooth="yes"/>
			<point x="105" y="30"/>
			<point x="104" y="29"/>
			<point x="103" y="29" type="curve"/>
			<point x="102" y="28" type="line"/>
			<point x="104" y="28" type="line"/>
			<point x="104" y="27"/>
			<point x="104" y="27"/>
			<point x="105" y="26" type="curve" smooth="yes"/>
			<point x="106" y="25"/>
			<point x="105" y="24"/>
			<point x="102" y="23" type="curve"/>
			<point x="100" y="22"/>
			<point x="100" y="19"/>
			<point x="102" y="15" type="curve"/>
			<point x="105" y="8" type="line"/>
			<point x="105" y="-3" type="line"/>
			<point x="109" y="-3" type="line"/>
			<point x="109" y="-6" type="line" smooth="yes"/>
			<point x="109" y="-8"/>
			<point x="110" y="-10"/>
			<point x="110" y="-13" type="curve"/>
			<point x="111" y="-15"/>
			<point x="111" y="-17"/>
			<point x="111" y="-21" type="curve" smooth="yes"/>
			<point x="111" y="-27" type="line"/>
			<point x="113" y="-30" type="line"/>
			<point x="114" y="-32" type="line"/>
			<point x="114" y="-34" type="line"/>
			<point x="117" y="-39" type="line"/>
			<point x="118" y="-42"/>
			<point x="120" y="-43"/>
			<point x="123" y="-44" type="curve"/>
			<point x="127" y="-49" type="line"/>
			<point x="130" y="-52"/>
			<point x="133" y="-54"/>
			<point x="138" y="-57" type="curve"/>
			<point x="141" y="-59"/>
			<point x="142" y="-61"/>
			<point x="143" y="-63" type="curve"/>
			<point x="159" y="-63" type="line"/>
		</contour>
	</outline>
	<lib>
		<dict>
			<key>com.schriftgestaltung.Glyphs.lastChange</key>
			<string>2019-04-20 11:13:30 +0000</string>
			<key>public.markColor</key>
			<string>0.67,0.95,0.38,1</string>
		</dict>
	</lib>
</glyph>
