<?xml version="1.0" encoding="UTF-8"?>
<glyph name="i" format="2">
	<advance width="249"/>
	<unicode hex="0069"/>
	<note>
		i
  </note>
	<outline>
		<contour>
			<point x="129" y="-29" type="curve"/>
			<point x="136" y="-29" type="line" smooth="yes"/>
			<point x="136" y="-29"/>
			<point x="136" y="-29"/>
			<point x="136" y="-29" type="curve"/>
			<point x="147" y="-27"/>
			<point x="153" y="-22"/>
			<point x="161" y="-14" type="curve"/>
			<point x="164" y="-12"/>
			<point x="165" y="-10"/>
			<point x="165" y="-6" type="curve"/>
			<point x="164" y="-6"/>
			<point x="165" y="-5"/>
			<point x="165" y="-5" type="curve"/>
			<point x="168" y="3"/>
			<point x="169" y="11"/>
			<point x="167" y="19" type="curve"/>
			<point x="166" y="27"/>
			<point x="163" y="31"/>
			<point x="159" y="37" type="curve"/>
			<point x="158" y="38"/>
			<point x="156" y="39"/>
			<point x="152" y="39" type="curve" smooth="yes"/>
			<point x="149" y="39"/>
			<point x="145" y="42"/>
			<point x="144" y="45" type="curve"/>
			<point x="143" y="49"/>
			<point x="142" y="51"/>
			<point x="142" y="53" type="curve"/>
			<point x="140" y="59"/>
			<point x="139" y="66"/>
			<point x="137" y="73" type="curve"/>
			<point x="136" y="76"/>
			<point x="135" y="79"/>
			<point x="131" y="81" type="curve"/>
			<point x="129" y="81"/>
			<point x="129" y="81"/>
			<point x="129" y="82" type="curve"/>
			<point x="132" y="82"/>
			<point x="135" y="83"/>
			<point x="137" y="83" type="curve"/>
			<point x="136" y="86"/>
			<point x="135" y="90"/>
			<point x="132" y="92" type="curve"/>
			<point x="131" y="93"/>
			<point x="131" y="95"/>
			<point x="129" y="97" type="curve"/>
			<point x="129" y="107" type="line"/>
			<point x="131" y="117"/>
			<point x="129" y="125"/>
			<point x="126" y="134" type="curve"/>
			<point x="125" y="134"/>
			<point x="125" y="135"/>
			<point x="126" y="135" type="curve"/>
			<point x="128" y="142"/>
			<point x="128" y="150"/>
			<point x="127" y="158" type="curve"/>
			<point x="127" y="165"/>
			<point x="126" y="173"/>
			<point x="129" y="179" type="curve"/>
			<point x="131" y="182"/>
			<point x="131" y="186"/>
			<point x="127" y="189" type="curve"/>
			<point x="127" y="191" type="line" smooth="yes"/>
			<point x="127" y="200"/>
			<point x="128" y="210"/>
			<point x="129" y="219" type="curve"/>
			<point x="129" y="229"/>
			<point x="131" y="240"/>
			<point x="128" y="251" type="curve"/>
			<point x="127" y="262"/>
			<point x="126" y="272"/>
			<point x="127" y="284" type="curve" smooth="yes"/>
			<point x="128" y="294"/>
			<point x="129" y="307"/>
			<point x="131" y="317" type="curve"/>
			<point x="131" y="328"/>
			<point x="132" y="339"/>
			<point x="132" y="349" type="curve"/>
			<point x="133" y="355"/>
			<point x="133" y="359"/>
			<point x="139" y="365" type="curve" smooth="yes"/>
			<point x="141" y="367"/>
			<point x="141" y="371"/>
			<point x="140" y="373" type="curve" smooth="yes"/>
			<point x="139" y="375"/>
			<point x="139" y="376"/>
			<point x="140" y="379" type="curve"/>
			<point x="142" y="383"/>
			<point x="143" y="387"/>
			<point x="141" y="391" type="curve"/>
			<point x="139" y="392"/>
			<point x="140" y="393"/>
			<point x="140" y="396" type="curve"/>
			<point x="141" y="398"/>
			<point x="143" y="400"/>
			<point x="143" y="405" type="curve"/>
			<point x="147" y="414"/>
			<point x="147" y="423"/>
			<point x="144" y="433" type="curve"/>
			<point x="142" y="443"/>
			<point x="139" y="453"/>
			<point x="136" y="462" type="curve"/>
			<point x="135" y="463" type="line"/>
			<point x="128" y="463"/>
			<point x="124" y="465"/>
			<point x="119" y="468" type="curve"/>
			<point x="116" y="469"/>
			<point x="111" y="469"/>
			<point x="108" y="468" type="curve"/>
			<point x="105" y="468" type="line" smooth="yes"/>
			<point x="101" y="468"/>
			<point x="97" y="464"/>
			<point x="94" y="461" type="curve"/>
			<point x="90" y="456" type="line"/>
			<point x="87" y="454"/>
			<point x="85" y="452"/>
			<point x="85" y="449" type="curve"/>
			<point x="84" y="444"/>
			<point x="83" y="439"/>
			<point x="83" y="435" type="curve" smooth="yes"/>
			<point x="83" y="421"/>
			<point x="83" y="409"/>
			<point x="84" y="397" type="curve"/>
			<point x="84" y="392"/>
			<point x="85" y="389"/>
			<point x="85" y="385" type="curve" smooth="yes"/>
			<point x="85" y="384" type="line"/>
			<point x="87" y="383"/>
			<point x="86" y="380"/>
			<point x="86" y="377" type="curve"/>
			<point x="87" y="363"/>
			<point x="87" y="347"/>
			<point x="87" y="331" type="curve" smooth="yes"/>
			<point x="87" y="314"/>
			<point x="87" y="299"/>
			<point x="84" y="283" type="curve"/>
			<point x="83" y="279"/>
			<point x="83" y="274"/>
			<point x="85" y="270" type="curve"/>
			<point x="87" y="269"/>
			<point x="87" y="267"/>
			<point x="87" y="264" type="curve" smooth="yes"/>
			<point x="87" y="257"/>
			<point x="87" y="251"/>
			<point x="86" y="244" type="curve"/>
			<point x="86" y="244"/>
			<point x="86" y="243"/>
			<point x="85" y="242" type="curve"/>
			<point x="83" y="238"/>
			<point x="83" y="232"/>
			<point x="85" y="229" type="curve"/>
			<point x="86" y="227"/>
			<point x="87" y="226"/>
			<point x="87" y="223" type="curve" smooth="yes"/>
			<point x="87" y="159" type="line" smooth="yes"/>
			<point x="87" y="155"/>
			<point x="86" y="150"/>
			<point x="86" y="146" type="curve" smooth="yes"/>
			<point x="86" y="139"/>
			<point x="87" y="132"/>
			<point x="87" y="125" type="curve"/>
			<point x="88" y="112"/>
			<point x="90" y="100"/>
			<point x="91" y="87" type="curve"/>
			<point x="91" y="82"/>
			<point x="91" y="77"/>
			<point x="93" y="71" type="curve"/>
			<point x="96" y="58"/>
			<point x="97" y="44"/>
			<point x="99" y="31" type="curve"/>
			<point x="100" y="20"/>
			<point x="100" y="11"/>
			<point x="103" y="1" type="curve"/>
			<point x="108" y="-13"/>
			<point x="115" y="-26"/>
		</contour>
		<contour>
			<point x="127" y="561" type="curve"/>
			<point x="128" y="561"/>
			<point x="131" y="561"/>
			<point x="131" y="563" type="curve"/>
			<point x="132" y="567"/>
			<point x="133" y="568"/>
			<point x="136" y="568" type="curve"/>
			<point x="141" y="569"/>
			<point x="144" y="571"/>
			<point x="145" y="576" type="curve"/>
			<point x="147" y="577"/>
			<point x="147" y="578"/>
			<point x="148" y="578" type="curve"/>
			<point x="150" y="580"/>
			<point x="155" y="583"/>
			<point x="157" y="586" type="curve"/>
			<point x="158" y="587"/>
			<point x="159" y="588"/>
			<point x="161" y="588" type="curve"/>
			<point x="166" y="587"/>
			<point x="169" y="590"/>
			<point x="174" y="593" type="curve"/>
			<point x="177" y="595"/>
			<point x="182" y="599"/>
			<point x="183" y="603" type="curve" smooth="yes"/>
			<point x="184" y="607" type="line"/>
			<point x="187" y="609"/>
			<point x="188" y="610"/>
			<point x="189" y="612" type="curve"/>
			<point x="191" y="615"/>
			<point x="192" y="617"/>
			<point x="194" y="619" type="curve"/>
			<point x="192" y="619"/>
			<point x="191" y="620"/>
			<point x="189" y="620" type="curve"/>
			<point x="194" y="620" type="line"/>
			<point x="198" y="622"/>
			<point x="201" y="623"/>
			<point x="205" y="625" type="curve"/>
			<point x="206" y="626"/>
			<point x="207" y="629"/>
			<point x="207" y="632" type="curve" smooth="yes"/>
			<point x="207" y="636" type="line"/>
			<point x="209" y="646"/>
			<point x="211" y="655"/>
			<point x="213" y="664" type="curve"/>
			<point x="213" y="666"/>
			<point x="215" y="668"/>
			<point x="217" y="672" type="curve"/>
			<point x="220" y="676"/>
			<point x="220" y="680"/>
			<point x="216" y="684" type="curve"/>
			<point x="216" y="684"/>
			<point x="215" y="686"/>
			<point x="215" y="687" type="curve"/>
			<point x="213" y="692"/>
			<point x="213" y="698"/>
			<point x="213" y="703" type="curve" smooth="yes"/>
			<point x="213" y="706"/>
			<point x="213" y="710"/>
			<point x="212" y="713" type="curve"/>
			<point x="212" y="715"/>
			<point x="211" y="717"/>
			<point x="211" y="720" type="curve"/>
			<point x="209" y="723"/>
			<point x="207" y="725"/>
			<point x="205" y="727" type="curve" smooth="yes"/>
			<point x="204" y="728"/>
			<point x="203" y="730"/>
			<point x="203" y="731" type="curve"/>
			<point x="201" y="738"/>
			<point x="199" y="741"/>
			<point x="194" y="745" type="curve"/>
			<point x="192" y="746"/>
			<point x="190" y="747"/>
			<point x="189" y="748" type="curve"/>
			<point x="189" y="749"/>
			<point x="188" y="751"/>
			<point x="188" y="751" type="curve"/>
			<point x="188" y="754"/>
			<point x="187" y="755"/>
			<point x="184" y="756" type="curve"/>
			<point x="183" y="757" type="line"/>
			<point x="182" y="760"/>
			<point x="181" y="760"/>
			<point x="179" y="759" type="curve" smooth="yes"/>
			<point x="175" y="757"/>
			<point x="173" y="759"/>
			<point x="169" y="761" type="curve"/>
			<point x="167" y="763"/>
			<point x="165" y="765"/>
			<point x="161" y="768" type="curve"/>
			<point x="160" y="768"/>
			<point x="159" y="769"/>
			<point x="158" y="769" type="curve" smooth="yes"/>
			<point x="150" y="769" type="line" smooth="yes"/>
			<point x="147" y="769"/>
			<point x="143" y="769"/>
			<point x="140" y="770" type="curve" smooth="yes"/>
			<point x="137" y="771"/>
			<point x="134" y="771"/>
			<point x="132" y="771" type="curve"/>
			<point x="128" y="772"/>
			<point x="126" y="772"/>
			<point x="123" y="771" type="curve"/>
			<point x="115" y="771"/>
			<point x="104" y="771"/>
			<point x="95" y="768" type="curve"/>
			<point x="94" y="767"/>
			<point x="92" y="765"/>
			<point x="91" y="765" type="curve" smooth="yes"/>
			<point x="87" y="765"/>
			<point x="86" y="764"/>
			<point x="85" y="763" type="curve"/>
			<point x="83" y="759"/>
			<point x="80" y="755"/>
			<point x="76" y="754" type="curve"/>
			<point x="75" y="754"/>
			<point x="75" y="752"/>
			<point x="75" y="752" type="curve"/>
			<point x="73" y="752" type="line" smooth="yes"/>
			<point x="71" y="752"/>
			<point x="70" y="751"/>
			<point x="69" y="749" type="curve"/>
			<point x="68" y="749"/>
			<point x="68" y="748"/>
			<point x="66" y="748" type="curve"/>
			<point x="62" y="746"/>
			<point x="62" y="746"/>
			<point x="62" y="743" type="curve"/>
			<point x="60" y="743" type="line" smooth="yes"/>
			<point x="54" y="743"/>
			<point x="55" y="744"/>
			<point x="53" y="739" type="curve" smooth="yes"/>
			<point x="49" y="728"/>
			<point x="42" y="720"/>
			<point x="31" y="715" type="curve"/>
			<point x="31" y="715"/>
			<point x="30" y="714"/>
			<point x="30" y="713" type="curve" smooth="yes"/>
			<point x="30" y="707"/>
			<point x="29" y="703"/>
			<point x="28" y="699" type="curve"/>
			<point x="27" y="687"/>
			<point x="23" y="675"/>
			<point x="21" y="663" type="curve"/>
			<point x="20" y="659"/>
			<point x="20" y="655"/>
			<point x="20" y="651" type="curve" smooth="yes"/>
			<point x="20" y="638" type="line"/>
			<point x="20" y="638"/>
			<point x="20" y="636"/>
			<point x="20" y="636" type="curve"/>
			<point x="21" y="631"/>
			<point x="22" y="625"/>
			<point x="24" y="620" type="curve"/>
			<point x="27" y="618"/>
			<point x="28" y="617"/>
			<point x="27" y="615" type="curve"/>
			<point x="24" y="608"/>
			<point x="28" y="603"/>
			<point x="34" y="599" type="curve"/>
			<point x="35" y="599"/>
			<point x="36" y="598"/>
			<point x="37" y="598" type="curve"/>
			<point x="34" y="590" type="line"/>
			<point x="35" y="590"/>
			<point x="35" y="590"/>
			<point x="36" y="590" type="curve" smooth="yes"/>
			<point x="40" y="590"/>
			<point x="45" y="587"/>
			<point x="51" y="583" type="curve"/>
			<point x="52" y="580"/>
			<point x="55" y="580"/>
			<point x="58" y="579" type="curve"/>
			<point x="59" y="578"/>
			<point x="60" y="578"/>
			<point x="60" y="577" type="curve" smooth="yes"/>
			<point x="60" y="574"/>
			<point x="62" y="570"/>
			<point x="64" y="568" type="curve"/>
			<point x="66" y="567"/>
			<point x="66" y="567"/>
			<point x="68" y="567" type="curve"/>
			<point x="76" y="566"/>
			<point x="84" y="563"/>
			<point x="94" y="563" type="curve" smooth="yes"/>
			<point x="104" y="563"/>
			<point x="116" y="563"/>
		</contour>
		<contour>
			<point x="94" y="617" type="curve"/>
			<point x="93" y="623"/>
			<point x="89" y="625"/>
			<point x="85" y="626" type="curve"/>
			<point x="83" y="626"/>
			<point x="83" y="628"/>
			<point x="82" y="629" type="curve"/>
			<point x="80" y="640"/>
			<point x="82" y="651"/>
			<point x="83" y="662" type="curve"/>
			<point x="83" y="663"/>
			<point x="83" y="663"/>
			<point x="84" y="664" type="curve" smooth="yes"/>
			<point x="86" y="666"/>
			<point x="91" y="668"/>
			<point x="94" y="672" type="curve"/>
			<point x="101" y="676"/>
			<point x="108" y="677"/>
			<point x="117" y="676" type="curve"/>
			<point x="119" y="676"/>
			<point x="120" y="676"/>
			<point x="123" y="677" type="curve"/>
			<point x="133" y="683"/>
			<point x="136" y="692"/>
			<point x="137" y="703" type="curve"/>
			<point x="137" y="710"/>
			<point x="136" y="719"/>
			<point x="134" y="725" type="curve"/>
			<point x="134" y="728" type="line"/>
			<point x="142" y="724"/>
			<point x="152" y="721"/>
			<point x="159" y="715" type="curve"/>
			<point x="166" y="707"/>
			<point x="169" y="699"/>
			<point x="169" y="688" type="curve" smooth="yes"/>
			<point x="169" y="683"/>
			<point x="171" y="677"/>
			<point x="175" y="674" type="curve"/>
			<point x="177" y="672"/>
			<point x="177" y="668"/>
			<point x="176" y="667" type="curve"/>
			<point x="173" y="656" type="line"/>
			<point x="173" y="656"/>
			<point x="173" y="655"/>
			<point x="171" y="655" type="curve"/>
			<point x="166" y="653"/>
			<point x="161" y="652"/>
			<point x="158" y="649" type="curve"/>
			<point x="157" y="647"/>
			<point x="157" y="647"/>
			<point x="157" y="646" type="curve" smooth="yes"/>
			<point x="157" y="636" type="line" smooth="yes"/>
			<point x="157" y="634"/>
			<point x="156" y="633"/>
			<point x="153" y="632" type="curve"/>
			<point x="150" y="632"/>
			<point x="148" y="631"/>
			<point x="145" y="629" type="curve"/>
			<point x="142" y="629"/>
			<point x="139" y="626"/>
			<point x="136" y="623" type="curve"/>
			<point x="136" y="623"/>
			<point x="135" y="622"/>
			<point x="134" y="622" type="curve"/>
			<point x="128" y="623"/>
			<point x="124" y="620"/>
			<point x="119" y="618" type="curve"/>
			<point x="117" y="617"/>
			<point x="115" y="617"/>
			<point x="112" y="618" type="curve"/>
			<point x="110" y="619"/>
			<point x="106" y="618"/>
			<point x="103" y="618" type="curve"/>
			<point x="100" y="617"/>
			<point x="97" y="617"/>
			<point x="95" y="617" type="curve"/>
			<point x="94" y="616"/>
			<point x="94" y="617"/>
		</contour>
	</outline>
	<lib>
		<dict>
			<key>com.schriftgestaltung.Glyphs.lastChange</key>
			<string>2019-04-20 17:05:34 +0000</string>
			<key>public.markColor</key>
			<string>0.67,0.95,0.38,1</string>
		</dict>
	</lib>
</glyph>
