<?xml version="1.0" encoding="UTF-8"?>
<glyph name="l_l.liga" format="2">
	<advance width="614"/>
	<outline>
		<contour>
			<point x="94" y="-33" type="curve"/>
			<point x="104" y="-33"/>
			<point x="111" y="-30"/>
			<point x="117" y="-23" type="curve"/>
			<point x="116" y="-35"/>
			<point x="120" y="-23"/>
			<point x="120" y="-23" type="curve"/>
			<point x="123" y="-23"/>
			<point x="123" y="-25"/>
			<point x="125" y="-25" type="curve" smooth="yes"/>
			<point x="132" y="-25"/>
			<point x="133" y="-23"/>
			<point x="134" y="-21" type="curve"/>
			<point x="134" y="-21"/>
			<point x="141" y="-24"/>
			<point x="142" y="-23" type="curve"/>
			<point x="144" y="-23"/>
			<point x="145" y="-21"/>
			<point x="145" y="-21" type="curve"/>
			<point x="156" y="-19"/>
			<point x="167" y="-18"/>
			<point x="176" y="-15" type="curve"/>
			<point x="181" y="-13"/>
			<point x="187" y="-13"/>
			<point x="195" y="-11" type="curve"/>
			<point x="195" y="-11"/>
			<point x="191" y="-9"/>
			<point x="195" y="-9" type="curve" smooth="yes"/>
			<point x="198" y="-9" type="line"/>
			<point x="206" y="-8"/>
			<point x="218" y="-2"/>
			<point x="223" y="-9" type="curve"/>
			<point x="225" y="-10"/>
			<point x="224" y="-4"/>
			<point x="225" y="-4" type="curve"/>
			<point x="235" y="2"/>
			<point x="245" y="-8"/>
			<point x="252" y="-1" type="curve" smooth="yes"/>
			<point x="253" y="0"/>
			<point x="263" y="-1"/>
			<point x="265" y="-1" type="curve" smooth="yes"/>
			<point x="270" y="-1"/>
			<point x="275" y="2"/>
			<point x="282" y="2" type="curve" smooth="yes"/>
			<point x="285" y="2"/>
			<point x="286" y="-1"/>
			<point x="290" y="-1" type="curve"/>
			<point x="305" y="-4"/>
			<point x="316" y="2"/>
			<point x="328" y="2" type="curve" smooth="yes"/>
			<point x="332" y="2"/>
			<point x="330" y="-1"/>
			<point x="332" y="-1" type="curve"/>
			<point x="333" y="-2"/>
			<point x="335" y="2"/>
			<point x="335" y="2" type="curve"/>
			<point x="343" y="2"/>
			<point x="343" y="-1"/>
			<point x="347" y="-1" type="curve" smooth="yes"/>
			<point x="361" y="-1"/>
			<point x="377" y="0"/>
			<point x="385" y="-1" type="curve"/>
			<point x="396" y="-1"/>
			<point x="395" y="-4"/>
			<point x="398" y="-1" type="curve"/>
			<point x="404" y="3"/>
			<point x="418" y="-4"/>
			<point x="420" y="-4" type="curve"/>
			<point x="436" y="-7"/>
			<point x="455" y="-4"/>
			<point x="467" y="-7" type="curve"/>
			<point x="467" y="-8"/>
			<point x="469" y="-9"/>
			<point x="470" y="-9" type="curve"/>
			<point x="471" y="-10"/>
			<point x="472" y="-9"/>
			<point x="474" y="-9" type="curve"/>
			<point x="485" y="-13"/>
			<point x="494" y="-21"/>
			<point x="505" y="-23" type="curve"/>
			<point x="506" y="-18"/>
			<point x="512" y="-30"/>
			<point x="512" y="-30" type="curve" smooth="yes"/>
			<point x="512" y="-30"/>
			<point x="515" y="-25"/>
			<point x="514" y="-25" type="curve"/>
			<point x="522" y="-30"/>
			<point x="527" y="-32"/>
			<point x="536" y="-32" type="curve"/>
			<point x="537" y="-31"/>
			<point x="537" y="-30"/>
			<point x="540" y="-30" type="curve"/>
			<point x="543" y="-28"/>
			<point x="543" y="-32"/>
			<point x="547" y="-30" type="curve"/>
			<point x="547" y="-28"/>
			<point x="552" y="-30"/>
			<point x="552" y="-30" type="curve"/>
			<point x="554" y="-30"/>
			<point x="552" y="-25"/>
			<point x="552" y="-25" type="curve"/>
			<point x="554" y="-24"/>
			<point x="557" y="-25"/>
			<point x="558" y="-25" type="curve"/>
			<point x="558" y="-25"/>
			<point x="558" y="-23"/>
			<point x="558" y="-23" type="curve"/>
			<point x="564" y="-23" type="line" smooth="yes"/>
			<point x="565" y="-23"/>
			<point x="567" y="-22"/>
			<point x="569" y="-21" type="curve"/>
			<point x="576" y="-21"/>
			<point x="572" y="-10"/>
			<point x="577" y="-9" type="curve"/>
			<point x="584" y="-4"/>
			<point x="585" y="5"/>
			<point x="588" y="13" type="curve"/>
			<point x="594" y="27"/>
			<point x="597" y="48"/>
			<point x="588" y="55" type="curve"/>
			<point x="586" y="55"/>
			<point x="588" y="59"/>
			<point x="588" y="59" type="curve"/>
			<point x="588" y="61"/>
			<point x="585" y="59"/>
			<point x="585" y="59" type="curve"/>
			<point x="584" y="61"/>
			<point x="585" y="63"/>
			<point x="585" y="65" type="curve"/>
			<point x="584" y="68"/>
			<point x="580" y="68"/>
			<point x="580" y="70" type="curve" smooth="yes"/>
			<point x="580" y="78"/>
			<point x="569" y="78"/>
			<point x="572" y="84" type="curve"/>
			<point x="559" y="84"/>
			<point x="548" y="94"/>
			<point x="536" y="97" type="curve"/>
			<point x="529" y="97"/>
			<point x="518" y="94"/>
			<point x="508" y="93" type="curve"/>
			<point x="508" y="93"/>
			<point x="508" y="91"/>
			<point x="508" y="91" type="curve" smooth="yes"/>
			<point x="502" y="91" type="line"/>
			<point x="472" y="86"/>
			<point x="428" y="85"/>
			<point x="398" y="86" type="curve" smooth="yes"/>
			<point x="396" y="86"/>
			<point x="393" y="91"/>
			<point x="395" y="91" type="curve"/>
			<point x="391" y="91"/>
			<point x="390" y="86"/>
			<point x="384" y="86" type="curve" smooth="yes"/>
			<point x="340" y="86"/>
			<point x="296" y="85"/>
			<point x="259" y="84" type="curve" smooth="yes"/>
			<point x="252" y="84"/>
			<point x="245" y="82"/>
			<point x="237" y="82" type="curve"/>
			<point x="206" y="79"/>
			<point x="166" y="73"/>
			<point x="142" y="69" type="curve"/>
			<point x="128" y="63"/>
			<point x="117" y="61"/>
			<point x="104" y="65" type="curve"/>
			<point x="112" y="75"/>
			<point x="110" y="90"/>
			<point x="112" y="101" type="curve"/>
			<point x="112" y="103"/>
			<point x="118" y="105"/>
			<point x="118" y="106" type="curve"/>
			<point x="119" y="112"/>
			<point x="118" y="115"/>
			<point x="118" y="118" type="curve"/>
			<point x="118" y="118"/>
			<point x="120" y="118"/>
			<point x="120" y="122" type="curve" smooth="yes"/>
			<point x="120" y="126" type="line"/>
			<point x="125" y="148"/>
			<point x="134" y="179"/>
			<point x="137" y="199" type="curve"/>
			<point x="137" y="202"/>
			<point x="136" y="208"/>
			<point x="137" y="212" type="curve"/>
			<point x="137" y="213"/>
			<point x="142" y="216"/>
			<point x="142" y="217" type="curve"/>
			<point x="144" y="219"/>
			<point x="142" y="222"/>
			<point x="142" y="224" type="curve"/>
			<point x="145" y="233"/>
			<point x="146" y="248"/>
			<point x="147" y="255" type="curve"/>
			<point x="149" y="266"/>
			<point x="153" y="276"/>
			<point x="155" y="287" type="curve"/>
			<point x="158" y="312"/>
			<point x="163" y="339"/>
			<point x="166" y="363" type="curve"/>
			<point x="166" y="364"/>
			<point x="167" y="364"/>
			<point x="167" y="365" type="curve"/>
			<point x="168" y="372"/>
			<point x="167" y="378"/>
			<point x="167" y="387" type="curve"/>
			<point x="167" y="387"/>
			<point x="169" y="388"/>
			<point x="169" y="389" type="curve"/>
			<point x="173" y="391"/>
			<point x="169" y="393"/>
			<point x="169" y="395" type="curve"/>
			<point x="173" y="397"/>
			<point x="174" y="400"/>
			<point x="174" y="402" type="curve"/>
			<point x="180" y="440"/>
			<point x="185" y="486"/>
			<point x="187" y="522" type="curve"/>
			<point x="187" y="524"/>
			<point x="190" y="524"/>
			<point x="190" y="524" type="curve"/>
			<point x="191" y="538"/>
			<point x="190" y="553"/>
			<point x="195" y="566" type="curve"/>
			<point x="195" y="566"/>
			<point x="196" y="566"/>
			<point x="196" y="569" type="curve"/>
			<point x="198" y="580"/>
			<point x="198" y="586"/>
			<point x="198" y="595" type="curve"/>
			<point x="199" y="604"/>
			<point x="202" y="612"/>
			<point x="204" y="624" type="curve"/>
			<point x="204" y="630"/>
			<point x="209" y="637"/>
			<point x="209" y="640" type="curve"/>
			<point x="211" y="657"/>
			<point x="212" y="670"/>
			<point x="211" y="684" type="curve"/>
			<point x="209" y="684"/>
			<point x="210" y="689"/>
			<point x="209" y="690" type="curve"/>
			<point x="209" y="691"/>
			<point x="204" y="694"/>
			<point x="204" y="696" type="curve"/>
			<point x="202" y="700"/>
			<point x="198" y="704"/>
			<point x="198" y="711" type="curve"/>
			<point x="190" y="712"/>
			<point x="182" y="719"/>
			<point x="174" y="724" type="curve"/>
			<point x="168" y="726"/>
			<point x="163" y="726"/>
			<point x="159" y="729" type="curve"/>
			<point x="156" y="732"/>
			<point x="155" y="734"/>
			<point x="153" y="735" type="curve"/>
			<point x="137" y="738"/>
			<point x="133" y="735"/>
			<point x="125" y="735" type="curve"/>
			<point x="117" y="734"/>
			<point x="104" y="735"/>
			<point x="96" y="711" type="curve"/>
			<point x="96" y="708" type="line" smooth="yes"/>
			<point x="96" y="704"/>
			<point x="89" y="704"/>
			<point x="91" y="702" type="curve"/>
			<point x="91" y="702"/>
			<point x="94" y="702"/>
			<point x="94" y="699" type="curve"/>
			<point x="96" y="683" type="line"/>
			<point x="97" y="677"/>
			<point x="96" y="669"/>
			<point x="96" y="666" type="curve" smooth="yes"/>
			<point x="96" y="662"/>
			<point x="98" y="665"/>
			<point x="98" y="662" type="curve"/>
			<point x="100" y="651"/>
			<point x="104" y="646"/>
			<point x="104" y="635" type="curve"/>
			<point x="105" y="633"/>
			<point x="106" y="633"/>
			<point x="106" y="633" type="curve"/>
			<point x="116" y="612"/>
			<point x="110" y="583"/>
			<point x="112" y="560" type="curve"/>
			<point x="112" y="549"/>
			<point x="118" y="540"/>
			<point x="118" y="531" type="curve"/>
			<point x="122" y="488"/>
			<point x="118" y="433"/>
			<point x="117" y="397" type="curve"/>
			<point x="116" y="395"/>
			<point x="112" y="389"/>
			<point x="112" y="387" type="curve"/>
			<point x="109" y="337"/>
			<point x="104" y="295"/>
			<point x="94" y="250" type="curve"/>
			<point x="91" y="241"/>
			<point x="88" y="229"/>
			<point x="84" y="221" type="curve"/>
			<point x="79" y="198"/>
			<point x="74" y="179"/>
			<point x="68" y="160" type="curve"/>
			<point x="65" y="149"/>
			<point x="61" y="141"/>
			<point x="57" y="132" type="curve"/>
			<point x="55" y="127"/>
			<point x="55" y="126"/>
			<point x="54" y="122" type="curve"/>
			<point x="54" y="118"/>
			<point x="53" y="118"/>
			<point x="53" y="118" type="curve"/>
			<point x="46" y="104"/>
			<point x="39" y="90"/>
			<point x="35" y="77" type="curve"/>
			<point x="33" y="73"/>
			<point x="35" y="70"/>
			<point x="35" y="69" type="curve" smooth="yes"/>
			<point x="35" y="68"/>
			<point x="31" y="63"/>
			<point x="30" y="62" type="curve"/>
			<point x="27" y="57"/>
			<point x="27" y="51"/>
			<point x="26" y="47" type="curve" smooth="yes"/>
			<point x="22" y="33"/>
			<point x="19" y="22"/>
			<point x="21" y="13" type="curve"/>
			<point x="21" y="15"/>
			<point x="33" y="-15"/>
			<point x="30" y="-9" type="curve"/>
			<point x="31" y="-10"/>
			<point x="37" y="-15"/>
			<point x="39" y="-19" type="curve"/>
			<point x="41" y="-19"/>
			<point x="41" y="-23"/>
			<point x="43" y="-23" type="curve"/>
			<point x="49" y="-28"/>
			<point x="54" y="-24"/>
			<point x="60" y="-25" type="curve"/>
			<point x="61" y="-25"/>
			<point x="65" y="-31"/>
			<point x="65" y="-32" type="curve"/>
			<point x="75" y="-35"/>
			<point x="86" y="-37"/>
			<point x="91" y="-32" type="curve"/>
			<point x="91" y="-30"/>
			<point x="95" y="-33"/>
		</contour>
		<contour>
			<point x="289" y="173" type="line"/>
			<point x="290" y="172"/>
			<point x="292" y="174"/>
			<point x="293" y="174" type="curve" smooth="yes"/>
			<point x="295" y="174"/>
			<point x="295" y="173"/>
			<point x="296" y="173" type="curve"/>
			<point x="296" y="173"/>
			<point x="297" y="174"/>
			<point x="298" y="174" type="curve"/>
			<point x="297" y="174"/>
			<point x="299" y="173"/>
			<point x="299" y="173" type="curve"/>
			<point x="302" y="171"/>
			<point x="304" y="173"/>
			<point x="308" y="174" type="curve"/>
			<point x="311" y="175"/>
			<point x="312" y="173"/>
			<point x="314" y="175" type="curve"/>
			<point x="315" y="177"/>
			<point x="315" y="179"/>
			<point x="318" y="177" type="curve"/>
			<point x="318" y="175"/>
			<point x="320" y="177"/>
			<point x="321" y="178" type="curve" smooth="yes"/>
			<point x="322" y="179"/>
			<point x="323" y="179"/>
			<point x="323" y="181" type="curve"/>
			<point x="327" y="181"/>
			<point x="328" y="178"/>
			<point x="332" y="178" type="curve"/>
			<point x="332" y="178"/>
			<point x="333" y="182"/>
			<point x="334" y="181" type="curve"/>
			<point x="334" y="179" type="line"/>
			<point x="337" y="180"/>
			<point x="342" y="181"/>
			<point x="345" y="185" type="curve"/>
			<point x="347" y="184"/>
			<point x="344" y="182"/>
			<point x="346" y="182" type="curve"/>
			<point x="346" y="185"/>
			<point x="350" y="184"/>
			<point x="351" y="186" type="curve"/>
			<point x="349" y="187"/>
			<point x="347" y="189"/>
			<point x="349" y="189" type="curve"/>
			<point x="350" y="192"/>
			<point x="354" y="186"/>
			<point x="355" y="190" type="curve"/>
			<point x="356" y="195"/>
			<point x="355" y="191"/>
			<point x="360" y="193" type="curve"/>
			<point x="361" y="193"/>
			<point x="361" y="195"/>
			<point x="361" y="196" type="curve"/>
			<point x="362" y="196"/>
			<point x="364" y="195"/>
			<point x="364" y="196" type="curve"/>
			<point x="364" y="196"/>
			<point x="364" y="197"/>
			<point x="364" y="197" type="curve"/>
			<point x="367" y="197" type="line"/>
			<point x="368" y="199"/>
			<point x="370" y="197"/>
			<point x="372" y="198" type="curve" smooth="yes"/>
			<point x="374" y="199"/>
			<point x="373" y="201"/>
			<point x="375" y="201" type="curve"/>
			<point x="374" y="201"/>
			<point x="376" y="200"/>
			<point x="376" y="200" type="curve"/>
			<point x="377" y="200"/>
			<point x="377" y="201"/>
			<point x="378" y="201" type="curve"/>
			<point x="377" y="201"/>
			<point x="378" y="199"/>
			<point x="379" y="200" type="curve" smooth="yes"/>
			<point x="380" y="201"/>
			<point x="378" y="203"/>
			<point x="380" y="203" type="curve" smooth="yes"/>
			<point x="381" y="203"/>
			<point x="382" y="201"/>
			<point x="382" y="201" type="curve"/>
			<point x="384" y="201"/>
			<point x="389" y="205"/>
			<point x="391" y="205" type="curve"/>
			<point x="394" y="206"/>
			<point x="396" y="204"/>
			<point x="398" y="204" type="curve" smooth="yes"/>
			<point x="401" y="204"/>
			<point x="402" y="206"/>
			<point x="406" y="207" type="curve"/>
			<point x="411" y="208"/>
			<point x="410" y="203"/>
			<point x="414" y="204" type="curve"/>
			<point x="420" y="203"/>
			<point x="420" y="207"/>
			<point x="424" y="208" type="curve"/>
			<point x="434" y="209"/>
			<point x="441" y="209"/>
			<point x="452" y="211" type="curve"/>
			<point x="455" y="211"/>
			<point x="459" y="210"/>
			<point x="461" y="213" type="curve"/>
			<point x="463" y="212"/>
			<point x="465" y="213"/>
			<point x="469" y="211" type="curve"/>
			<point x="470" y="212"/>
			<point x="471" y="212"/>
			<point x="471" y="211" type="curve"/>
			<point x="473" y="214"/>
			<point x="480" y="212"/>
			<point x="480" y="217" type="curve" smooth="yes"/>
			<point x="480" y="218"/>
			<point x="481" y="214"/>
			<point x="482" y="215" type="curve"/>
			<point x="484" y="216"/>
			<point x="485" y="216"/>
			<point x="488" y="216" type="curve" smooth="yes"/>
			<point x="492" y="216"/>
			<point x="498" y="218"/>
			<point x="508" y="217" type="curve"/>
			<point x="515" y="216" type="line"/>
			<point x="519" y="216"/>
			<point x="524" y="219"/>
			<point x="526" y="215" type="curve"/>
			<point x="529" y="214"/>
			<point x="527" y="220"/>
			<point x="531" y="219" type="curve"/>
			<point x="534" y="220"/>
			<point x="533" y="216"/>
			<point x="534" y="216" type="curve" smooth="yes"/>
			<point x="535" y="216"/>
			<point x="536" y="219"/>
			<point x="537" y="219" type="curve" smooth="yes"/>
			<point x="538" y="219"/>
			<point x="537" y="218"/>
			<point x="538" y="217" type="curve"/>
			<point x="539" y="217"/>
			<point x="541" y="220"/>
			<point x="541" y="216" type="curve"/>
			<point x="544" y="219"/>
			<point x="549" y="221"/>
			<point x="553" y="224" type="curve"/>
			<point x="555" y="224"/>
			<point x="551" y="220"/>
			<point x="557" y="222" type="curve"/>
			<point x="558" y="222"/>
			<point x="561" y="224"/>
			<point x="561" y="222" type="curve"/>
			<point x="564" y="222"/>
			<point x="564" y="225"/>
			<point x="565" y="227" type="curve"/>
			<point x="568" y="227"/>
			<point x="569" y="228"/>
			<point x="569" y="231" type="curve"/>
			<point x="573" y="232"/>
			<point x="573" y="229"/>
			<point x="576" y="230" type="curve"/>
			<point x="575" y="235"/>
			<point x="582" y="234"/>
			<point x="580" y="241" type="curve"/>
			<point x="582" y="240"/>
			<point x="582" y="241"/>
			<point x="583" y="242" type="curve"/>
			<point x="582" y="245"/>
			<point x="583" y="245"/>
			<point x="585" y="244" type="curve"/>
			<point x="585" y="250" type="line"/>
			<point x="584" y="250"/>
			<point x="583" y="248"/>
			<point x="583" y="250" type="curve"/>
			<point x="582" y="251"/>
			<point x="583" y="253"/>
			<point x="584" y="253" type="curve"/>
			<point x="584" y="253"/>
			<point x="584" y="252"/>
			<point x="585" y="252" type="curve"/>
			<point x="584" y="254"/>
			<point x="584" y="256"/>
			<point x="583" y="259" type="curve"/>
			<point x="583" y="259"/>
			<point x="582" y="260"/>
			<point x="581" y="260" type="curve"/>
			<point x="582" y="260"/>
			<point x="582" y="261"/>
			<point x="582" y="261" type="curve" smooth="yes"/>
			<point x="582" y="261"/>
			<point x="582" y="262"/>
			<point x="582" y="262" type="curve" smooth="yes"/>
			<point x="581" y="262" type="line" smooth="yes"/>
			<point x="578" y="262"/>
			<point x="575" y="264"/>
			<point x="572" y="265" type="curve"/>
			<point x="570" y="265"/>
			<point x="568" y="264"/>
			<point x="566" y="265" type="curve"/>
			<point x="565" y="265"/>
			<point x="565" y="267"/>
			<point x="564" y="268" type="curve"/>
			<point x="554" y="269" type="line"/>
			<point x="554" y="269"/>
			<point x="554" y="270"/>
			<point x="553" y="270" type="curve" smooth="yes"/>
			<point x="550" y="270"/>
			<point x="552" y="269"/>
			<point x="547" y="270" type="curve"/>
			<point x="545" y="270"/>
			<point x="545" y="272"/>
			<point x="545" y="274" type="curve"/>
			<point x="543" y="274"/>
			<point x="544" y="272"/>
			<point x="542" y="272" type="curve" smooth="yes"/>
			<point x="540" y="272"/>
			<point x="539" y="270"/>
			<point x="541" y="270" type="curve"/>
			<point x="540" y="268"/>
			<point x="539" y="271"/>
			<point x="537" y="270" type="curve"/>
			<point x="530" y="270"/>
			<point x="525" y="273"/>
			<point x="522" y="276" type="curve"/>
			<point x="518" y="277"/>
			<point x="519" y="273"/>
			<point x="516" y="273" type="curve"/>
			<point x="508" y="272" type="line"/>
			<point x="506" y="269"/>
			<point x="506" y="271"/>
			<point x="501" y="272" type="curve"/>
			<point x="499" y="272" type="line"/>
			<point x="497" y="270"/>
			<point x="498" y="272"/>
			<point x="496" y="272" type="curve" smooth="yes"/>
			<point x="492" y="272"/>
			<point x="488" y="273"/>
			<point x="485" y="273" type="curve" smooth="yes"/>
			<point x="482" y="273" type="line" smooth="yes"/>
			<point x="482" y="273"/>
			<point x="478" y="270"/>
			<point x="477" y="273" type="curve"/>
			<point x="474" y="271"/>
			<point x="469" y="270"/>
			<point x="467" y="268" type="curve"/>
			<point x="462" y="270"/>
			<point x="456" y="268"/>
			<point x="452" y="265" type="curve"/>
			<point x="449" y="266"/>
			<point x="446" y="266"/>
			<point x="444" y="266" type="curve" smooth="yes"/>
			<point x="443" y="266"/>
			<point x="443" y="265"/>
			<point x="443" y="265" type="curve" smooth="yes"/>
			<point x="442" y="265"/>
			<point x="441" y="266"/>
			<point x="441" y="266" type="curve" smooth="yes"/>
			<point x="439" y="266"/>
			<point x="438" y="263"/>
			<point x="435" y="262" type="curve"/>
			<point x="435" y="262"/>
			<point x="433" y="264"/>
			<point x="433" y="262" type="curve"/>
			<point x="430" y="261"/>
			<point x="426" y="266"/>
			<point x="421" y="264" type="curve"/>
			<point x="421" y="263"/>
			<point x="420" y="261"/>
			<point x="420" y="261" type="curve" smooth="yes"/>
			<point x="419" y="261"/>
			<point x="416" y="262"/>
			<point x="414" y="262" type="curve"/>
			<point x="410" y="263"/>
			<point x="404" y="263"/>
			<point x="401" y="260" type="curve"/>
			<point x="399" y="259"/>
			<point x="398" y="260"/>
			<point x="398" y="261" type="curve" smooth="yes"/>
			<point x="398" y="264" type="line"/>
			<point x="394" y="265"/>
			<point x="396" y="259"/>
			<point x="394" y="258" type="curve"/>
			<point x="392" y="259"/>
			<point x="386" y="257"/>
			<point x="386" y="260" type="curve"/>
			<point x="384" y="260"/>
			<point x="384" y="256"/>
			<point x="382" y="255" type="curve"/>
			<point x="381" y="255"/>
			<point x="380" y="257"/>
			<point x="379" y="257" type="curve" smooth="yes"/>
			<point x="378" y="257"/>
			<point x="378" y="256"/>
			<point x="378" y="255" type="curve"/>
			<point x="375" y="254"/>
			<point x="371" y="254"/>
			<point x="368" y="253" type="curve"/>
			<point x="367" y="251" type="line"/>
			<point x="362" y="250"/>
			<point x="363" y="254"/>
			<point x="360" y="251" type="curve"/>
			<point x="359" y="251"/>
			<point x="358" y="251"/>
			<point x="356" y="250" type="curve"/>
			<point x="355" y="250"/>
			<point x="354" y="249"/>
			<point x="355" y="249" type="curve"/>
			<point x="353" y="249"/>
			<point x="352" y="251"/>
			<point x="351" y="250" type="curve"/>
			<point x="349" y="250"/>
			<point x="347" y="248"/>
			<point x="345" y="247" type="curve"/>
			<point x="343" y="247"/>
			<point x="339" y="248"/>
			<point x="340" y="245" type="curve"/>
			<point x="336" y="245"/>
			<point x="339" y="252"/>
			<point x="337" y="249" type="curve"/>
			<point x="334" y="249"/>
			<point x="335" y="250"/>
			<point x="333" y="251" type="curve" smooth="yes"/>
			<point x="331" y="252"/>
			<point x="330" y="252"/>
			<point x="329" y="253" type="curve"/>
			<point x="330" y="256"/>
			<point x="327" y="259"/>
			<point x="327" y="261" type="curve"/>
			<point x="328" y="263"/>
			<point x="330" y="264"/>
			<point x="332" y="266" type="curve"/>
			<point x="332" y="267"/>
			<point x="325" y="274"/>
			<point x="329" y="277" type="curve"/>
			<point x="330" y="279"/>
			<point x="330" y="279"/>
			<point x="329" y="280" type="curve" smooth="yes"/>
			<point x="327" y="282"/>
			<point x="329" y="282"/>
			<point x="327" y="285" type="curve"/>
			<point x="329" y="291" type="line"/>
			<point x="329" y="292"/>
			<point x="330" y="292"/>
			<point x="330" y="292" type="curve"/>
			<point x="330" y="293"/>
			<point x="329" y="293"/>
			<point x="329" y="293" type="curve"/>
			<point x="329" y="296"/>
			<point x="332" y="299"/>
			<point x="327" y="299" type="curve"/>
			<point x="329" y="300"/>
			<point x="328" y="303"/>
			<point x="330" y="303" type="curve"/>
			<point x="329" y="306"/>
			<point x="327" y="309"/>
			<point x="325" y="311" type="curve"/>
			<point x="325" y="314"/>
			<point x="329" y="312"/>
			<point x="329" y="315" type="curve"/>
			<point x="328" y="317"/>
			<point x="327" y="315"/>
			<point x="327" y="314" type="curve"/>
			<point x="323" y="318"/>
			<point x="335" y="318"/>
			<point x="326" y="321" type="curve"/>
			<point x="326" y="322"/>
			<point x="333" y="320"/>
			<point x="332" y="327" type="curve"/>
			<point x="333" y="327"/>
			<point x="334" y="328"/>
			<point x="334" y="329" type="curve"/>
			<point x="333" y="331"/>
			<point x="330" y="331"/>
			<point x="333" y="334" type="curve"/>
			<point x="331" y="334"/>
			<point x="328" y="335"/>
			<point x="327" y="337" type="curve"/>
			<point x="327" y="338"/>
			<point x="329" y="339"/>
			<point x="329" y="340" type="curve"/>
			<point x="329" y="340"/>
			<point x="328" y="340"/>
			<point x="327" y="341" type="curve"/>
			<point x="327" y="342"/>
			<point x="326" y="343"/>
			<point x="326" y="345" type="curve"/>
			<point x="326" y="345"/>
			<point x="328" y="346"/>
			<point x="327" y="346" type="curve"/>
			<point x="326" y="348"/>
			<point x="326" y="351"/>
			<point x="325" y="353" type="curve"/>
			<point x="324" y="357"/>
			<point x="328" y="357"/>
			<point x="329" y="359" type="curve"/>
			<point x="329" y="359"/>
			<point x="327" y="360"/>
			<point x="327" y="361" type="curve"/>
			<point x="327" y="361"/>
			<point x="329" y="362"/>
			<point x="329" y="363" type="curve" smooth="yes"/>
			<point x="329" y="371" type="line"/>
			<point x="328" y="373"/>
			<point x="326" y="373"/>
			<point x="326" y="375" type="curve" smooth="yes"/>
			<point x="326" y="376"/>
			<point x="328" y="376"/>
			<point x="327" y="378" type="curve"/>
			<point x="327" y="378"/>
			<point x="326" y="378"/>
			<point x="326" y="379" type="curve" smooth="yes"/>
			<point x="326" y="380"/>
			<point x="326" y="381"/>
			<point x="326" y="382" type="curve"/>
			<point x="325" y="383" type="line"/>
			<point x="325" y="384"/>
			<point x="326" y="385"/>
			<point x="326" y="386" type="curve"/>
			<point x="326" y="386"/>
			<point x="324" y="386"/>
			<point x="325" y="387" type="curve"/>
			<point x="325" y="388"/>
			<point x="326" y="387"/>
			<point x="326" y="389" type="curve" smooth="yes"/>
			<point x="326" y="390"/>
			<point x="328" y="390"/>
			<point x="327" y="391" type="curve"/>
			<point x="327" y="392"/>
			<point x="325" y="394"/>
			<point x="326" y="395" type="curve"/>
			<point x="327" y="395" type="line"/>
			<point x="327" y="398"/>
			<point x="324" y="397"/>
			<point x="326" y="401" type="curve"/>
			<point x="327" y="402"/>
			<point x="327" y="401"/>
			<point x="327" y="402" type="curve"/>
			<point x="327" y="402"/>
			<point x="326" y="417"/>
			<point x="327" y="418" type="curve" smooth="yes"/>
			<point x="329" y="420"/>
			<point x="327" y="419"/>
			<point x="327" y="421" type="curve"/>
			<point x="328" y="422"/>
			<point x="330" y="422"/>
			<point x="330" y="422" type="curve"/>
			<point x="331" y="424"/>
			<point x="329" y="425"/>
			<point x="329" y="425" type="curve"/>
			<point x="330" y="432" type="line"/>
			<point x="331" y="434"/>
			<point x="329" y="439"/>
			<point x="333" y="437" type="curve"/>
			<point x="334" y="440"/>
			<point x="329" y="440"/>
			<point x="329" y="441" type="curve" smooth="yes"/>
			<point x="329" y="443"/>
			<point x="330" y="443"/>
			<point x="330" y="443" type="curve"/>
			<point x="330" y="445"/>
			<point x="329" y="447"/>
			<point x="330" y="450" type="curve"/>
			<point x="330" y="452"/>
			<point x="329" y="453"/>
			<point x="327" y="454" type="curve"/>
			<point x="329" y="456"/>
			<point x="329" y="458"/>
			<point x="330" y="460" type="curve"/>
			<point x="332" y="465"/>
			<point x="333" y="469"/>
			<point x="334" y="475" type="curve"/>
			<point x="336" y="477" type="line"/>
			<point x="336" y="480"/>
			<point x="335" y="482"/>
			<point x="337" y="485" type="curve"/>
			<point x="337" y="486"/>
			<point x="338" y="486"/>
			<point x="338" y="486" type="curve"/>
			<point x="339" y="487"/>
			<point x="339" y="489"/>
			<point x="340" y="490" type="curve"/>
			<point x="340" y="492"/>
			<point x="342" y="492"/>
			<point x="342" y="493" type="curve"/>
			<point x="343" y="494"/>
			<point x="342" y="495"/>
			<point x="342" y="496" type="curve"/>
			<point x="344" y="497"/>
			<point x="343" y="499"/>
			<point x="344" y="501" type="curve"/>
			<point x="344" y="501"/>
			<point x="346" y="502"/>
			<point x="345" y="503" type="curve"/>
			<point x="343" y="504"/>
			<point x="345" y="504"/>
			<point x="345" y="507" type="curve" smooth="yes"/>
			<point x="345" y="508"/>
			<point x="344" y="508"/>
			<point x="344" y="509" type="curve"/>
			<point x="344" y="509"/>
			<point x="345" y="510"/>
			<point x="345" y="511" type="curve"/>
			<point x="345" y="511"/>
			<point x="344" y="511"/>
			<point x="344" y="512" type="curve"/>
			<point x="344" y="512"/>
			<point x="345" y="512"/>
			<point x="345" y="513" type="curve" smooth="yes"/>
			<point x="345" y="516"/>
			<point x="344" y="516"/>
			<point x="344" y="518" type="curve"/>
			<point x="344" y="517"/>
			<point x="345" y="518"/>
			<point x="345" y="519" type="curve" smooth="yes"/>
			<point x="345" y="523" type="line" smooth="yes"/>
			<point x="345" y="525"/>
			<point x="342" y="524"/>
			<point x="342" y="528" type="curve" smooth="yes"/>
			<point x="342" y="531"/>
			<point x="343" y="531"/>
			<point x="344" y="532" type="curve"/>
			<point x="344" y="537"/>
			<point x="342" y="541"/>
			<point x="346" y="545" type="curve"/>
			<point x="346" y="546"/>
			<point x="345" y="546"/>
			<point x="345" y="547" type="curve" smooth="yes"/>
			<point x="345" y="548"/>
			<point x="347" y="549"/>
			<point x="346" y="550" type="curve"/>
			<point x="346" y="551"/>
			<point x="344" y="551"/>
			<point x="344" y="551" type="curve"/>
			<point x="344" y="552"/>
			<point x="343" y="557"/>
			<point x="344" y="557" type="curve"/>
			<point x="345" y="558"/>
			<point x="344" y="558"/>
			<point x="344" y="560" type="curve" smooth="yes"/>
			<point x="344" y="564"/>
			<point x="342" y="568"/>
			<point x="344" y="572" type="curve"/>
			<point x="343" y="571"/>
			<point x="348" y="577"/>
			<point x="348" y="576" type="curve"/>
			<point x="348" y="579"/>
			<point x="343" y="581"/>
			<point x="342" y="581" type="curve"/>
			<point x="344" y="584"/>
			<point x="345" y="588"/>
			<point x="346" y="591" type="curve"/>
			<point x="346" y="592"/>
			<point x="345" y="592"/>
			<point x="345" y="594" type="curve" smooth="yes"/>
			<point x="345" y="596"/>
			<point x="347" y="596"/>
			<point x="345" y="598" type="curve"/>
			<point x="345" y="598"/>
			<point x="343" y="598"/>
			<point x="344" y="599" type="curve"/>
			<point x="343" y="604"/>
			<point x="347" y="606"/>
			<point x="342" y="607" type="curve"/>
			<point x="343" y="612"/>
			<point x="346" y="612"/>
			<point x="344" y="617" type="curve"/>
			<point x="342" y="616"/>
			<point x="343" y="624"/>
			<point x="345" y="625" type="curve"/>
			<point x="344" y="628"/>
			<point x="342" y="629"/>
			<point x="342" y="634" type="curve"/>
			<point x="342" y="634"/>
			<point x="345" y="635"/>
			<point x="344" y="636" type="curve"/>
			<point x="342" y="637"/>
			<point x="343" y="640"/>
			<point x="342" y="644" type="curve"/>
			<point x="342" y="648"/>
			<point x="337" y="652"/>
			<point x="340" y="656" type="curve"/>
			<point x="336" y="657"/>
			<point x="338" y="665"/>
			<point x="334" y="667" type="curve"/>
			<point x="333" y="672"/>
			<point x="336" y="672"/>
			<point x="336" y="676" type="curve" smooth="yes"/>
			<point x="336" y="680"/>
			<point x="332" y="680"/>
			<point x="330" y="682" type="curve" smooth="yes"/>
			<point x="329" y="683"/>
			<point x="325" y="685"/>
			<point x="325" y="687" type="curve" smooth="yes"/>
			<point x="325" y="689"/>
			<point x="323" y="688"/>
			<point x="322" y="689" type="curve" smooth="yes"/>
			<point x="318" y="693" type="line"/>
			<point x="317" y="693"/>
			<point x="316" y="692"/>
			<point x="315" y="693" type="curve" smooth="yes"/>
			<point x="313" y="695"/>
			<point x="314" y="694"/>
			<point x="310" y="695" type="curve"/>
			<point x="308" y="697" type="line"/>
			<point x="306" y="697"/>
			<point x="305" y="695"/>
			<point x="303" y="695" type="curve" smooth="yes"/>
			<point x="303" y="695"/>
			<point x="300" y="698"/>
			<point x="300" y="698" type="curve"/>
			<point x="295" y="697" type="line"/>
			<point x="292" y="696"/>
			<point x="290" y="694"/>
			<point x="287" y="693" type="curve"/>
			<point x="285" y="696"/>
			<point x="284" y="688"/>
			<point x="280" y="690" type="curve"/>
			<point x="278" y="686"/>
			<point x="280" y="686"/>
			<point x="279" y="683" type="curve"/>
			<point x="276" y="683"/>
			<point x="280" y="678"/>
			<point x="274" y="679" type="curve"/>
			<point x="275" y="674"/>
			<point x="275" y="675"/>
			<point x="274" y="670" type="curve"/>
			<point x="274" y="668"/>
			<point x="275" y="666"/>
			<point x="274" y="664" type="curve"/>
			<point x="274" y="663"/>
			<point x="272" y="663"/>
			<point x="272" y="661" type="curve" smooth="yes"/>
			<point x="272" y="660"/>
			<point x="273" y="659"/>
			<point x="274" y="659" type="curve"/>
			<point x="275" y="661"/>
			<point x="276" y="659"/>
			<point x="276" y="657" type="curve"/>
			<point x="273" y="657"/>
			<point x="276" y="655"/>
			<point x="276" y="655" type="curve"/>
			<point x="276" y="652"/>
			<point x="275" y="649"/>
			<point x="274" y="645" type="curve"/>
			<point x="274" y="643"/>
			<point x="275" y="641"/>
			<point x="274" y="640" type="curve"/>
			<point x="274" y="639"/>
			<point x="272" y="637"/>
			<point x="272" y="637" type="curve"/>
			<point x="272" y="636"/>
			<point x="273" y="635"/>
			<point x="273" y="633" type="curve" smooth="yes"/>
			<point x="273" y="631"/>
			<point x="272" y="631"/>
			<point x="272" y="629" type="curve" smooth="yes"/>
			<point x="272" y="627"/>
			<point x="273" y="624"/>
			<point x="273" y="622" type="curve" smooth="yes"/>
			<point x="273" y="614" type="line" smooth="yes"/>
			<point x="273" y="613"/>
			<point x="274" y="613"/>
			<point x="274" y="613" type="curve"/>
			<point x="275" y="611"/>
			<point x="273" y="611"/>
			<point x="273" y="611" type="curve"/>
			<point x="273" y="610"/>
			<point x="274" y="610"/>
			<point x="274" y="608" type="curve"/>
			<point x="275" y="607"/>
			<point x="276" y="604"/>
			<point x="277" y="603" type="curve"/>
			<point x="275" y="601"/>
			<point x="277" y="599"/>
			<point x="277" y="596" type="curve" smooth="yes"/>
			<point x="277" y="594" type="line"/>
			<point x="275" y="592"/>
			<point x="278" y="593"/>
			<point x="277" y="591" type="curve"/>
			<point x="277" y="586"/>
			<point x="274" y="585"/>
			<point x="274" y="579" type="curve"/>
			<point x="275" y="578"/>
			<point x="274" y="576"/>
			<point x="274" y="576" type="curve"/>
			<point x="276" y="575"/>
			<point x="274" y="575"/>
			<point x="276" y="573" type="curve" smooth="yes"/>
			<point x="277" y="572"/>
			<point x="276" y="569"/>
			<point x="276" y="568" type="curve" smooth="yes"/>
			<point x="276" y="567"/>
			<point x="277" y="566"/>
			<point x="277" y="566" type="curve"/>
			<point x="277" y="564"/>
			<point x="276" y="564"/>
			<point x="276" y="561" type="curve"/>
			<point x="277" y="560" type="line"/>
			<point x="277" y="559"/>
			<point x="278" y="556"/>
			<point x="277" y="556" type="curve"/>
			<point x="275" y="554"/>
			<point x="278" y="555"/>
			<point x="277" y="550" type="curve"/>
			<point x="277" y="550"/>
			<point x="275" y="549"/>
			<point x="276" y="549" type="curve"/>
			<point x="278" y="547"/>
			<point x="276" y="548"/>
			<point x="276" y="547" type="curve"/>
			<point x="275" y="545"/>
			<point x="277" y="542"/>
			<point x="274" y="542" type="curve"/>
			<point x="275" y="539"/>
			<point x="277" y="539"/>
			<point x="277" y="535" type="curve"/>
			<point x="276" y="533"/>
			<point x="277" y="530"/>
			<point x="274" y="528" type="curve"/>
			<point x="277" y="526"/>
			<point x="275" y="524"/>
			<point x="274" y="522" type="curve"/>
			<point x="274" y="519"/>
			<point x="276" y="516"/>
			<point x="276" y="513" type="curve"/>
			<point x="276" y="514"/>
			<point x="275" y="513"/>
			<point x="274" y="512" type="curve"/>
			<point x="274" y="510"/>
			<point x="275" y="508"/>
			<point x="274" y="507" type="curve"/>
			<point x="275" y="507"/>
			<point x="272" y="506"/>
			<point x="273" y="505" type="curve" smooth="yes"/>
			<point x="275" y="503"/>
			<point x="272" y="496"/>
			<point x="273" y="489" type="curve"/>
			<point x="273" y="488"/>
			<point x="273" y="485"/>
			<point x="273" y="485" type="curve"/>
			<point x="276" y="485" type="line"/>
			<point x="276" y="484"/>
			<point x="274" y="483"/>
			<point x="274" y="482" type="curve"/>
			<point x="275" y="482"/>
			<point x="276" y="482"/>
			<point x="276" y="481" type="curve" smooth="yes"/>
			<point x="276" y="477"/>
			<point x="274" y="476"/>
			<point x="273" y="473" type="curve" smooth="yes"/>
			<point x="272" y="470"/>
			<point x="273" y="468"/>
			<point x="270" y="466" type="curve"/>
			<point x="269" y="463"/>
			<point x="272" y="463"/>
			<point x="272" y="459" type="curve"/>
			<point x="272" y="459"/>
			<point x="270" y="459"/>
			<point x="270" y="458" type="curve" smooth="yes"/>
			<point x="270" y="457"/>
			<point x="271" y="455"/>
			<point x="270" y="455" type="curve"/>
			<point x="269" y="454"/>
			<point x="270" y="454"/>
			<point x="270" y="450" type="curve"/>
			<point x="271" y="445"/>
			<point x="270" y="440"/>
			<point x="269" y="435" type="curve"/>
			<point x="266" y="428" type="line"/>
			<point x="266" y="426"/>
			<point x="268" y="422"/>
			<point x="268" y="420" type="curve" smooth="yes"/>
			<point x="268" y="419"/>
			<point x="266" y="418"/>
			<point x="266" y="417" type="curve" smooth="yes"/>
			<point x="266" y="416"/>
			<point x="268" y="416"/>
			<point x="268" y="414" type="curve" smooth="yes"/>
			<point x="268" y="412"/>
			<point x="267" y="412"/>
			<point x="266" y="410" type="curve"/>
			<point x="265" y="409" type="line"/>
			<point x="265" y="408"/>
			<point x="267" y="406"/>
			<point x="266" y="402" type="curve"/>
			<point x="266" y="401"/>
			<point x="265" y="401"/>
			<point x="265" y="399" type="curve" smooth="yes"/>
			<point x="265" y="397"/>
			<point x="266" y="397"/>
			<point x="266" y="395" type="curve"/>
			<point x="266" y="396"/>
			<point x="265" y="395"/>
			<point x="265" y="394" type="curve"/>
			<point x="265" y="394"/>
			<point x="266" y="394"/>
			<point x="266" y="393" type="curve" smooth="yes"/>
			<point x="266" y="391"/>
			<point x="264" y="389"/>
			<point x="265" y="384" type="curve"/>
			<point x="266" y="380"/>
			<point x="269" y="377"/>
			<point x="269" y="372" type="curve"/>
			<point x="268" y="372"/>
			<point x="268" y="371"/>
			<point x="268" y="370" type="curve"/>
			<point x="269" y="364"/>
			<point x="264" y="366"/>
			<point x="264" y="363" type="curve" smooth="yes"/>
			<point x="264" y="359"/>
			<point x="263" y="357"/>
			<point x="261" y="356" type="curve"/>
			<point x="261" y="355"/>
			<point x="262" y="355"/>
			<point x="262" y="353" type="curve"/>
			<point x="262" y="353"/>
			<point x="261" y="351"/>
			<point x="261" y="352" type="curve"/>
			<point x="261" y="349"/>
			<point x="264" y="346"/>
			<point x="264" y="342" type="curve"/>
			<point x="263" y="340"/>
			<point x="262" y="337"/>
			<point x="265" y="334" type="curve"/>
			<point x="263" y="332"/>
			<point x="265" y="331"/>
			<point x="265" y="333" type="curve"/>
			<point x="265" y="333"/>
			<point x="267" y="332"/>
			<point x="266" y="332" type="curve"/>
			<point x="265" y="331"/>
			<point x="265" y="330"/>
			<point x="265" y="327" type="curve"/>
			<point x="265" y="328"/>
			<point x="267" y="327"/>
			<point x="266" y="326" type="curve" smooth="yes"/>
			<point x="265" y="325"/>
			<point x="266" y="325"/>
			<point x="266" y="323" type="curve" smooth="yes"/>
			<point x="266" y="322"/>
			<point x="265" y="319"/>
			<point x="265" y="317" type="curve" smooth="yes"/>
			<point x="265" y="315"/>
			<point x="267" y="314"/>
			<point x="266" y="311" type="curve"/>
			<point x="265" y="300" type="line"/>
			<point x="264" y="299"/>
			<point x="260" y="295"/>
			<point x="264" y="291" type="curve"/>
			<point x="263" y="289"/>
			<point x="261" y="290"/>
			<point x="260" y="289" type="curve"/>
			<point x="261" y="287"/>
			<point x="262" y="285"/>
			<point x="262" y="283" type="curve"/>
			<point x="262" y="283"/>
			<point x="261" y="281"/>
			<point x="261" y="280" type="curve"/>
			<point x="261" y="280"/>
			<point x="263" y="279"/>
			<point x="261" y="279" type="curve"/>
			<point x="260" y="276"/>
			<point x="263" y="276"/>
			<point x="265" y="276" type="curve"/>
			<point x="265" y="273"/>
			<point x="263" y="273"/>
			<point x="260" y="273" type="curve"/>
			<point x="260" y="270"/>
			<point x="263" y="271"/>
			<point x="262" y="268" type="curve"/>
			<point x="256" y="267"/>
			<point x="263" y="270"/>
			<point x="260" y="270" type="curve" smooth="yes"/>
			<point x="258" y="270"/>
			<point x="258" y="267"/>
			<point x="258" y="265" type="curve" smooth="yes"/>
			<point x="258" y="263"/>
			<point x="257" y="262"/>
			<point x="257" y="260" type="curve" smooth="yes"/>
			<point x="257" y="256"/>
			<point x="258" y="254"/>
			<point x="258" y="250" type="curve"/>
			<point x="259" y="243"/>
			<point x="257" y="237"/>
			<point x="258" y="230" type="curve"/>
			<point x="258" y="230"/>
			<point x="260" y="229"/>
			<point x="260" y="228" type="curve"/>
			<point x="258" y="227"/>
			<point x="260" y="228"/>
			<point x="260" y="226" type="curve"/>
			<point x="259" y="225"/>
			<point x="258" y="226"/>
			<point x="258" y="224" type="curve"/>
			<point x="259" y="220"/>
			<point x="262" y="217"/>
			<point x="260" y="213" type="curve"/>
			<point x="261" y="212"/>
			<point x="260" y="208"/>
			<point x="264" y="209" type="curve"/>
			<point x="263" y="206"/>
			<point x="264" y="204"/>
			<point x="266" y="204" type="curve"/>
			<point x="266" y="198" type="line"/>
			<point x="267" y="197"/>
			<point x="270" y="197"/>
			<point x="270" y="196" type="curve"/>
			<point x="271" y="194"/>
			<point x="270" y="192"/>
			<point x="270" y="190" type="curve"/>
			<point x="271" y="189"/>
			<point x="274" y="189"/>
			<point x="273" y="186" type="curve"/>
			<point x="275" y="186"/>
			<point x="277" y="185"/>
			<point x="277" y="184" type="curve"/>
			<point x="280" y="182"/>
			<point x="281" y="178"/>
			<point x="283" y="175" type="curve"/>
			<point x="284" y="175"/>
			<point x="287" y="176"/>
			<point x="288" y="175" type="curve"/>
		</contour>
	</outline>
	<lib>
		<dict>
			<key>com.schriftgestaltung.Glyphs.lastChange</key>
			<string>2019-04-20 17:05:34 +0000</string>
			<key>public.markColor</key>
			<string>0.67,0.95,0.38,1</string>
		</dict>
	</lib>
</glyph>
