<?xml version="1.0" encoding="UTF-8"?>
<glyph name="N" format="2">
	<advance width="476"/>
	<unicode hex="004E"/>
	<note>
		N
  </note>
	<outline>
		<contour>
			<point x="311" y="-25" type="curve"/>
			<point x="314" y="-23"/>
			<point x="315" y="-23"/>
			<point x="318" y="-22" type="curve"/>
			<point x="323" y="-20"/>
			<point x="328" y="-16"/>
			<point x="334" y="-14" type="curve"/>
			<point x="339" y="-6"/>
			<point x="340" y="4"/>
			<point x="343" y="9" type="curve"/>
			<point x="346" y="16"/>
			<point x="351" y="23"/>
			<point x="353" y="28" type="curve"/>
			<point x="353" y="34" type="line"/>
			<point x="354" y="37"/>
			<point x="357" y="41"/>
			<point x="359" y="44" type="curve"/>
			<point x="359" y="47"/>
			<point x="359" y="50"/>
			<point x="360" y="50" type="curve"/>
			<point x="360" y="59"/>
			<point x="357" y="59"/>
			<point x="360" y="68" type="curve"/>
			<point x="357" y="77"/>
			<point x="369" y="70"/>
			<point x="366" y="78" type="curve"/>
			<point x="366" y="97" type="line"/>
			<point x="369" y="101"/>
			<point x="373" y="104"/>
			<point x="375" y="111" type="curve"/>
			<point x="379" y="114"/>
			<point x="375" y="117"/>
			<point x="375" y="120" type="curve" smooth="yes"/>
			<point x="375" y="126"/>
			<point x="387" y="116"/>
			<point x="379" y="123" type="curve"/>
			<point x="375" y="125"/>
			<point x="381" y="139"/>
			<point x="382" y="145" type="curve"/>
			<point x="387" y="150"/>
			<point x="379" y="154"/>
			<point x="382" y="162" type="curve"/>
			<point x="388" y="170"/>
			<point x="389" y="181"/>
			<point x="392" y="184" type="curve"/>
			<point x="393" y="184"/>
			<point x="392" y="189"/>
			<point x="392" y="190" type="curve"/>
			<point x="395" y="195"/>
			<point x="398" y="198"/>
			<point x="392" y="203" type="curve"/>
			<point x="390" y="204"/>
			<point x="398" y="207"/>
			<point x="398" y="207" type="curve"/>
			<point x="399" y="210"/>
			<point x="395" y="214"/>
			<point x="395" y="214" type="curve"/>
			<point x="396" y="223"/>
			<point x="398" y="229"/>
			<point x="398" y="236" type="curve" smooth="yes"/>
			<point x="398" y="239"/>
			<point x="401" y="239"/>
			<point x="401" y="239" type="curve"/>
			<point x="403" y="248"/>
			<point x="403" y="258"/>
			<point x="404" y="267" type="curve"/>
			<point x="404" y="270"/>
			<point x="406" y="273"/>
			<point x="406" y="274" type="curve"/>
			<point x="408" y="276" type="line"/>
			<point x="409" y="286"/>
			<point x="409" y="295"/>
			<point x="411" y="306" type="curve"/>
			<point x="412" y="314"/>
			<point x="412" y="325"/>
			<point x="414" y="334" type="curve"/>
			<point x="415" y="345"/>
			<point x="415" y="355"/>
			<point x="417" y="364" type="curve"/>
			<point x="417" y="368"/>
			<point x="418" y="371"/>
			<point x="421" y="373" type="curve"/>
			<point x="418" y="395"/>
			<point x="423" y="425"/>
			<point x="424" y="456" type="curve"/>
			<point x="426" y="470"/>
			<point x="424" y="485"/>
			<point x="424" y="498" type="curve" smooth="yes"/>
			<point x="424" y="506"/>
			<point x="427" y="510"/>
			<point x="427" y="512" type="curve" smooth="yes"/>
			<point x="427" y="513"/>
			<point x="424" y="514"/>
			<point x="424" y="514" type="curve"/>
			<point x="424" y="532"/>
			<point x="427" y="545"/>
			<point x="427" y="556" type="curve"/>
			<point x="429" y="588"/>
			<point x="424" y="620"/>
			<point x="432" y="649" type="curve"/>
			<point x="437" y="649"/>
			<point x="437" y="654"/>
			<point x="440" y="657" type="curve"/>
			<point x="443" y="659"/>
			<point x="450" y="657"/>
			<point x="451" y="662" type="curve"/>
			<point x="456" y="662"/>
			<point x="453" y="670"/>
			<point x="456" y="671" type="curve"/>
			<point x="456" y="675"/>
			<point x="456" y="681"/>
			<point x="453" y="687" type="curve"/>
			<point x="451" y="690"/>
			<point x="450" y="690"/>
			<point x="448" y="691" type="curve"/>
			<point x="446" y="694"/>
			<point x="448" y="696"/>
			<point x="446" y="700" type="curve"/>
			<point x="439" y="707"/>
			<point x="429" y="714"/>
			<point x="420" y="713" type="curve"/>
			<point x="414" y="713"/>
			<point x="401" y="704"/>
			<point x="401" y="700" type="curve" smooth="yes"/>
			<point x="401" y="695"/>
			<point x="395" y="695"/>
			<point x="395" y="691" type="curve" smooth="yes"/>
			<point x="395" y="690"/>
			<point x="393" y="690"/>
			<point x="392" y="690" type="curve"/>
			<point x="390" y="685"/>
			<point x="393" y="679"/>
			<point x="392" y="675" type="curve"/>
			<point x="392" y="671"/>
			<point x="390" y="668"/>
			<point x="390" y="665" type="curve"/>
			<point x="389" y="654"/>
			<point x="393" y="657"/>
			<point x="390" y="654" type="curve"/>
			<point x="389" y="654"/>
			<point x="390" y="651"/>
			<point x="390" y="649" type="curve"/>
			<point x="389" y="637"/>
			<point x="392" y="634"/>
			<point x="392" y="623" type="curve"/>
			<point x="393" y="620"/>
			<point x="392" y="615"/>
			<point x="392" y="613" type="curve"/>
			<point x="393" y="603"/>
			<point x="393" y="607"/>
			<point x="392" y="601" type="curve"/>
			<point x="390" y="595"/>
			<point x="392" y="590"/>
			<point x="392" y="585" type="curve" smooth="yes"/>
			<point x="392" y="575"/>
			<point x="395" y="571"/>
			<point x="395" y="565" type="curve" smooth="yes"/>
			<point x="395" y="561"/>
			<point x="393" y="559"/>
			<point x="392" y="554" type="curve"/>
			<point x="390" y="539"/>
			<point x="395" y="531"/>
			<point x="395" y="520" type="curve"/>
			<point x="396" y="510"/>
			<point x="392" y="506"/>
			<point x="395" y="504" type="curve"/>
			<point x="396" y="503"/>
			<point x="395" y="500"/>
			<point x="395" y="498" type="curve"/>
			<point x="398" y="485"/>
			<point x="392" y="482"/>
			<point x="390" y="475" type="curve"/>
			<point x="390" y="475"/>
			<point x="392" y="473"/>
			<point x="392" y="470" type="curve" smooth="yes"/>
			<point x="392" y="465"/>
			<point x="389" y="465"/>
			<point x="390" y="459" type="curve"/>
			<point x="390" y="458"/>
			<point x="392" y="456"/>
			<point x="392" y="456" type="curve"/>
			<point x="393" y="452"/>
			<point x="389" y="454"/>
			<point x="392" y="451" type="curve"/>
			<point x="393" y="451"/>
			<point x="389" y="445"/>
			<point x="390" y="443" type="curve"/>
			<point x="390" y="442"/>
			<point x="392" y="439"/>
			<point x="392" y="440" type="curve"/>
			<point x="392" y="436"/>
			<point x="390" y="432"/>
			<point x="390" y="428" type="curve"/>
			<point x="389" y="422"/>
			<point x="393" y="414"/>
			<point x="392" y="412" type="curve"/>
			<point x="392" y="412"/>
			<point x="390" y="410"/>
			<point x="390" y="409" type="curve"/>
			<point x="388" y="400"/>
			<point x="388" y="393"/>
			<point x="388" y="387" type="curve" smooth="yes"/>
			<point x="388" y="385"/>
			<point x="389" y="379"/>
			<point x="390" y="379" type="curve"/>
			<point x="388" y="376"/>
			<point x="388" y="376"/>
			<point x="388" y="373" type="curve"/>
			<point x="387" y="365"/>
			<point x="384" y="358"/>
			<point x="382" y="354" type="curve"/>
			<point x="381" y="345"/>
			<point x="381" y="337"/>
			<point x="379" y="329" type="curve"/>
			<point x="379" y="331"/>
			<point x="382" y="328"/>
			<point x="382" y="326" type="curve" smooth="yes"/>
			<point x="382" y="323"/>
			<point x="378" y="323"/>
			<point x="376" y="322" type="curve"/>
			<point x="375" y="319"/>
			<point x="379" y="313"/>
			<point x="379" y="313" type="curve"/>
			<point x="379" y="307"/>
			<point x="376" y="298"/>
			<point x="379" y="293" type="curve"/>
			<point x="372" y="294"/>
			<point x="376" y="283"/>
			<point x="376" y="284" type="curve"/>
			<point x="375" y="279"/>
			<point x="373" y="278"/>
			<point x="372" y="274" type="curve"/>
			<point x="369" y="267"/>
			<point x="369" y="256"/>
			<point x="363" y="251" type="curve"/>
			<point x="369" y="242"/>
			<point x="362" y="226"/>
			<point x="360" y="220" type="curve"/>
			<point x="360" y="219"/>
			<point x="359" y="219"/>
			<point x="359" y="219" type="curve"/>
			<point x="356" y="209"/>
			<point x="359" y="206"/>
			<point x="356" y="203" type="curve" smooth="yes"/>
			<point x="354" y="201"/>
			<point x="356" y="194"/>
			<point x="356" y="192" type="curve"/>
			<point x="354" y="189"/>
			<point x="353" y="189"/>
			<point x="353" y="184" type="curve" smooth="yes"/>
			<point x="353" y="181"/>
			<point x="351" y="183"/>
			<point x="350" y="181" type="curve"/>
			<point x="348" y="173"/>
			<point x="346" y="168"/>
			<point x="340" y="162" type="curve"/>
			<point x="348" y="161"/>
			<point x="339" y="154"/>
			<point x="340" y="150" type="curve"/>
			<point x="346" y="143"/>
			<point x="339" y="143"/>
			<point x="337" y="142" type="curve"/>
			<point x="336" y="134"/>
			<point x="337" y="125"/>
			<point x="334" y="120" type="curve"/>
			<point x="334" y="119"/>
			<point x="329" y="119"/>
			<point x="329" y="117" type="curve"/>
			<point x="328" y="114"/>
			<point x="328" y="107"/>
			<point x="324" y="107" type="curve"/>
			<point x="324" y="95"/>
			<point x="321" y="80"/>
			<point x="315" y="75" type="curve"/>
			<point x="314" y="68" type="line"/>
			<point x="311" y="59"/>
			<point x="311" y="51"/>
			<point x="303" y="53" type="curve"/>
			<point x="296" y="53"/>
			<point x="298" y="61"/>
			<point x="298" y="65" type="curve" smooth="yes"/>
			<point x="298" y="67"/>
			<point x="295" y="67"/>
			<point x="295" y="68" type="curve"/>
			<point x="293" y="75"/>
			<point x="296" y="84"/>
			<point x="295" y="92" type="curve"/>
			<point x="293" y="97"/>
			<point x="290" y="101"/>
			<point x="289" y="107" type="curve" smooth="yes"/>
			<point x="288" y="114"/>
			<point x="289" y="114"/>
			<point x="287" y="117" type="curve" smooth="yes"/>
			<point x="285" y="120"/>
			<point x="289" y="125"/>
			<point x="289" y="126" type="curve" smooth="yes"/>
			<point x="289" y="134"/>
			<point x="288" y="139"/>
			<point x="287" y="147" type="curve"/>
			<point x="287" y="158"/>
			<point x="287" y="174"/>
			<point x="285" y="178" type="curve"/>
			<point x="282" y="189"/>
			<point x="284" y="189"/>
			<point x="285" y="192" type="curve"/>
			<point x="288" y="204"/>
			<point x="282" y="214"/>
			<point x="282" y="223" type="curve"/>
			<point x="281" y="228"/>
			<point x="282" y="234"/>
			<point x="282" y="239" type="curve"/>
			<point x="281" y="250"/>
			<point x="278" y="258"/>
			<point x="276" y="268" type="curve"/>
			<point x="275" y="283"/>
			<point x="275" y="294"/>
			<point x="273" y="309" type="curve"/>
			<point x="272" y="323"/>
			<point x="268" y="346"/>
			<point x="267" y="356" type="curve"/>
			<point x="265" y="358"/>
			<point x="267" y="359"/>
			<point x="267" y="361" type="curve"/>
			<point x="265" y="370"/>
			<point x="264" y="374"/>
			<point x="264" y="376" type="curve"/>
			<point x="262" y="381"/>
			<point x="264" y="385"/>
			<point x="264" y="390" type="curve" smooth="yes"/>
			<point x="264" y="393"/>
			<point x="260" y="393"/>
			<point x="260" y="393" type="curve"/>
			<point x="259" y="401"/>
			<point x="262" y="406"/>
			<point x="257" y="409" type="curve"/>
			<point x="256" y="410"/>
			<point x="260" y="412"/>
			<point x="260" y="412" type="curve"/>
			<point x="259" y="428"/>
			<point x="257" y="439"/>
			<point x="257" y="454" type="curve" smooth="yes"/>
			<point x="257" y="456"/>
			<point x="260" y="456"/>
			<point x="260" y="456" type="curve"/>
			<point x="260" y="459"/>
			<point x="257" y="459"/>
			<point x="257" y="459" type="curve"/>
			<point x="257" y="475" type="line"/>
			<point x="257" y="475"/>
			<point x="260" y="478"/>
			<point x="260" y="478" type="curve"/>
			<point x="260" y="481"/>
			<point x="257" y="482"/>
			<point x="257" y="485" type="curve" smooth="yes"/>
			<point x="257" y="507" type="line"/>
			<point x="248" y="512"/>
			<point x="246" y="521"/>
			<point x="237" y="524" type="curve"/>
			<point x="236" y="536"/>
			<point x="233" y="514"/>
			<point x="231" y="524" type="curve"/>
			<point x="226" y="532"/>
			<point x="227" y="539"/>
			<point x="226" y="549" type="curve"/>
			<point x="226" y="554"/>
			<point x="224" y="557"/>
			<point x="224" y="559" type="curve"/>
			<point x="223" y="570"/>
			<point x="228" y="568"/>
			<point x="224" y="573" type="curve"/>
			<point x="223" y="574"/>
			<point x="224" y="576"/>
			<point x="224" y="578" type="curve"/>
			<point x="221" y="578" type="line"/>
			<point x="218" y="579"/>
			<point x="223" y="582"/>
			<point x="224" y="584" type="curve"/>
			<point x="226" y="585"/>
			<point x="221" y="587"/>
			<point x="221" y="585" type="curve"/>
			<point x="220" y="590"/>
			<point x="221" y="591"/>
			<point x="218" y="594" type="curve"/>
			<point x="217" y="594"/>
			<point x="218" y="598"/>
			<point x="218" y="598" type="curve"/>
			<point x="215" y="607"/>
			<point x="214" y="617"/>
			<point x="209" y="620" type="curve"/>
			<point x="209" y="621"/>
			<point x="211" y="624"/>
			<point x="209" y="626" type="curve"/>
			<point x="209" y="627"/>
			<point x="206" y="627"/>
			<point x="206" y="629" type="curve"/>
			<point x="204" y="632"/>
			<point x="204" y="639"/>
			<point x="203" y="642" type="curve"/>
			<point x="200" y="649"/>
			<point x="200" y="665"/>
			<point x="197" y="671" type="curve"/>
			<point x="197" y="671"/>
			<point x="192" y="673"/>
			<point x="192" y="674" type="curve"/>
			<point x="190" y="674"/>
			<point x="192" y="678"/>
			<point x="192" y="678" type="curve"/>
			<point x="189" y="678" type="line"/>
			<point x="185" y="681"/>
			<point x="189" y="688"/>
			<point x="184" y="690" type="curve"/>
			<point x="181" y="690"/>
			<point x="182" y="691"/>
			<point x="181" y="691" type="curve"/>
			<point x="175" y="695"/>
			<point x="175" y="696"/>
			<point x="168" y="696" type="curve" smooth="yes"/>
			<point x="167" y="696"/>
			<point x="165" y="700"/>
			<point x="165" y="700" type="curve"/>
			<point x="161" y="700"/>
			<point x="156" y="698"/>
			<point x="148" y="696" type="curve"/>
			<point x="142" y="695"/>
			<point x="139" y="696"/>
			<point x="134" y="694" type="curve"/>
			<point x="130" y="693"/>
			<point x="133" y="691"/>
			<point x="131" y="690" type="curve"/>
			<point x="128" y="687"/>
			<point x="125" y="688"/>
			<point x="123" y="687" type="curve"/>
			<point x="121" y="684"/>
			<point x="118" y="681"/>
			<point x="118" y="678" type="curve"/>
			<point x="117" y="675"/>
			<point x="115" y="673"/>
			<point x="115" y="671" type="curve"/>
			<point x="114" y="667"/>
			<point x="112" y="665"/>
			<point x="112" y="662" type="curve"/>
			<point x="111" y="659"/>
			<point x="112" y="659"/>
			<point x="109" y="657" type="curve"/>
			<point x="107" y="649" type="line"/>
			<point x="106" y="642"/>
			<point x="106" y="640"/>
			<point x="104" y="636" type="curve"/>
			<point x="101" y="624"/>
			<point x="104" y="624"/>
			<point x="104" y="614" type="curve"/>
			<point x="106" y="603"/>
			<point x="103" y="595"/>
			<point x="103" y="591" type="curve"/>
			<point x="101" y="587"/>
			<point x="103" y="582"/>
			<point x="103" y="578" type="curve"/>
			<point x="101" y="571"/>
			<point x="98" y="564"/>
			<point x="97" y="556" type="curve"/>
			<point x="95" y="551"/>
			<point x="95" y="542"/>
			<point x="94" y="536" type="curve"/>
			<point x="94" y="532"/>
			<point x="92" y="531"/>
			<point x="91" y="524" type="curve"/>
			<point x="91" y="515"/>
			<point x="89" y="513"/>
			<point x="88" y="509" type="curve"/>
			<point x="88" y="509"/>
			<point x="89" y="507"/>
			<point x="88" y="507" type="curve"/>
			<point x="88" y="504"/>
			<point x="87" y="504"/>
			<point x="87" y="504" type="curve"/>
			<point x="85" y="500"/>
			<point x="88" y="494"/>
			<point x="87" y="492" type="curve"/>
			<point x="85" y="487"/>
			<point x="82" y="485"/>
			<point x="81" y="482" type="curve"/>
			<point x="76" y="474"/>
			<point x="79" y="464"/>
			<point x="81" y="456" type="curve"/>
			<point x="78" y="454"/>
			<point x="75" y="451"/>
			<point x="75" y="446" type="curve"/>
			<point x="78" y="437"/>
			<point x="75" y="445"/>
			<point x="73" y="437" type="curve"/>
			<point x="73" y="439"/>
			<point x="75" y="436"/>
			<point x="75" y="434" type="curve"/>
			<point x="76" y="434"/>
			<point x="73" y="432"/>
			<point x="73" y="431" type="curve"/>
			<point x="70" y="417"/>
			<point x="72" y="403"/>
			<point x="70" y="387" type="curve"/>
			<point x="69" y="385"/>
			<point x="68" y="384"/>
			<point x="68" y="382" type="curve"/>
			<point x="64" y="365"/>
			<point x="67" y="354"/>
			<point x="65" y="337" type="curve" smooth="yes"/>
			<point x="64" y="325"/>
			<point x="58" y="313"/>
			<point x="62" y="303" type="curve"/>
			<point x="51" y="293"/>
			<point x="61" y="261"/>
			<point x="51" y="253" type="curve"/>
			<point x="51" y="253"/>
			<point x="48" y="237"/>
			<point x="48" y="239" type="curve"/>
			<point x="48" y="234"/>
			<point x="42" y="237"/>
			<point x="43" y="232" type="curve"/>
			<point x="50" y="223"/>
			<point x="48" y="222"/>
			<point x="46" y="210" type="curve"/>
			<point x="43" y="201"/>
			<point x="37" y="193"/>
			<point x="36" y="184" type="curve"/>
			<point x="34" y="176"/>
			<point x="37" y="164"/>
			<point x="36" y="161" type="curve"/>
			<point x="36" y="159"/>
			<point x="33" y="156"/>
			<point x="33" y="158" type="curve"/>
			<point x="33" y="154"/>
			<point x="36" y="154"/>
			<point x="36" y="150" type="curve" smooth="yes"/>
			<point x="36" y="147"/>
			<point x="34" y="147"/>
			<point x="33" y="145" type="curve"/>
			<point x="33" y="140"/>
			<point x="34" y="137"/>
			<point x="33" y="134" type="curve"/>
			<point x="31" y="125"/>
			<point x="28" y="114"/>
			<point x="28" y="111" type="curve" smooth="yes"/>
			<point x="28" y="100" type="line"/>
			<point x="26" y="80"/>
			<point x="20" y="64"/>
			<point x="20" y="47" type="curve" smooth="yes"/>
			<point x="20" y="31"/>
			<point x="23" y="14"/>
			<point x="23" y="-2" type="curve"/>
			<point x="30" y="-2"/>
			<point x="30" y="-8"/>
			<point x="33" y="-11" type="curve"/>
			<point x="37" y="-16"/>
			<point x="42" y="-19"/>
			<point x="48" y="-20" type="curve" smooth="yes"/>
			<point x="59" y="-22"/>
			<point x="68" y="-17"/>
			<point x="70" y="-14" type="curve"/>
			<point x="70" y="-13"/>
			<point x="75" y="-14"/>
			<point x="75" y="-14" type="curve"/>
			<point x="76" y="-13"/>
			<point x="78" y="-10"/>
			<point x="78" y="-8" type="curve"/>
			<point x="81" y="-7"/>
			<point x="81" y="-6"/>
			<point x="84" y="-5" type="curve"/>
			<point x="84" y="-3"/>
			<point x="82" y="0"/>
			<point x="84" y="1" type="curve"/>
			<point x="87" y="1" type="line" smooth="yes"/>
			<point x="87" y="1"/>
			<point x="85" y="6"/>
			<point x="87" y="8" type="curve"/>
			<point x="87" y="9"/>
			<point x="91" y="8"/>
			<point x="91" y="9" type="curve"/>
			<point x="94" y="14"/>
			<point x="91" y="20"/>
			<point x="97" y="23" type="curve"/>
			<point x="97" y="41"/>
			<point x="94" y="50"/>
			<point x="100" y="65" type="curve"/>
			<point x="89" y="87"/>
			<point x="92" y="119"/>
			<point x="91" y="145" type="curve"/>
			<point x="91" y="147"/>
			<point x="88" y="148"/>
			<point x="88" y="147" type="curve"/>
			<point x="88" y="151"/>
			<point x="92" y="150"/>
			<point x="88" y="153" type="curve"/>
			<point x="88" y="153"/>
			<point x="89" y="156"/>
			<point x="88" y="158" type="curve"/>
			<point x="87" y="171"/>
			<point x="91" y="181"/>
			<point x="91" y="192" type="curve"/>
			<point x="92" y="206"/>
			<point x="89" y="220"/>
			<point x="91" y="223" type="curve" smooth="yes"/>
			<point x="95" y="229"/>
			<point x="92" y="234"/>
			<point x="94" y="242" type="curve"/>
			<point x="95" y="250"/>
			<point x="98" y="258"/>
			<point x="100" y="267" type="curve"/>
			<point x="100" y="271"/>
			<point x="101" y="274"/>
			<point x="103" y="276" type="curve"/>
			<point x="103" y="279"/>
			<point x="100" y="279"/>
			<point x="100" y="281" type="curve" smooth="yes"/>
			<point x="100" y="284"/>
			<point x="101" y="286"/>
			<point x="103" y="287" type="curve"/>
			<point x="103" y="292"/>
			<point x="100" y="295"/>
			<point x="100" y="297" type="curve" smooth="yes"/>
			<point x="100" y="298"/>
			<point x="104" y="300"/>
			<point x="104" y="300" type="curve"/>
			<point x="106" y="303"/>
			<point x="104" y="306"/>
			<point x="104" y="309" type="curve"/>
			<point x="107" y="319"/>
			<point x="108" y="334"/>
			<point x="109" y="337" type="curve" smooth="yes"/>
			<point x="112" y="346"/>
			<point x="108" y="354"/>
			<point x="109" y="361" type="curve"/>
			<point x="109" y="364"/>
			<point x="112" y="364"/>
			<point x="112" y="367" type="curve" smooth="yes"/>
			<point x="112" y="368"/>
			<point x="115" y="368"/>
			<point x="115" y="370" type="curve" smooth="yes"/>
			<point x="115" y="373"/>
			<point x="112" y="378"/>
			<point x="112" y="382" type="curve" smooth="yes"/>
			<point x="112" y="385"/>
			<point x="117" y="387"/>
			<point x="118" y="390" type="curve"/>
			<point x="117" y="389"/>
			<point x="115" y="395"/>
			<point x="115" y="395" type="curve"/>
			<point x="114" y="398"/>
			<point x="114" y="398"/>
			<point x="112" y="401" type="curve"/>
			<point x="118" y="407"/>
			<point x="120" y="417"/>
			<point x="120" y="425" type="curve"/>
			<point x="121" y="428"/>
			<point x="121" y="432"/>
			<point x="120" y="434" type="curve"/>
			<point x="120" y="436"/>
			<point x="118" y="439"/>
			<point x="118" y="437" type="curve"/>
			<point x="118" y="440"/>
			<point x="120" y="440"/>
			<point x="120" y="443" type="curve"/>
			<point x="121" y="448"/>
			<point x="120" y="449"/>
			<point x="123" y="451" type="curve"/>
			<point x="128" y="454"/>
			<point x="123" y="479"/>
			<point x="123" y="482" type="curve"/>
			<point x="125" y="488"/>
			<point x="128" y="493"/>
			<point x="128" y="498" type="curve"/>
			<point x="130" y="504"/>
			<point x="130" y="512"/>
			<point x="131" y="517" type="curve" smooth="yes"/>
			<point x="133" y="526"/>
			<point x="136" y="536"/>
			<point x="139" y="540" type="curve"/>
			<point x="140" y="543"/>
			<point x="142" y="542"/>
			<point x="142" y="546" type="curve" smooth="yes"/>
			<point x="142" y="549"/>
			<point x="145" y="548"/>
			<point x="145" y="549" type="curve" smooth="yes"/>
			<point x="145" y="551"/>
			<point x="143" y="554"/>
			<point x="145" y="556" type="curve"/>
			<point x="145" y="559"/>
			<point x="146" y="561"/>
			<point x="148" y="562" type="curve"/>
			<point x="148" y="562"/>
			<point x="143" y="564"/>
			<point x="145" y="568" type="curve"/>
			<point x="148" y="570" type="line"/>
			<point x="150" y="573"/>
			<point x="148" y="575"/>
			<point x="148" y="578" type="curve"/>
			<point x="150" y="579"/>
			<point x="151" y="581"/>
			<point x="151" y="584" type="curve"/>
			<point x="148" y="585" type="line"/>
			<point x="146" y="591"/>
			<point x="153" y="590"/>
			<point x="154" y="591" type="curve" smooth="yes"/>
			<point x="156" y="593"/>
			<point x="153" y="597"/>
			<point x="154" y="598" type="curve"/>
			<point x="153" y="598"/>
			<point x="151" y="601"/>
			<point x="154" y="601" type="curve" smooth="yes"/>
			<point x="157" y="601"/>
			<point x="157" y="604"/>
			<point x="161" y="604" type="curve"/>
			<point x="165" y="610"/>
			<point x="169" y="604"/>
			<point x="173" y="601" type="curve"/>
			<point x="178" y="598"/>
			<point x="184" y="594"/>
			<point x="181" y="585" type="curve"/>
			<point x="182" y="582"/>
			<point x="190" y="585"/>
			<point x="192" y="581" type="curve"/>
			<point x="192" y="574"/>
			<point x="198" y="568"/>
			<point x="200" y="562" type="curve"/>
			<point x="203" y="554"/>
			<point x="198" y="552"/>
			<point x="203" y="549" type="curve"/>
			<point x="203" y="543" type="line"/>
			<point x="206" y="537"/>
			<point x="204" y="540"/>
			<point x="203" y="534" type="curve" smooth="yes"/>
			<point x="201" y="524"/>
			<point x="204" y="523"/>
			<point x="206" y="520" type="curve"/>
			<point x="206" y="515"/>
			<point x="204" y="513"/>
			<point x="206" y="509" type="curve"/>
			<point x="207" y="500"/>
			<point x="212" y="493"/>
			<point x="212" y="485" type="curve"/>
			<point x="214" y="471"/>
			<point x="209" y="459"/>
			<point x="209" y="448" type="curve" smooth="yes"/>
			<point x="209" y="443"/>
			<point x="212" y="440"/>
			<point x="212" y="437" type="curve"/>
			<point x="214" y="426"/>
			<point x="212" y="417"/>
			<point x="212" y="409" type="curve" smooth="yes"/>
			<point x="212" y="406"/>
			<point x="215" y="406"/>
			<point x="215" y="403" type="curve" smooth="yes"/>
			<point x="215" y="401"/>
			<point x="212" y="398"/>
			<point x="212" y="398" type="curve"/>
			<point x="214" y="390"/>
			<point x="218" y="385"/>
			<point x="218" y="382" type="curve" smooth="yes"/>
			<point x="218" y="379"/>
			<point x="215" y="378"/>
			<point x="215" y="376" type="curve"/>
			<point x="217" y="368"/>
			<point x="220" y="361"/>
			<point x="221" y="354" type="curve"/>
			<point x="221" y="348"/>
			<point x="218" y="340"/>
			<point x="218" y="334" type="curve" smooth="yes"/>
			<point x="218" y="332"/>
			<point x="221" y="334"/>
			<point x="221" y="332" type="curve" smooth="yes"/>
			<point x="221" y="331"/>
			<point x="218" y="329"/>
			<point x="218" y="329" type="curve"/>
			<point x="218" y="325"/>
			<point x="220" y="323"/>
			<point x="221" y="319" type="curve"/>
			<point x="223" y="298"/>
			<point x="221" y="276"/>
			<point x="224" y="255" type="curve"/>
			<point x="224" y="250"/>
			<point x="228" y="242"/>
			<point x="228" y="236" type="curve" smooth="yes"/>
			<point x="228" y="232"/>
			<point x="227" y="228"/>
			<point x="226" y="223" type="curve"/>
			<point x="226" y="207" type="line"/>
			<point x="227" y="200"/>
			<point x="230" y="193"/>
			<point x="231" y="184" type="curve"/>
			<point x="233" y="178"/>
			<point x="231" y="173"/>
			<point x="231" y="165" type="curve" smooth="yes"/>
			<point x="231" y="159"/>
			<point x="234" y="154"/>
			<point x="234" y="147" type="curve" smooth="yes"/>
			<point x="234" y="143"/>
			<point x="231" y="142"/>
			<point x="231" y="139" type="curve" smooth="yes"/>
			<point x="231" y="136"/>
			<point x="234" y="137"/>
			<point x="234" y="136" type="curve" smooth="yes"/>
			<point x="234" y="134"/>
			<point x="231" y="134"/>
			<point x="231" y="134" type="curve"/>
			<point x="231" y="131"/>
			<point x="234" y="128"/>
			<point x="234" y="126" type="curve" smooth="yes"/>
			<point x="234" y="122"/>
			<point x="231" y="120"/>
			<point x="231" y="114" type="curve" smooth="yes"/>
			<point x="231" y="106"/>
			<point x="239" y="97"/>
			<point x="237" y="89" type="curve"/>
			<point x="234" y="86" type="line"/>
			<point x="234" y="83"/>
			<point x="237" y="81"/>
			<point x="237" y="78" type="curve" smooth="yes"/>
			<point x="237" y="71"/>
			<point x="236" y="64"/>
			<point x="237" y="56" type="curve" smooth="yes"/>
			<point x="239" y="42"/>
			<point x="246" y="28"/>
			<point x="242" y="12" type="curve"/>
			<point x="248" y="14"/>
			<point x="248" y="8"/>
			<point x="250" y="4" type="curve"/>
			<point x="256" y="-5"/>
			<point x="264" y="-11"/>
			<point x="269" y="-17" type="curve"/>
			<point x="270" y="-20"/>
			<point x="270" y="-17"/>
			<point x="273" y="-20" type="curve"/>
			<point x="285" y="-26"/>
			<point x="303" y="-28"/>
		</contour>
	</outline>
	<lib>
		<dict>
			<key>com.schriftgestaltung.Glyphs.lastChange</key>
			<string>2019-04-20 17:05:34 +0000</string>
			<key>public.markColor</key>
			<string>0.67,0.95,0.38,1</string>
		</dict>
	</lib>
</glyph>
