<?xml version="1.0" encoding="UTF-8"?>
<glyph name="quotedblleft" format="2">
	<advance width="346"/>
	<unicode hex="201C"/>
	<note>
		quotedblleft
  </note>
	<outline>
		<contour>
			<point x="216" y="412" type="curve" smooth="yes"/>
			<point x="225" y="412"/>
			<point x="233" y="416"/>
			<point x="241" y="424" type="curve"/>
			<point x="242" y="427"/>
			<point x="242" y="432"/>
			<point x="242" y="437" type="curve" smooth="yes"/>
			<point x="242" y="446" type="line"/>
			<point x="239" y="446"/>
			<point x="237" y="447"/>
			<point x="234" y="450" type="curve"/>
			<point x="237" y="452" type="line"/>
			<point x="238" y="453" type="line"/>
			<point x="237" y="454"/>
			<point x="235" y="455"/>
			<point x="234" y="458" type="curve"/>
			<point x="233" y="459"/>
			<point x="231" y="460"/>
			<point x="229" y="460" type="curve"/>
			<point x="229" y="458" type="line" smooth="yes"/>
			<point x="229" y="457"/>
			<point x="228" y="457"/>
			<point x="227" y="457" type="curve"/>
			<point x="228" y="463"/>
			<point x="227" y="467"/>
			<point x="224" y="469" type="curve"/>
			<point x="220" y="471"/>
			<point x="218" y="475"/>
			<point x="218" y="480" type="curve" smooth="yes"/>
			<point x="218" y="481"/>
			<point x="217" y="480"/>
			<point x="216" y="479" type="curve" smooth="yes"/>
			<point x="215" y="478"/>
			<point x="213" y="477"/>
			<point x="211" y="477" type="curve"/>
			<point x="211" y="490" type="line"/>
			<point x="210" y="490"/>
			<point x="209" y="491"/>
			<point x="210" y="493" type="curve"/>
			<point x="210" y="496"/>
			<point x="208" y="498"/>
			<point x="204" y="498" type="curve"/>
			<point x="204" y="500"/>
			<point x="204" y="501"/>
			<point x="205" y="502" type="curve" smooth="yes"/>
			<point x="206" y="503"/>
			<point x="206" y="504"/>
			<point x="203" y="504" type="curve"/>
			<point x="207" y="507"/>
			<point x="208" y="509"/>
			<point x="206" y="512" type="curve"/>
			<point x="203" y="515"/>
			<point x="203" y="517"/>
			<point x="204" y="518" type="curve"/>
			<point x="203" y="519"/>
			<point x="203" y="519"/>
			<point x="203" y="518" type="curve"/>
			<point x="200" y="515" type="line"/>
			<point x="200" y="520"/>
			<point x="199" y="522"/>
			<point x="196" y="523" type="curve" smooth="yes"/>
			<point x="193" y="524"/>
			<point x="192" y="527"/>
			<point x="193" y="532" type="curve"/>
			<point x="188" y="533"/>
			<point x="186" y="536"/>
			<point x="186" y="542" type="curve"/>
			<point x="183" y="544"/>
			<point x="180" y="547"/>
			<point x="178" y="551" type="curve"/>
			<point x="175" y="555"/>
			<point x="172" y="558"/>
			<point x="169" y="560" type="curve"/>
			<point x="174" y="560"/>
			<point x="175" y="561"/>
			<point x="172" y="564" type="curve" smooth="yes"/>
			<point x="169" y="567"/>
			<point x="168" y="570"/>
			<point x="169" y="573" type="curve"/>
			<point x="166" y="576" type="line"/>
			<point x="162" y="579" type="line"/>
			<point x="162" y="582"/>
			<point x="161" y="585"/>
			<point x="160" y="586" type="curve"/>
			<point x="158" y="587"/>
			<point x="157" y="589"/>
			<point x="157" y="591" type="curve"/>
			<point x="153" y="595" type="line"/>
			<point x="151" y="596"/>
			<point x="150" y="597"/>
			<point x="149" y="600" type="curve"/>
			<point x="152" y="601"/>
			<point x="153" y="601"/>
			<point x="153" y="602" type="curve" smooth="yes"/>
			<point x="153" y="603"/>
			<point x="152" y="603"/>
			<point x="150" y="603" type="curve" smooth="yes"/>
			<point x="146" y="603" type="line" smooth="yes"/>
			<point x="144" y="603"/>
			<point x="143" y="603"/>
			<point x="143" y="604" type="curve"/>
			<point x="150" y="605"/>
			<point x="146" y="612"/>
			<point x="142" y="607" type="curve"/>
			<point x="142" y="614"/>
			<point x="141" y="619"/>
			<point x="139" y="621" type="curve"/>
			<point x="139" y="624"/>
			<point x="138" y="625"/>
			<point x="136" y="625" type="curve"/>
			<point x="136" y="629" type="line"/>
			<point x="131" y="629" type="line"/>
			<point x="132" y="632"/>
			<point x="132" y="635"/>
			<point x="129" y="636" type="curve"/>
			<point x="127" y="637"/>
			<point x="127" y="639"/>
			<point x="128" y="642" type="curve"/>
			<point x="125" y="643"/>
			<point x="123" y="646"/>
			<point x="123" y="650" type="curve"/>
			<point x="122" y="654"/>
			<point x="120" y="656"/>
			<point x="117" y="656" type="curve"/>
			<point x="118" y="654"/>
			<point x="117" y="653"/>
			<point x="115" y="654" type="curve"/>
			<point x="118" y="657"/>
			<point x="119" y="659"/>
			<point x="117" y="660" type="curve"/>
			<point x="116" y="660"/>
			<point x="114" y="661"/>
			<point x="111" y="662" type="curve"/>
			<point x="115" y="662"/>
			<point x="119" y="663"/>
			<point x="123" y="664" type="curve"/>
			<point x="126" y="665"/>
			<point x="128" y="666"/>
			<point x="131" y="666" type="curve"/>
			<point x="131" y="671"/>
			<point x="133" y="673"/>
			<point x="136" y="672" type="curve"/>
			<point x="136" y="687" type="line"/>
			<point x="135" y="687"/>
			<point x="133" y="688"/>
			<point x="132" y="689" type="curve"/>
			<point x="129" y="693" type="line"/>
			<point x="132" y="696"/>
			<point x="132" y="697"/>
			<point x="131" y="698" type="curve"/>
			<point x="129" y="698"/>
			<point x="128" y="699"/>
			<point x="128" y="700" type="curve"/>
			<point x="131" y="701" type="line"/>
			<point x="131" y="707" type="line"/>
			<point x="130" y="709"/>
			<point x="129" y="710"/>
			<point x="127" y="710" type="curve"/>
			<point x="125" y="709"/>
			<point x="123" y="709"/>
			<point x="122" y="712" type="curve"/>
			<point x="122" y="717"/>
			<point x="121" y="719"/>
			<point x="118" y="719" type="curve"/>
			<point x="117" y="720"/>
			<point x="117" y="721"/>
			<point x="117" y="724" type="curve" smooth="yes"/>
			<point x="117" y="725"/>
			<point x="116" y="726"/>
			<point x="115" y="726" type="curve"/>
			<point x="116" y="723"/>
			<point x="115" y="721"/>
			<point x="110" y="721" type="curve"/>
			<point x="110" y="723"/>
			<point x="111" y="725"/>
			<point x="112" y="726" type="curve" smooth="yes"/>
			<point x="113" y="727"/>
			<point x="112" y="727"/>
			<point x="111" y="728" type="curve"/>
			<point x="108" y="729"/>
			<point x="105" y="731"/>
			<point x="101" y="731" type="curve"/>
			<point x="101" y="732"/>
			<point x="101" y="733"/>
			<point x="100" y="732" type="curve" smooth="yes"/>
			<point x="99" y="731"/>
			<point x="98" y="731"/>
			<point x="96" y="731" type="curve"/>
			<point x="97" y="731"/>
			<point x="97" y="731"/>
			<point x="97" y="732" type="curve"/>
			<point x="96" y="733" type="line"/>
			<point x="96" y="734"/>
			<point x="95" y="735"/>
			<point x="94" y="734" type="curve" smooth="yes"/>
			<point x="93" y="733"/>
			<point x="91" y="733"/>
			<point x="89" y="733" type="curve"/>
			<point x="90" y="733"/>
			<point x="90" y="733"/>
			<point x="90" y="734" type="curve"/>
			<point x="89" y="735" type="line"/>
			<point x="88" y="735"/>
			<point x="87" y="735"/>
			<point x="86" y="736" type="curve"/>
			<point x="84" y="736"/>
			<point x="82" y="736"/>
			<point x="80" y="735" type="curve"/>
			<point x="79" y="735" type="line" smooth="yes"/>
			<point x="76" y="735"/>
			<point x="73" y="734"/>
			<point x="72" y="733" type="curve"/>
			<point x="70" y="733"/>
			<point x="69" y="733"/>
			<point x="68" y="734" type="curve" smooth="yes"/>
			<point x="67" y="735"/>
			<point x="66" y="734"/>
			<point x="66" y="733" type="curve"/>
			<point x="62" y="728" type="line"/>
			<point x="61" y="727"/>
			<point x="59" y="725"/>
			<point x="58" y="722" type="curve"/>
			<point x="54" y="719"/>
			<point x="52" y="715"/>
			<point x="52" y="710" type="curve" smooth="yes"/>
			<point x="52" y="705" type="line"/>
			<point x="50" y="704" type="line"/>
			<point x="49" y="703"/>
			<point x="50" y="702"/>
			<point x="51" y="700" type="curve"/>
			<point x="51" y="699"/>
			<point x="51" y="698"/>
			<point x="52" y="698" type="curve"/>
			<point x="52" y="697" type="line"/>
			<point x="49" y="694"/>
			<point x="49" y="693"/>
			<point x="51" y="693" type="curve"/>
			<point x="52" y="692" type="line" smooth="yes"/>
			<point x="53" y="691"/>
			<point x="54" y="690"/>
			<point x="55" y="690" type="curve"/>
			<point x="55" y="687"/>
			<point x="55" y="684"/>
			<point x="56" y="683" type="curve"/>
			<point x="56" y="682"/>
			<point x="59" y="679"/>
			<point x="59" y="679" type="curve"/>
			<point x="59" y="678"/>
			<point x="60" y="675"/>
			<point x="62" y="672" type="curve"/>
			<point x="62" y="671"/>
			<point x="63" y="670"/>
			<point x="64" y="670" type="curve"/>
			<point x="66" y="669"/>
			<point x="68" y="667"/>
			<point x="69" y="662" type="curve"/>
			<point x="69" y="660"/>
			<point x="69" y="659"/>
			<point x="70" y="658" type="curve"/>
			<point x="72" y="653" type="line"/>
			<point x="72" y="651"/>
			<point x="72" y="650"/>
			<point x="73" y="649" type="curve"/>
			<point x="77" y="643" type="line"/>
			<point x="77" y="642"/>
			<point x="77" y="642"/>
			<point x="78" y="642" type="curve"/>
			<point x="80" y="640" type="line"/>
			<point x="80" y="636" type="line"/>
			<point x="80" y="637"/>
			<point x="80" y="637"/>
			<point x="81" y="637" type="curve"/>
			<point x="82" y="636" type="line"/>
			<point x="83" y="636"/>
			<point x="84" y="635"/>
			<point x="84" y="633" type="curve"/>
			<point x="85" y="633"/>
			<point x="85" y="633"/>
			<point x="84" y="632" type="curve" smooth="yes"/>
			<point x="83" y="631"/>
			<point x="82" y="630"/>
			<point x="82" y="629" type="curve"/>
			<point x="88" y="627" type="line"/>
			<point x="89" y="626"/>
			<point x="90" y="626"/>
			<point x="91" y="626" type="curve" smooth="yes"/>
			<point x="92" y="626"/>
			<point x="92" y="626"/>
			<point x="93" y="625" type="curve"/>
			<point x="94" y="621"/>
			<point x="96" y="619"/>
			<point x="99" y="618" type="curve" smooth="yes"/>
			<point x="102" y="617"/>
			<point x="102" y="614"/>
			<point x="101" y="608" type="curve"/>
			<point x="107" y="607"/>
			<point x="111" y="604"/>
			<point x="114" y="598" type="curve"/>
			<point x="114" y="597"/>
			<point x="114" y="593"/>
			<point x="117" y="592" type="curve"/>
			<point x="118" y="590" type="line"/>
			<point x="127" y="581"/>
			<point x="132" y="574"/>
			<point x="135" y="569" type="curve"/>
			<point x="135" y="568"/>
			<point x="136" y="567"/>
			<point x="137" y="566" type="curve"/>
			<point x="138" y="564"/>
			<point x="137" y="562"/>
			<point x="135" y="560" type="curve"/>
			<point x="137" y="561"/>
			<point x="138" y="561"/>
			<point x="138" y="559" type="curve" smooth="yes"/>
			<point x="138" y="556"/>
			<point x="138" y="554"/>
			<point x="139" y="553" type="curve"/>
			<point x="140" y="553"/>
			<point x="141" y="553"/>
			<point x="142" y="554" type="curve" smooth="yes"/>
			<point x="143" y="555"/>
			<point x="143" y="554"/>
			<point x="143" y="553" type="curve"/>
			<point x="144" y="553"/>
			<point x="145" y="552"/>
			<point x="145" y="551" type="curve"/>
			<point x="144" y="549"/>
			<point x="145" y="547"/>
			<point x="146" y="546" type="curve"/>
			<point x="150" y="546"/>
			<point x="152" y="542"/>
			<point x="152" y="541" type="curve"/>
			<point x="150" y="541"/>
			<point x="149" y="540"/>
			<point x="149" y="538" type="curve"/>
			<point x="153" y="535" type="line"/>
			<point x="154" y="534"/>
			<point x="155" y="533"/>
			<point x="155" y="532" type="curve"/>
			<point x="154" y="532"/>
			<point x="153" y="531"/>
			<point x="154" y="530" type="curve"/>
			<point x="155" y="528"/>
			<point x="154" y="526"/>
			<point x="153" y="525" type="curve"/>
			<point x="158" y="522"/>
			<point x="160" y="518"/>
			<point x="160" y="512" type="curve" smooth="yes"/>
			<point x="160" y="509" type="line"/>
			<point x="165" y="510"/>
			<point x="167" y="509"/>
			<point x="166" y="508" type="curve"/>
			<point x="164" y="505" type="line"/>
			<point x="165" y="504"/>
			<point x="166" y="503"/>
			<point x="166" y="502" type="curve"/>
			<point x="168" y="501" type="line"/>
			<point x="169" y="500"/>
			<point x="169" y="499"/>
			<point x="169" y="497" type="curve"/>
			<point x="168" y="496"/>
			<point x="167" y="494"/>
			<point x="167" y="492" type="curve" smooth="yes"/>
			<point x="167" y="489"/>
			<point x="167" y="488"/>
			<point x="166" y="487" type="curve"/>
			<point x="167" y="486"/>
			<point x="168" y="484"/>
			<point x="168" y="482" type="curve"/>
			<point x="167" y="481"/>
			<point x="167" y="479"/>
			<point x="167" y="476" type="curve"/>
			<point x="169" y="476" type="line" smooth="yes"/>
			<point x="171" y="476"/>
			<point x="171" y="475"/>
			<point x="170" y="473" type="curve"/>
			<point x="169" y="469" type="line"/>
			<point x="171" y="469" type="line" smooth="yes"/>
			<point x="172" y="469"/>
			<point x="173" y="468"/>
			<point x="172" y="467" type="curve" smooth="yes"/>
			<point x="171" y="466"/>
			<point x="171" y="464"/>
			<point x="171" y="462" type="curve"/>
			<point x="174" y="462"/>
			<point x="175" y="461"/>
			<point x="175" y="460" type="curve"/>
			<point x="172" y="457"/>
			<point x="175" y="457"/>
			<point x="176" y="458" type="curve"/>
			<point x="176" y="457" type="line"/>
			<point x="177" y="457"/>
			<point x="178" y="456"/>
			<point x="177" y="455" type="curve" smooth="yes"/>
			<point x="176" y="454"/>
			<point x="176" y="453"/>
			<point x="176" y="452" type="curve"/>
			<point x="180" y="452"/>
			<point x="182" y="451"/>
			<point x="182" y="448" type="curve"/>
			<point x="181" y="447"/>
			<point x="181" y="445"/>
			<point x="183" y="443" type="curve" smooth="yes"/>
			<point x="185" y="441"/>
			<point x="185" y="438"/>
			<point x="183" y="435" type="curve"/>
			<point x="189" y="435" type="line"/>
			<point x="189" y="432"/>
			<point x="190" y="429"/>
			<point x="193" y="427" type="curve"/>
			<point x="197" y="422" type="line"/>
			<point x="198" y="422"/>
			<point x="199" y="422"/>
			<point x="198" y="421" type="curve" smooth="yes"/>
			<point x="197" y="420"/>
			<point x="197" y="419"/>
			<point x="197" y="418" type="curve"/>
			<point x="203" y="419" type="line"/>
			<point x="206" y="419"/>
			<point x="206" y="417"/>
			<point x="204" y="414" type="curve"/>
			<point x="207" y="413"/>
			<point x="211" y="412"/>
		</contour>
		<contour>
			<point x="271" y="544" type="curve"/>
			<point x="272" y="545"/>
			<point x="274" y="545"/>
			<point x="276" y="545" type="curve"/>
			<point x="277" y="546" type="line" smooth="yes"/>
			<point x="278" y="547"/>
			<point x="279" y="547"/>
			<point x="281" y="547" type="curve"/>
			<point x="283" y="546" type="line"/>
			<point x="284" y="547"/>
			<point x="284" y="548"/>
			<point x="284" y="549" type="curve"/>
			<point x="285" y="548"/>
			<point x="285" y="548"/>
			<point x="286" y="548" type="curve" smooth="yes"/>
			<point x="287" y="548"/>
			<point x="287" y="549"/>
			<point x="288" y="550" type="curve"/>
			<point x="289" y="553"/>
			<point x="290" y="553"/>
			<point x="291" y="552" type="curve"/>
			<point x="292" y="555"/>
			<point x="294" y="558"/>
			<point x="295" y="559" type="curve" smooth="yes"/>
			<point x="296" y="560"/>
			<point x="296" y="563"/>
			<point x="295" y="566" type="curve"/>
			<point x="295" y="568"/>
			<point x="294" y="570"/>
			<point x="293" y="572" type="curve"/>
			<point x="290" y="576"/>
			<point x="288" y="581"/>
			<point x="289" y="582" type="curve"/>
			<point x="289" y="583"/>
			<point x="288" y="584"/>
			<point x="287" y="584" type="curve"/>
			<point x="286" y="585"/>
			<point x="284" y="587"/>
			<point x="283" y="590" type="curve"/>
			<point x="282" y="592"/>
			<point x="281" y="593"/>
			<point x="280" y="593" type="curve"/>
			<point x="280" y="596" type="line"/>
			<point x="279" y="595"/>
			<point x="278" y="595"/>
			<point x="277" y="595" type="curve" smooth="yes"/>
			<point x="277" y="595"/>
			<point x="273" y="607"/>
			<point x="272" y="608" type="curve" smooth="yes"/>
			<point x="271" y="609"/>
			<point x="270" y="610"/>
			<point x="270" y="611" type="curve"/>
			<point x="268" y="611"/>
			<point x="267" y="612"/>
			<point x="267" y="614" type="curve"/>
			<point x="263" y="618" type="line"/>
			<point x="264" y="623"/>
			<point x="265" y="626"/>
			<point x="264" y="627" type="curve" smooth="yes"/>
			<point x="262" y="629"/>
			<point x="261" y="631"/>
			<point x="260" y="633" type="curve"/>
			<point x="259" y="636"/>
			<point x="259" y="637"/>
			<point x="258" y="636" type="curve"/>
			<point x="257" y="632"/>
			<point x="255" y="635"/>
			<point x="256" y="638" type="curve"/>
			<point x="256" y="641"/>
			<point x="255" y="642"/>
			<point x="254" y="641" type="curve"/>
			<point x="252" y="640" type="line"/>
			<point x="252" y="645"/>
			<point x="251" y="647"/>
			<point x="249" y="647" type="curve"/>
			<point x="249" y="648"/>
			<point x="248" y="650"/>
			<point x="245" y="653" type="curve"/>
			<point x="245" y="656" type="line" smooth="yes"/>
			<point x="245" y="657"/>
			<point x="245" y="658"/>
			<point x="244" y="657" type="curve" smooth="yes"/>
			<point x="243" y="656"/>
			<point x="242" y="656"/>
			<point x="241" y="656" type="curve"/>
			<point x="241" y="658" type="line" smooth="yes"/>
			<point x="241" y="659"/>
			<point x="240" y="660"/>
			<point x="239" y="660" type="curve"/>
			<point x="236" y="671"/>
			<point x="232" y="679"/>
			<point x="227" y="683" type="curve"/>
			<point x="230" y="688" type="line"/>
			<point x="229" y="688"/>
			<point x="228" y="690"/>
			<point x="227" y="693" type="curve"/>
			<point x="224" y="698" type="line"/>
			<point x="220" y="701" type="line"/>
			<point x="223" y="704" type="line"/>
			<point x="222" y="705" type="line" smooth="yes"/>
			<point x="219" y="708"/>
			<point x="215" y="712"/>
			<point x="210" y="718" type="curve"/>
			<point x="211" y="721"/>
			<point x="211" y="724"/>
			<point x="210" y="725" type="curve" smooth="yes"/>
			<point x="207" y="728" type="line"/>
			<point x="207" y="733"/>
			<point x="206" y="736"/>
			<point x="204" y="738" type="curve" smooth="yes"/>
			<point x="202" y="740" type="line"/>
			<point x="202" y="740"/>
			<point x="201" y="741"/>
			<point x="200" y="742" type="curve"/>
			<point x="201" y="743" type="line"/>
			<point x="197" y="745" type="line"/>
			<point x="197" y="748"/>
			<point x="197" y="750"/>
			<point x="196" y="750" type="curve" smooth="yes"/>
			<point x="179" y="750" type="line"/>
			<point x="179" y="748" type="line" smooth="yes"/>
			<point x="179" y="747"/>
			<point x="178" y="746"/>
			<point x="176" y="745" type="curve"/>
			<point x="173" y="746"/>
			<point x="172" y="746"/>
			<point x="172" y="745" type="curve"/>
			<point x="171" y="743"/>
			<point x="169" y="742"/>
			<point x="166" y="742" type="curve"/>
			<point x="167" y="739"/>
			<point x="167" y="735"/>
			<point x="166" y="732" type="curve"/>
			<point x="165" y="728"/>
			<point x="165" y="726"/>
			<point x="166" y="726" type="curve" smooth="yes"/>
			<point x="170" y="726"/>
			<point x="167" y="721"/>
			<point x="166" y="718" type="curve"/>
			<point x="171" y="715" type="line"/>
			<point x="173" y="714"/>
			<point x="172" y="713"/>
			<point x="169" y="712" type="curve"/>
			<point x="174" y="710"/>
			<point x="177" y="708"/>
			<point x="177" y="707" type="curve" smooth="yes"/>
			<point x="177" y="706"/>
			<point x="176" y="705"/>
			<point x="175" y="704" type="curve"/>
			<point x="179" y="704" type="line" smooth="yes"/>
			<point x="180" y="704"/>
			<point x="180" y="704"/>
			<point x="180" y="705" type="curve"/>
			<point x="180" y="702"/>
			<point x="181" y="700"/>
			<point x="182" y="699" type="curve"/>
			<point x="186" y="694" type="line"/>
			<point x="189" y="693"/>
			<point x="190" y="692"/>
			<point x="190" y="690" type="curve"/>
			<point x="192" y="685"/>
			<point x="194" y="682"/>
			<point x="196" y="680" type="curve"/>
			<point x="197" y="680"/>
			<point x="197" y="679"/>
			<point x="197" y="676" type="curve"/>
			<point x="204" y="669" type="line"/>
			<point x="206" y="669"/>
			<point x="207" y="668"/>
			<point x="207" y="665" type="curve"/>
			<point x="209" y="663" type="line"/>
			<point x="210" y="663"/>
			<point x="210" y="663"/>
			<point x="210" y="662" type="curve"/>
			<point x="211" y="661"/>
			<point x="211" y="659"/>
			<point x="211" y="656" type="curve"/>
			<point x="214" y="653"/>
			<point x="215" y="652"/>
			<point x="215" y="653" type="curve"/>
			<point x="216" y="653"/>
			<point x="217" y="652"/>
			<point x="216" y="651" type="curve" smooth="yes"/>
			<point x="215" y="650"/>
			<point x="215" y="649"/>
			<point x="215" y="647" type="curve"/>
			<point x="218" y="647"/>
			<point x="220" y="646"/>
			<point x="221" y="645" type="curve" smooth="yes"/>
			<point x="222" y="644"/>
			<point x="222" y="643"/>
			<point x="222" y="642" type="curve"/>
			<point x="223" y="642"/>
			<point x="224" y="642"/>
			<point x="223" y="641" type="curve"/>
			<point x="222" y="639" type="line"/>
			<point x="224" y="639" type="line"/>
			<point x="224" y="638"/>
			<point x="224" y="633"/>
			<point x="227" y="632" type="curve"/>
			<point x="228" y="631"/>
			<point x="229" y="630"/>
			<point x="229" y="629" type="curve"/>
			<point x="231" y="628"/>
			<point x="232" y="626"/>
			<point x="232" y="622" type="curve" smooth="yes"/>
			<point x="232" y="618"/>
			<point x="233" y="615"/>
			<point x="236" y="613" type="curve"/>
			<point x="239" y="609"/>
			<point x="240" y="606"/>
			<point x="241" y="604" type="curve"/>
			<point x="239" y="602"/>
			<point x="239" y="600"/>
			<point x="242" y="597" type="curve"/>
			<point x="242" y="598"/>
			<point x="245" y="600"/>
			<point x="245" y="597" type="curve" smooth="yes"/>
			<point x="245" y="596"/>
			<point x="246" y="594"/>
			<point x="247" y="593" type="curve" smooth="yes"/>
			<point x="248" y="592"/>
			<point x="249" y="591"/>
			<point x="249" y="590" type="curve" smooth="yes"/>
			<point x="249" y="589"/>
			<point x="249" y="588"/>
			<point x="248" y="587" type="curve"/>
			<point x="246" y="583" type="line"/>
			<point x="249" y="583"/>
			<point x="251" y="582"/>
			<point x="252" y="580" type="curve"/>
			<point x="252" y="577"/>
			<point x="252" y="575"/>
			<point x="253" y="574" type="curve"/>
			<point x="251" y="574"/>
			<point x="251" y="573"/>
			<point x="252" y="572" type="curve"/>
			<point x="254" y="568"/>
			<point x="255" y="564"/>
			<point x="255" y="560" type="curve" smooth="yes"/>
			<point x="255" y="553" type="line"/>
			<point x="258" y="554"/>
			<point x="260" y="554"/>
			<point x="260" y="552" type="curve" smooth="yes"/>
			<point x="260" y="546" type="line"/>
			<point x="261" y="545"/>
			<point x="262" y="545"/>
			<point x="263" y="546" type="curve" smooth="yes"/>
			<point x="264" y="547"/>
			<point x="264" y="547"/>
			<point x="265" y="547" type="curve" smooth="yes"/>
			<point x="266" y="547"/>
			<point x="266" y="547"/>
			<point x="266" y="546" type="curve"/>
			<point x="267" y="544"/>
			<point x="268" y="543"/>
		</contour>
	</outline>
	<lib>
		<dict>
			<key>com.schriftgestaltung.Glyphs.lastChange</key>
			<string>2019-04-20 11:24:57 +0000</string>
			<key>public.markColor</key>
			<string>0.67,0.95,0.38,1</string>
		</dict>
	</lib>
</glyph>
