<?xml version="1.0" encoding="UTF-8"?>
<glyph name="ygrave" format="2">
	<advance width="533"/>
	<unicode hex="1EF3"/>
	<outline>
		<contour>
			<point x="397" y="224" type="curve"/>
			<point x="391" y="224"/>
			<point x="397" y="226"/>
			<point x="397" y="229" type="curve"/>
			<point x="396" y="230"/>
			<point x="389" y="235"/>
			<point x="397" y="235" type="curve"/>
			<point x="396" y="239"/>
			<point x="391" y="241"/>
			<point x="389" y="243" type="curve"/>
			<point x="391" y="255"/>
			<point x="383" y="255"/>
			<point x="387" y="262" type="curve"/>
			<point x="387" y="264"/>
			<point x="386" y="264"/>
			<point x="386" y="262" type="curve"/>
			<point x="381" y="262"/>
			<point x="387" y="264"/>
			<point x="386" y="266" type="curve"/>
			<point x="383" y="271"/>
			<point x="379" y="272"/>
			<point x="387" y="272" type="curve"/>
			<point x="387" y="275"/>
			<point x="383" y="282"/>
			<point x="387" y="291" type="curve"/>
			<point x="387" y="296"/>
			<point x="390" y="298"/>
			<point x="381" y="298" type="curve"/>
			<point x="383" y="300"/>
			<point x="386" y="302"/>
			<point x="389" y="302" type="curve"/>
			<point x="386" y="307"/>
			<point x="391" y="323"/>
			<point x="389" y="327" type="curve"/>
			<point x="386" y="331"/>
			<point x="389" y="331"/>
			<point x="389" y="333" type="curve"/>
			<point x="389" y="332"/>
			<point x="387" y="333"/>
			<point x="387" y="336" type="curve"/>
			<point x="387" y="336"/>
			<point x="389" y="336"/>
			<point x="389" y="337" type="curve" smooth="yes"/>
			<point x="389" y="338"/>
			<point x="387" y="341"/>
			<point x="386" y="342" type="curve"/>
			<point x="383" y="344"/>
			<point x="389" y="342"/>
			<point x="389" y="344" type="curve"/>
			<point x="390" y="346"/>
			<point x="391" y="367"/>
			<point x="390" y="369" type="curve"/>
			<point x="389" y="370"/>
			<point x="389" y="369"/>
			<point x="390" y="372" type="curve"/>
			<point x="391" y="378"/>
			<point x="389" y="382"/>
			<point x="390" y="388" type="curve"/>
			<point x="389" y="389"/>
			<point x="389" y="390"/>
			<point x="389" y="395" type="curve"/>
			<point x="390" y="396"/>
			<point x="390" y="390"/>
			<point x="390" y="390" type="curve"/>
			<point x="395" y="389"/>
			<point x="396" y="399"/>
			<point x="389" y="398" type="curve"/>
			<point x="395" y="404"/>
			<point x="387" y="405"/>
			<point x="389" y="410" type="curve"/>
			<point x="396" y="410" type="line"/>
			<point x="391" y="414"/>
			<point x="395" y="419"/>
			<point x="397" y="421" type="curve"/>
			<point x="397" y="428"/>
			<point x="397" y="435"/>
			<point x="396" y="440" type="curve"/>
			<point x="400" y="439"/>
			<point x="405" y="444"/>
			<point x="407" y="444" type="curve" smooth="yes"/>
			<point x="413" y="444"/>
			<point x="413" y="440"/>
			<point x="418" y="439" type="curve"/>
			<point x="418" y="435"/>
			<point x="418" y="431"/>
			<point x="416" y="428" type="curve"/>
			<point x="415" y="428"/>
			<point x="422" y="423"/>
			<point x="421" y="423" type="curve"/>
			<point x="418" y="421"/>
			<point x="418" y="418"/>
			<point x="422" y="421" type="curve"/>
			<point x="425" y="419"/>
			<point x="422" y="418"/>
			<point x="422" y="414" type="curve"/>
			<point x="424" y="413"/>
			<point x="427" y="413"/>
			<point x="425" y="408" type="curve"/>
			<point x="427" y="405"/>
			<point x="431" y="405"/>
			<point x="430" y="400" type="curve"/>
			<point x="431" y="399"/>
			<point x="432" y="399"/>
			<point x="436" y="399" type="curve"/>
			<point x="435" y="396"/>
			<point x="432" y="395"/>
			<point x="430" y="396" type="curve"/>
			<point x="431" y="390"/>
			<point x="437" y="395"/>
			<point x="440" y="390" type="curve"/>
			<point x="440" y="389"/>
			<point x="437" y="389"/>
			<point x="436" y="389" type="curve"/>
			<point x="436" y="388"/>
			<point x="435" y="382"/>
			<point x="436" y="380" type="curve"/>
			<point x="437" y="379"/>
			<point x="436" y="379"/>
			<point x="436" y="374" type="curve" smooth="yes"/>
			<point x="436" y="373"/>
			<point x="435" y="372"/>
			<point x="436" y="370" type="curve"/>
			<point x="437" y="369"/>
			<point x="435" y="369"/>
			<point x="435" y="364" type="curve" smooth="yes"/>
			<point x="435" y="363"/>
			<point x="436" y="363"/>
			<point x="437" y="362" type="curve"/>
			<point x="437" y="352"/>
			<point x="437" y="338"/>
			<point x="436" y="331" type="curve"/>
			<point x="436" y="327"/>
			<point x="435" y="319"/>
			<point x="435" y="313" type="curve"/>
			<point x="432" y="307"/>
			<point x="432" y="304"/>
			<point x="431" y="296" type="curve"/>
			<point x="431" y="291" type="line" smooth="yes"/>
			<point x="431" y="290"/>
			<point x="430" y="290"/>
			<point x="430" y="288" type="curve"/>
			<point x="431" y="284" type="line"/>
			<point x="431" y="282"/>
			<point x="427" y="281"/>
			<point x="427" y="281" type="curve"/>
			<point x="425" y="278"/>
			<point x="430" y="278"/>
			<point x="430" y="275" type="curve"/>
			<point x="427" y="270"/>
			<point x="422" y="262"/>
			<point x="424" y="255" type="curve"/>
			<point x="418" y="250"/>
			<point x="412" y="245"/>
			<point x="410" y="234" type="curve"/>
			<point x="400" y="234" type="line"/>
			<point x="406" y="230"/>
			<point x="405" y="224"/>
			<point x="399" y="229" type="curve"/>
			<point x="399" y="226"/>
			<point x="400" y="225"/>
			<point x="403" y="225" type="curve"/>
			<point x="403" y="218"/>
			<point x="397" y="230"/>
		</contour>
		<contour>
			<point x="393" y="605" type="curve"/>
			<point x="399" y="605" type="line"/>
			<point x="407" y="602"/>
			<point x="418" y="610"/>
			<point x="421" y="612" type="curve"/>
			<point x="425" y="616"/>
			<point x="428" y="614"/>
			<point x="430" y="618" type="curve"/>
			<point x="430" y="619"/>
			<point x="433" y="619"/>
			<point x="434" y="620" type="curve"/>
			<point x="435" y="622"/>
			<point x="433" y="624"/>
			<point x="433" y="626" type="curve"/>
			<point x="435" y="640"/>
			<point x="426" y="644"/>
			<point x="423" y="648" type="curve"/>
			<point x="420" y="654"/>
			<point x="420" y="654"/>
			<point x="416" y="656" type="curve"/>
			<point x="406" y="662"/>
			<point x="396" y="667"/>
			<point x="386" y="671" type="curve"/>
			<point x="384" y="671"/>
			<point x="382" y="673"/>
			<point x="381" y="673" type="curve"/>
			<point x="378" y="675"/>
			<point x="375" y="672"/>
			<point x="373" y="673" type="curve"/>
			<point x="361" y="680" type="line"/>
			<point x="357" y="681"/>
			<point x="352" y="683"/>
			<point x="349" y="685" type="curve"/>
			<point x="345" y="688"/>
			<point x="343" y="691"/>
			<point x="341" y="693" type="curve"/>
			<point x="336" y="693" type="line"/>
			<point x="333" y="696"/>
			<point x="330" y="697"/>
			<point x="327" y="699" type="curve"/>
			<point x="325" y="699"/>
			<point x="326" y="700"/>
			<point x="324" y="702" type="curve"/>
			<point x="321" y="704"/>
			<point x="316" y="705"/>
			<point x="315" y="706" type="curve"/>
			<point x="312" y="708"/>
			<point x="311" y="714"/>
			<point x="308" y="717" type="curve"/>
			<point x="303" y="717" type="line"/>
			<point x="298" y="720"/>
			<point x="300" y="732"/>
			<point x="292" y="728" type="curve"/>
			<point x="286" y="731"/>
			<point x="283" y="741"/>
			<point x="278" y="747" type="curve"/>
			<point x="272" y="746"/>
			<point x="266" y="753"/>
			<point x="265" y="756" type="curve" smooth="yes"/>
			<point x="264" y="759"/>
			<point x="263" y="758"/>
			<point x="261" y="759" type="curve"/>
			<point x="258" y="767" type="line"/>
			<point x="258" y="770"/>
			<point x="256" y="768"/>
			<point x="256" y="768" type="curve"/>
			<point x="244" y="787"/>
			<point x="240" y="809"/>
			<point x="229" y="825" type="curve" smooth="yes"/>
			<point x="217" y="842"/>
			<point x="198" y="854"/>
			<point x="180" y="837" type="curve"/>
			<point x="178" y="837"/>
			<point x="177" y="833"/>
			<point x="176" y="832" type="curve"/>
			<point x="176" y="831"/>
			<point x="174" y="831"/>
			<point x="172" y="831" type="curve"/>
			<point x="171" y="829"/>
			<point x="172" y="829"/>
			<point x="171" y="827" type="curve" smooth="yes"/>
			<point x="169" y="823"/>
			<point x="164" y="821"/>
			<point x="162" y="817" type="curve"/>
			<point x="161" y="812"/>
			<point x="163" y="808"/>
			<point x="160" y="803" type="curve"/>
			<point x="163" y="794"/>
			<point x="166" y="785"/>
			<point x="170" y="776" type="curve"/>
			<point x="178" y="772"/>
			<point x="182" y="756"/>
			<point x="188" y="744" type="curve"/>
			<point x="196" y="742"/>
			<point x="204" y="729"/>
			<point x="209" y="727" type="curve"/>
			<point x="210" y="727"/>
			<point x="209" y="723"/>
			<point x="210" y="723" type="curve"/>
			<point x="211" y="721"/>
			<point x="215" y="723"/>
			<point x="216" y="721" type="curve"/>
			<point x="220" y="717"/>
			<point x="223" y="711"/>
			<point x="229" y="706" type="curve"/>
			<point x="228" y="706"/>
			<point x="232" y="705"/>
			<point x="232" y="705" type="curve"/>
			<point x="234" y="703"/>
			<point x="234" y="703"/>
			<point x="236" y="699" type="curve"/>
			<point x="237" y="694"/>
			<point x="246" y="693"/>
			<point x="248" y="693" type="curve"/>
			<point x="248" y="692"/>
			<point x="248" y="689"/>
			<point x="249" y="689" type="curve"/>
			<point x="252" y="687"/>
			<point x="251" y="685"/>
			<point x="253" y="684" type="curve"/>
			<point x="255" y="684"/>
			<point x="257" y="685"/>
			<point x="258" y="684" type="curve"/>
			<point x="263" y="681"/>
			<point x="261" y="676"/>
			<point x="266" y="677" type="curve"/>
			<point x="268" y="677"/>
			<point x="275" y="671"/>
			<point x="276" y="670" type="curve"/>
			<point x="279" y="666" type="line"/>
			<point x="281" y="665"/>
			<point x="282" y="661"/>
			<point x="284" y="660" type="curve"/>
			<point x="284" y="659"/>
			<point x="288" y="662"/>
			<point x="289" y="661" type="curve"/>
			<point x="290" y="661"/>
			<point x="289" y="658"/>
			<point x="290" y="657" type="curve"/>
			<point x="291" y="657"/>
			<point x="294" y="657"/>
			<point x="295" y="656" type="curve"/>
			<point x="298" y="655"/>
			<point x="300" y="652"/>
			<point x="304" y="652" type="curve"/>
			<point x="304" y="649"/>
			<point x="306" y="650"/>
			<point x="307" y="650" type="curve"/>
			<point x="312" y="648"/>
			<point x="313" y="642"/>
			<point x="317" y="642" type="curve"/>
			<point x="319" y="638"/>
			<point x="324" y="641"/>
			<point x="326" y="640" type="curve"/>
			<point x="329" y="641"/>
			<point x="328" y="635"/>
			<point x="330" y="633" type="curve"/>
			<point x="336" y="631" type="line"/>
			<point x="341" y="629"/>
			<point x="348" y="632"/>
			<point x="350" y="625" type="curve"/>
			<point x="355" y="620"/>
			<point x="362" y="618"/>
			<point x="369" y="614" type="curve"/>
			<point x="374" y="612"/>
			<point x="381" y="609"/>
			<point x="384" y="607" type="curve"/>
			<point x="387" y="606"/>
			<point x="389" y="607"/>
		</contour>
		<contour>
			<point x="446" y="-380" type="curve"/>
			<point x="450" y="-374"/>
			<point x="446" y="-365"/>
			<point x="446" y="-360" type="curve"/>
			<point x="452" y="-360"/>
			<point x="453" y="-355"/>
			<point x="458" y="-353" type="curve"/>
			<point x="463" y="-337"/>
			<point x="457" y="-324"/>
			<point x="450" y="-315" type="curve"/>
			<point x="450" y="-305" type="line"/>
			<point x="446" y="-305"/>
			<point x="446" y="-305"/>
			<point x="445" y="-304" type="curve"/>
			<point x="445" y="-303"/>
			<point x="445" y="-297"/>
			<point x="441" y="-295" type="curve"/>
			<point x="446" y="-288"/>
			<point x="437" y="-288"/>
			<point x="441" y="-279" type="curve"/>
			<point x="440" y="-279"/>
			<point x="437" y="-279"/>
			<point x="437" y="-278" type="curve"/>
			<point x="441" y="-264"/>
			<point x="431" y="-251"/>
			<point x="435" y="-248" type="curve"/>
			<point x="436" y="-248"/>
			<point x="432" y="-245"/>
			<point x="432" y="-245" type="curve"/>
			<point x="432" y="-239" type="line" smooth="yes"/>
			<point x="432" y="-232"/>
			<point x="432" y="-231"/>
			<point x="431" y="-225" type="curve"/>
			<point x="431" y="-221" type="line" smooth="yes"/>
			<point x="431" y="-218"/>
			<point x="430" y="-216"/>
			<point x="430" y="-215" type="curve" smooth="yes"/>
			<point x="430" y="-213"/>
			<point x="431" y="-213"/>
			<point x="431" y="-212" type="curve" smooth="yes"/>
			<point x="431" y="-210"/>
			<point x="427" y="-210"/>
			<point x="427" y="-207" type="curve" smooth="yes"/>
			<point x="427" y="-205"/>
			<point x="431" y="-205"/>
			<point x="427" y="-201" type="curve"/>
			<point x="424" y="-196"/>
			<point x="427" y="-195"/>
			<point x="427" y="-188" type="curve"/>
			<point x="427" y="-188"/>
			<point x="425" y="-188"/>
			<point x="425" y="-187" type="curve" smooth="yes"/>
			<point x="425" y="-185"/>
			<point x="430" y="-187"/>
			<point x="425" y="-185" type="curve"/>
			<point x="425" y="-180" type="line"/>
			<point x="424" y="-175"/>
			<point x="424" y="-166"/>
			<point x="422" y="-162" type="curve"/>
			<point x="422" y="-156" type="line" smooth="yes"/>
			<point x="422" y="-155"/>
			<point x="421" y="-155"/>
			<point x="421" y="-151" type="curve" smooth="yes"/>
			<point x="421" y="-149"/>
			<point x="424" y="-149"/>
			<point x="421" y="-146" type="curve"/>
			<point x="421" y="-141" type="line"/>
			<point x="418" y="-139"/>
			<point x="421" y="-134"/>
			<point x="418" y="-130" type="curve"/>
			<point x="418" y="-128"/>
			<point x="416" y="-128"/>
			<point x="416" y="-125" type="curve" smooth="yes"/>
			<point x="416" y="-121"/>
			<point x="418" y="-118"/>
			<point x="415" y="-117" type="curve"/>
			<point x="415" y="-109" type="line" smooth="yes"/>
			<point x="415" y="-108"/>
			<point x="413" y="-109"/>
			<point x="413" y="-108" type="curve"/>
			<point x="412" y="-104"/>
			<point x="413" y="-96"/>
			<point x="412" y="-90" type="curve"/>
			<point x="412" y="-88"/>
			<point x="407" y="-82"/>
			<point x="410" y="-79" type="curve"/>
			<point x="410" y="-77"/>
			<point x="412" y="-75"/>
			<point x="412" y="-77" type="curve"/>
			<point x="412" y="-73"/>
			<point x="410" y="-69"/>
			<point x="410" y="-69" type="curve"/>
			<point x="410" y="-68"/>
			<point x="413" y="-68"/>
			<point x="415" y="-67" type="curve"/>
			<point x="412" y="-64" type="line"/>
			<point x="413" y="-63"/>
			<point x="415" y="-64"/>
			<point x="415" y="-61" type="curve"/>
			<point x="410" y="-59" type="line"/>
			<point x="410" y="-57"/>
			<point x="412" y="-57"/>
			<point x="407" y="-54" type="curve"/>
			<point x="407" y="-49" type="line"/>
			<point x="406" y="-43"/>
			<point x="410" y="-36"/>
			<point x="406" y="-35" type="curve"/>
			<point x="406" y="-32" type="line" smooth="yes"/>
			<point x="406" y="-25"/>
			<point x="406" y="-23"/>
			<point x="405" y="-18" type="curve"/>
			<point x="405" y="-14"/>
			<point x="406" y="-8"/>
			<point x="406" y="-1" type="curve"/>
			<point x="405" y="2"/>
			<point x="403" y="8"/>
			<point x="403" y="13" type="curve"/>
			<point x="400" y="19"/>
			<point x="403" y="28"/>
			<point x="403" y="35" type="curve" smooth="yes"/>
			<point x="403" y="36"/>
			<point x="399" y="40"/>
			<point x="403" y="41" type="curve"/>
			<point x="406" y="41"/>
			<point x="405" y="39"/>
			<point x="406" y="36" type="curve"/>
			<point x="405" y="19"/>
			<point x="412" y="2"/>
			<point x="407" y="-10" type="curve"/>
			<point x="413" y="-10"/>
			<point x="412" y="-14"/>
			<point x="418" y="-12" type="curve"/>
			<point x="422" y="-6"/>
			<point x="416" y="0"/>
			<point x="416" y="8" type="curve"/>
			<point x="421" y="8"/>
			<point x="416" y="14"/>
			<point x="421" y="14" type="curve"/>
			<point x="418" y="28"/>
			<point x="413" y="47"/>
			<point x="415" y="63" type="curve"/>
			<point x="415" y="66"/>
			<point x="416" y="69"/>
			<point x="421" y="74" type="curve"/>
			<point x="422" y="80"/>
			<point x="415" y="76"/>
			<point x="415" y="82" type="curve"/>
			<point x="418" y="82"/>
			<point x="418" y="85"/>
			<point x="418" y="90" type="curve"/>
			<point x="424" y="91"/>
			<point x="424" y="96"/>
			<point x="431" y="96" type="curve"/>
			<point x="431" y="105" type="line"/>
			<point x="432" y="107"/>
			<point x="437" y="112"/>
			<point x="437" y="113" type="curve" smooth="yes"/>
			<point x="437" y="116"/>
			<point x="440" y="116"/>
			<point x="440" y="116" type="curve"/>
			<point x="441" y="118"/>
			<point x="440" y="123"/>
			<point x="441" y="127" type="curve"/>
			<point x="442" y="129"/>
			<point x="445" y="127"/>
			<point x="446" y="129" type="curve"/>
			<point x="446" y="132"/>
			<point x="446" y="131"/>
			<point x="448" y="131" type="curve"/>
			<point x="452" y="136"/>
			<point x="446" y="134"/>
			<point x="450" y="138" type="curve" smooth="yes"/>
			<point x="453" y="141"/>
			<point x="455" y="134"/>
			<point x="457" y="139" type="curve"/>
			<point x="448" y="139"/>
			<point x="462" y="147"/>
			<point x="453" y="148" type="curve"/>
			<point x="457" y="149"/>
			<point x="457" y="157"/>
			<point x="461" y="156" type="curve"/>
			<point x="462" y="156"/>
			<point x="461" y="149"/>
			<point x="462" y="152" type="curve"/>
			<point x="466" y="157"/>
			<point x="463" y="167"/>
			<point x="474" y="166" type="curve"/>
			<point x="474" y="172"/>
			<point x="477" y="176"/>
			<point x="478" y="179" type="curve" smooth="yes"/>
			<point x="479" y="182"/>
			<point x="478" y="184"/>
			<point x="479" y="190" type="curve"/>
			<point x="483" y="193" type="line"/>
			<point x="485" y="198"/>
			<point x="483" y="200"/>
			<point x="485" y="205" type="curve"/>
			<point x="488" y="208" type="line"/>
			<point x="489" y="215"/>
			<point x="488" y="218"/>
			<point x="489" y="220" type="curve"/>
			<point x="494" y="225"/>
			<point x="494" y="232"/>
			<point x="495" y="234" type="curve"/>
			<point x="498" y="241"/>
			<point x="498" y="251"/>
			<point x="499" y="259" type="curve"/>
			<point x="499" y="262"/>
			<point x="499" y="262"/>
			<point x="503" y="265" type="curve"/>
			<point x="504" y="272"/>
			<point x="504" y="281"/>
			<point x="504" y="288" type="curve"/>
			<point x="506" y="290"/>
			<point x="506" y="290"/>
			<point x="507" y="292" type="curve"/>
			<point x="507" y="306"/>
			<point x="506" y="317"/>
			<point x="507" y="331" type="curve"/>
			<point x="507" y="333"/>
			<point x="510" y="333"/>
			<point x="510" y="337" type="curve"/>
			<point x="512" y="344"/>
			<point x="510" y="352"/>
			<point x="512" y="359" type="curve"/>
			<point x="512" y="362"/>
			<point x="513" y="362"/>
			<point x="513" y="364" type="curve"/>
			<point x="514" y="380"/>
			<point x="513" y="398"/>
			<point x="512" y="408" type="curve"/>
			<point x="510" y="415"/>
			<point x="512" y="424"/>
			<point x="510" y="433" type="curve"/>
			<point x="510" y="435"/>
			<point x="507" y="439"/>
			<point x="506" y="440" type="curve"/>
			<point x="506" y="444"/>
			<point x="507" y="447"/>
			<point x="506" y="450" type="curve"/>
			<point x="506" y="457"/>
			<point x="503" y="462"/>
			<point x="499" y="470" type="curve"/>
			<point x="499" y="472"/>
			<point x="503" y="475"/>
			<point x="498" y="478" type="curve"/>
			<point x="498" y="481" type="line" smooth="yes"/>
			<point x="498" y="483"/>
			<point x="495" y="483"/>
			<point x="497" y="487" type="curve"/>
			<point x="495" y="487"/>
			<point x="497" y="490"/>
			<point x="495" y="493" type="curve"/>
			<point x="494" y="494"/>
			<point x="488" y="493"/>
			<point x="489" y="496" type="curve"/>
			<point x="487" y="503"/>
			<point x="492" y="505"/>
			<point x="485" y="506" type="curve"/>
			<point x="485" y="505"/>
			<point x="485" y="503"/>
			<point x="483" y="503" type="curve"/>
			<point x="488" y="517"/>
			<point x="469" y="515"/>
			<point x="477" y="526" type="curve"/>
			<point x="474" y="529"/>
			<point x="466" y="526"/>
			<point x="467" y="531" type="curve"/>
			<point x="463" y="532"/>
			<point x="463" y="529"/>
			<point x="462" y="528" type="curve"/>
			<point x="463" y="537"/>
			<point x="453" y="534"/>
			<point x="450" y="537" type="curve"/>
			<point x="448" y="537"/>
			<point x="448" y="539"/>
			<point x="448" y="539" type="curve"/>
			<point x="446" y="542"/>
			<point x="445" y="539"/>
			<point x="442" y="539" type="curve"/>
			<point x="440" y="547" type="line"/>
			<point x="436" y="549"/>
			<point x="430" y="544"/>
			<point x="431" y="553" type="curve"/>
			<point x="424" y="553"/>
			<point x="418" y="553"/>
			<point x="413" y="552" type="curve"/>
			<point x="412" y="553"/>
			<point x="405" y="555"/>
			<point x="403" y="555" type="curve"/>
			<point x="403" y="555"/>
			<point x="403" y="553"/>
			<point x="400" y="553" type="curve" smooth="yes"/>
			<point x="399" y="553"/>
			<point x="400" y="555"/>
			<point x="399" y="555" type="curve" smooth="yes"/>
			<point x="397" y="555"/>
			<point x="396" y="552"/>
			<point x="391" y="553" type="curve"/>
			<point x="387" y="552"/>
			<point x="383" y="552"/>
			<point x="379" y="553" type="curve"/>
			<point x="376" y="552"/>
			<point x="374" y="549"/>
			<point x="371" y="549" type="curve"/>
			<point x="373" y="544"/>
			<point x="371" y="543"/>
			<point x="369" y="543" type="curve"/>
			<point x="369" y="547"/>
			<point x="361" y="543"/>
			<point x="361" y="548" type="curve"/>
			<point x="363" y="548"/>
			<point x="365" y="548"/>
			<point x="365" y="549" type="curve"/>
			<point x="358" y="553"/>
			<point x="361" y="544"/>
			<point x="358" y="544" type="curve" smooth="yes"/>
			<point x="353" y="544"/>
			<point x="349" y="544"/>
			<point x="345" y="543" type="curve"/>
			<point x="344" y="542"/>
			<point x="345" y="538"/>
			<point x="344" y="537" type="curve"/>
			<point x="342" y="534"/>
			<point x="338" y="537"/>
			<point x="337" y="532" type="curve"/>
			<point x="340" y="531"/>
			<point x="340" y="529"/>
			<point x="340" y="523" type="curve"/>
			<point x="337" y="526"/>
			<point x="337" y="522"/>
			<point x="337" y="519" type="curve"/>
			<point x="333" y="519"/>
			<point x="329" y="517"/>
			<point x="328" y="515" type="curve"/>
			<point x="337" y="512"/>
			<point x="324" y="512"/>
			<point x="328" y="503" type="curve"/>
			<point x="328" y="502"/>
			<point x="320" y="497"/>
			<point x="323" y="494" type="curve"/>
			<point x="324" y="494" type="line" smooth="yes"/>
			<point x="324" y="494"/>
			<point x="319" y="488"/>
			<point x="319" y="488" type="curve"/>
			<point x="319" y="486"/>
			<point x="317" y="487"/>
			<point x="317" y="486" type="curve"/>
			<point x="315" y="481"/>
			<point x="319" y="470"/>
			<point x="308" y="470" type="curve"/>
			<point x="308" y="462"/>
			<point x="307" y="460"/>
			<point x="307" y="456" type="curve" smooth="yes"/>
			<point x="307" y="454"/>
			<point x="308" y="454"/>
			<point x="308" y="454" type="curve"/>
			<point x="308" y="452"/>
			<point x="305" y="450"/>
			<point x="307" y="447" type="curve"/>
			<point x="307" y="447"/>
			<point x="313" y="447"/>
			<point x="309" y="444" type="curve"/>
			<point x="305" y="444"/>
			<point x="304" y="444"/>
			<point x="301" y="440" type="curve"/>
			<point x="307" y="439"/>
			<point x="299" y="435"/>
			<point x="301" y="430" type="curve"/>
			<point x="301" y="425"/>
			<point x="298" y="428"/>
			<point x="298" y="425" type="curve"/>
			<point x="304" y="424"/>
			<point x="305" y="421"/>
			<point x="307" y="418" type="curve"/>
			<point x="305" y="418"/>
			<point x="299" y="418"/>
			<point x="299" y="415" type="curve"/>
			<point x="305" y="413"/>
			<point x="301" y="410"/>
			<point x="301" y="404" type="curve"/>
			<point x="307" y="404"/>
			<point x="307" y="396"/>
			<point x="305" y="395" type="curve"/>
			<point x="313" y="395"/>
			<point x="313" y="388"/>
			<point x="305" y="388" type="curve"/>
			<point x="309" y="358"/>
			<point x="308" y="323"/>
			<point x="308" y="288" type="curve"/>
			<point x="309" y="284"/>
			<point x="314" y="281"/>
			<point x="314" y="278" type="curve"/>
			<point x="315" y="275"/>
			<point x="313" y="275"/>
			<point x="313" y="274" type="curve"/>
			<point x="314" y="274" type="line"/>
			<point x="317" y="271"/>
			<point x="317" y="264"/>
			<point x="315" y="260" type="curve"/>
			<point x="315" y="255"/>
			<point x="314" y="255"/>
			<point x="315" y="254" type="curve"/>
			<point x="315" y="250" type="line"/>
			<point x="317" y="243"/>
			<point x="317" y="241"/>
			<point x="317" y="237" type="curve" smooth="yes"/>
			<point x="317" y="229" type="line" smooth="yes"/>
			<point x="317" y="225"/>
			<point x="320" y="225"/>
			<point x="320" y="221" type="curve"/>
			<point x="320" y="224"/>
			<point x="319" y="220"/>
			<point x="319" y="218" type="curve"/>
			<point x="320" y="218" type="line" smooth="yes"/>
			<point x="320" y="218"/>
			<point x="320" y="215"/>
			<point x="320" y="215" type="curve"/>
			<point x="320" y="206"/>
			<point x="323" y="205"/>
			<point x="323" y="200" type="curve"/>
			<point x="324" y="192"/>
			<point x="323" y="182"/>
			<point x="324" y="174" type="curve"/>
			<point x="324" y="173"/>
			<point x="328" y="172"/>
			<point x="328" y="167" type="curve" smooth="yes"/>
			<point x="328" y="158"/>
			<point x="328" y="149"/>
			<point x="319" y="144" type="curve"/>
			<point x="317" y="144"/>
			<point x="317" y="147"/>
			<point x="314" y="147" type="curve"/>
			<point x="314" y="139"/>
			<point x="304" y="143"/>
			<point x="301" y="143" type="curve" smooth="yes"/>
			<point x="299" y="143"/>
			<point x="298" y="144"/>
			<point x="298" y="144" type="curve"/>
			<point x="297" y="144"/>
			<point x="295" y="143"/>
			<point x="292" y="143" type="curve"/>
			<point x="291" y="144" type="line"/>
			<point x="282" y="148"/>
			<point x="273" y="148"/>
			<point x="266" y="149" type="curve"/>
			<point x="266" y="154"/>
			<point x="265" y="157"/>
			<point x="263" y="158" type="curve"/>
			<point x="262" y="156"/>
			<point x="260" y="154"/>
			<point x="256" y="156" type="curve"/>
			<point x="255" y="161"/>
			<point x="251" y="157"/>
			<point x="246" y="158" type="curve"/>
			<point x="246" y="158"/>
			<point x="247" y="163"/>
			<point x="246" y="163" type="curve"/>
			<point x="246" y="164"/>
			<point x="242" y="163"/>
			<point x="242" y="163" type="curve"/>
			<point x="241" y="166"/>
			<point x="238" y="163"/>
			<point x="233" y="166" type="curve"/>
			<point x="232" y="166"/>
			<point x="232" y="172"/>
			<point x="230" y="172" type="curve"/>
			<point x="226" y="173"/>
			<point x="223" y="172"/>
			<point x="220" y="172" type="curve"/>
			<point x="220" y="182"/>
			<point x="209" y="180"/>
			<point x="205" y="182" type="curve"/>
			<point x="205" y="183"/>
			<point x="200" y="184"/>
			<point x="200" y="188" type="curve"/>
			<point x="199" y="189"/>
			<point x="199" y="190"/>
			<point x="196" y="190" type="curve"/>
			<point x="197" y="190"/>
			<point x="191" y="189"/>
			<point x="190" y="190" type="curve"/>
			<point x="190" y="193"/>
			<point x="191" y="193"/>
			<point x="191" y="198" type="curve"/>
			<point x="184" y="196"/>
			<point x="189" y="203"/>
			<point x="184" y="203" type="curve"/>
			<point x="181" y="205"/>
			<point x="180" y="208"/>
			<point x="177" y="209" type="curve"/>
			<point x="175" y="210"/>
			<point x="174" y="210"/>
			<point x="173" y="214" type="curve"/>
			<point x="171" y="215"/>
			<point x="171" y="218"/>
			<point x="171" y="220" type="curve"/>
			<point x="167" y="221"/>
			<point x="163" y="221"/>
			<point x="163" y="226" type="curve"/>
			<point x="164" y="230"/>
			<point x="156" y="234"/>
			<point x="156" y="239" type="curve"/>
			<point x="155" y="241"/>
			<point x="156" y="243"/>
			<point x="156" y="245" type="curve" smooth="yes"/>
			<point x="156" y="246"/>
			<point x="154" y="245"/>
			<point x="150" y="246" type="curve"/>
			<point x="150" y="250"/>
			<point x="150" y="255"/>
			<point x="149" y="259" type="curve"/>
			<point x="149" y="260"/>
			<point x="146" y="262"/>
			<point x="146" y="262" type="curve"/>
			<point x="146" y="265" type="line"/>
			<point x="143" y="272"/>
			<point x="143" y="274"/>
			<point x="144" y="280" type="curve"/>
			<point x="143" y="280"/>
			<point x="139" y="280"/>
			<point x="139" y="282" type="curve"/>
			<point x="138" y="288"/>
			<point x="143" y="288"/>
			<point x="143" y="291" type="curve"/>
			<point x="134" y="292"/>
			<point x="140" y="308"/>
			<point x="143" y="311" type="curve"/>
			<point x="135" y="311"/>
			<point x="139" y="323"/>
			<point x="139" y="327" type="curve" smooth="yes"/>
			<point x="139" y="332"/>
			<point x="138" y="336"/>
			<point x="138" y="337" type="curve"/>
			<point x="143" y="338" type="line"/>
			<point x="143" y="341"/>
			<point x="140" y="341"/>
			<point x="140" y="341" type="curve"/>
			<point x="139" y="344"/>
			<point x="143" y="342"/>
			<point x="143" y="344" type="curve" smooth="yes"/>
			<point x="143" y="349" type="line" smooth="yes"/>
			<point x="143" y="353"/>
			<point x="144" y="354"/>
			<point x="143" y="356" type="curve"/>
			<point x="143" y="359" type="line" smooth="yes"/>
			<point x="143" y="362"/>
			<point x="140" y="362"/>
			<point x="140" y="363" type="curve" smooth="yes"/>
			<point x="140" y="369"/>
			<point x="146" y="369"/>
			<point x="146" y="372" type="curve"/>
			<point x="139" y="370"/>
			<point x="139" y="378"/>
			<point x="138" y="380" type="curve"/>
			<point x="135" y="398"/>
			<point x="139" y="423"/>
			<point x="139" y="436" type="curve"/>
			<point x="138" y="445"/>
			<point x="138" y="441"/>
			<point x="139" y="445" type="curve"/>
			<point x="139" y="450" type="line" smooth="yes"/>
			<point x="139" y="460"/>
			<point x="139" y="462"/>
			<point x="143" y="466" type="curve"/>
			<point x="140" y="466"/>
			<point x="138" y="466"/>
			<point x="138" y="468" type="curve"/>
			<point x="140" y="475"/>
			<point x="135" y="475"/>
			<point x="139" y="480" type="curve"/>
			<point x="138" y="481"/>
			<point x="135" y="483"/>
			<point x="135" y="487" type="curve"/>
			<point x="143" y="487"/>
			<point x="130" y="494"/>
			<point x="139" y="493" type="curve"/>
			<point x="138" y="497"/>
			<point x="139" y="505"/>
			<point x="138" y="512" type="curve"/>
			<point x="138" y="519"/>
			<point x="130" y="529"/>
			<point x="139" y="528" type="curve"/>
			<point x="139" y="531"/>
			<point x="135" y="534"/>
			<point x="134" y="538" type="curve"/>
			<point x="134" y="542"/>
			<point x="135" y="547"/>
			<point x="135" y="552" type="curve"/>
			<point x="134" y="555"/>
			<point x="130" y="555"/>
			<point x="130" y="559" type="curve"/>
			<point x="130" y="557"/>
			<point x="132" y="560"/>
			<point x="134" y="562" type="curve"/>
			<point x="134" y="587" type="line" smooth="yes"/>
			<point x="134" y="589"/>
			<point x="135" y="588"/>
			<point x="134" y="589" type="curve"/>
			<point x="132" y="593"/>
			<point x="135" y="595"/>
			<point x="135" y="595" type="curve"/>
			<point x="135" y="598" type="line"/>
			<point x="138" y="605"/>
			<point x="138" y="610"/>
			<point x="139" y="613" type="curve"/>
			<point x="139" y="616"/>
			<point x="138" y="619"/>
			<point x="139" y="621" type="curve"/>
			<point x="139" y="625"/>
			<point x="143" y="627"/>
			<point x="144" y="629" type="curve"/>
			<point x="140" y="637"/>
			<point x="148" y="640"/>
			<point x="149" y="647" type="curve"/>
			<point x="148" y="647"/>
			<point x="146" y="647"/>
			<point x="146" y="650" type="curve"/>
			<point x="148" y="650"/>
			<point x="148" y="652"/>
			<point x="149" y="652" type="curve"/>
			<point x="150" y="655"/>
			<point x="154" y="656"/>
			<point x="154" y="658" type="curve"/>
			<point x="154" y="656"/>
			<point x="150" y="660"/>
			<point x="155" y="661" type="curve"/>
			<point x="158" y="661"/>
			<point x="154" y="665"/>
			<point x="156" y="665" type="curve"/>
			<point x="156" y="663"/>
			<point x="158" y="660"/>
			<point x="163" y="660" type="curve"/>
			<point x="164" y="669"/>
			<point x="159" y="672"/>
			<point x="158" y="677" type="curve"/>
			<point x="156" y="677"/>
			<point x="155" y="677"/>
			<point x="155" y="676" type="curve"/>
			<point x="154" y="676"/>
			<point x="150" y="677"/>
			<point x="154" y="677" type="curve"/>
			<point x="149" y="677"/>
			<point x="148" y="676"/>
			<point x="146" y="677" type="curve"/>
			<point x="146" y="685"/>
			<point x="143" y="686"/>
			<point x="144" y="695" type="curve"/>
			<point x="139" y="695"/>
			<point x="138" y="696"/>
			<point x="135" y="697" type="curve"/>
			<point x="135" y="701"/>
			<point x="139" y="702"/>
			<point x="139" y="703" type="curve"/>
			<point x="138" y="703"/>
			<point x="134" y="702"/>
			<point x="134" y="705" type="curve" smooth="yes"/>
			<point x="134" y="708"/>
			<point x="130" y="708"/>
			<point x="130" y="709" type="curve"/>
			<point x="132" y="709"/>
			<point x="134" y="712"/>
			<point x="135" y="713" type="curve"/>
			<point x="132" y="717"/>
			<point x="127" y="713"/>
			<point x="125" y="718" type="curve"/>
			<point x="123" y="718"/>
			<point x="125" y="721"/>
			<point x="125" y="721" type="curve"/>
			<point x="122" y="725"/>
			<point x="114" y="721"/>
			<point x="114" y="728" type="curve"/>
			<point x="104" y="728" type="line"/>
			<point x="104" y="732"/>
			<point x="102" y="734"/>
			<point x="101" y="735" type="curve"/>
			<point x="101" y="734"/>
			<point x="98" y="732"/>
			<point x="98" y="735" type="curve" smooth="yes"/>
			<point x="98" y="739"/>
			<point x="89" y="735"/>
			<point x="89" y="735" type="curve"/>
			<point x="86" y="737"/>
			<point x="85" y="739"/>
			<point x="83" y="744" type="curve"/>
			<point x="83" y="732"/>
			<point x="67" y="738"/>
			<point x="66" y="735" type="curve"/>
			<point x="72" y="735"/>
			<point x="62" y="732"/>
			<point x="66" y="728" type="curve"/>
			<point x="57" y="728"/>
			<point x="57" y="719"/>
			<point x="51" y="718" type="curve"/>
			<point x="47" y="712"/>
			<point x="45" y="717"/>
			<point x="41" y="713" type="curve"/>
			<point x="37" y="711"/>
			<point x="37" y="708"/>
			<point x="35" y="705" type="curve"/>
			<point x="35" y="681"/>
			<point x="30" y="661"/>
			<point x="30" y="636" type="curve"/>
			<point x="31" y="636"/>
			<point x="32" y="636"/>
			<point x="32" y="634" type="curve" smooth="yes"/>
			<point x="32" y="627"/>
			<point x="30" y="627"/>
			<point x="32" y="623" type="curve"/>
			<point x="36" y="620"/>
			<point x="32" y="614"/>
			<point x="36" y="611" type="curve"/>
			<point x="36" y="609" type="line" smooth="yes"/>
			<point x="36" y="605"/>
			<point x="40" y="604"/>
			<point x="40" y="603" type="curve"/>
			<point x="42" y="598"/>
			<point x="42" y="598"/>
			<point x="41" y="597" type="curve" smooth="yes"/>
			<point x="37" y="593"/>
			<point x="41" y="589"/>
			<point x="41" y="587" type="curve"/>
			<point x="42" y="585"/>
			<point x="41" y="580"/>
			<point x="41" y="578" type="curve"/>
			<point x="42" y="573"/>
			<point x="47" y="574"/>
			<point x="42" y="573" type="curve"/>
			<point x="41" y="570"/>
			<point x="45" y="570"/>
			<point x="45" y="570" type="curve"/>
			<point x="47" y="569"/>
			<point x="42" y="568"/>
			<point x="42" y="565" type="curve" smooth="yes"/>
			<point x="42" y="560" type="line"/>
			<point x="45" y="559"/>
			<point x="47" y="555"/>
			<point x="50" y="553" type="curve"/>
			<point x="40" y="552"/>
			<point x="48" y="543"/>
			<point x="48" y="538" type="curve"/>
			<point x="51" y="534"/>
			<point x="56" y="532"/>
			<point x="58" y="529" type="curve"/>
			<point x="58" y="526"/>
			<point x="57" y="526"/>
			<point x="57" y="523" type="curve"/>
			<point x="58" y="523"/>
			<point x="60" y="523"/>
			<point x="62" y="526" type="curve"/>
			<point x="62" y="522"/>
			<point x="58" y="521"/>
			<point x="58" y="517" type="curve"/>
			<point x="60" y="517" type="line"/>
			<point x="66" y="512"/>
			<point x="60" y="512"/>
			<point x="60" y="506" type="curve" smooth="yes"/>
			<point x="60" y="505"/>
			<point x="62" y="505"/>
			<point x="62" y="502" type="curve" smooth="yes"/>
			<point x="62" y="497"/>
			<point x="60" y="497"/>
			<point x="60" y="494" type="curve" smooth="yes"/>
			<point x="60" y="490"/>
			<point x="62" y="490"/>
			<point x="62" y="486" type="curve"/>
			<point x="62" y="486"/>
			<point x="56" y="483"/>
			<point x="60" y="481" type="curve"/>
			<point x="60" y="483"/>
			<point x="62" y="483"/>
			<point x="62" y="481" type="curve" smooth="yes"/>
			<point x="62" y="478"/>
			<point x="56" y="480"/>
			<point x="56" y="477" type="curve"/>
			<point x="58" y="475"/>
			<point x="56" y="472"/>
			<point x="56" y="471" type="curve" smooth="yes"/>
			<point x="56" y="470"/>
			<point x="53" y="470"/>
			<point x="53" y="470" type="curve"/>
			<point x="51" y="466"/>
			<point x="53" y="460"/>
			<point x="53" y="454" type="curve"/>
			<point x="56" y="454"/>
			<point x="58" y="454"/>
			<point x="58" y="452" type="curve"/>
			<point x="57" y="447"/>
			<point x="53" y="449"/>
			<point x="57" y="445" type="curve"/>
			<point x="57" y="445"/>
			<point x="53" y="440"/>
			<point x="56" y="436" type="curve"/>
			<point x="56" y="435"/>
			<point x="58" y="436"/>
			<point x="58" y="435" type="curve"/>
			<point x="56" y="433" type="line" smooth="yes"/>
			<point x="48" y="425"/>
			<point x="53" y="410"/>
			<point x="53" y="399" type="curve" smooth="yes"/>
			<point x="53" y="390"/>
			<point x="56" y="380"/>
			<point x="56" y="374" type="curve"/>
			<point x="57" y="362"/>
			<point x="58" y="349"/>
			<point x="60" y="336" type="curve"/>
			<point x="62" y="327"/>
			<point x="62" y="316"/>
			<point x="64" y="313" type="curve"/>
			<point x="64" y="311" type="line" smooth="yes"/>
			<point x="64" y="308"/>
			<point x="66" y="308"/>
			<point x="66" y="308" type="curve"/>
			<point x="68" y="300"/>
			<point x="67" y="290"/>
			<point x="68" y="281" type="curve"/>
			<point x="73" y="281"/>
			<point x="74" y="278"/>
			<point x="74" y="275" type="curve"/>
			<point x="72" y="271"/>
			<point x="76" y="266"/>
			<point x="73" y="264" type="curve"/>
			<point x="74" y="264"/>
			<point x="77" y="264"/>
			<point x="81" y="260" type="curve"/>
			<point x="81" y="259"/>
			<point x="76" y="256"/>
			<point x="76" y="255" type="curve"/>
			<point x="82" y="254" type="line"/>
			<point x="82" y="251"/>
			<point x="77" y="250"/>
			<point x="77" y="248" type="curve"/>
			<point x="81" y="248"/>
			<point x="82" y="248"/>
			<point x="83" y="246" type="curve"/>
			<point x="86" y="243"/>
			<point x="82" y="241"/>
			<point x="83" y="239" type="curve"/>
			<point x="83" y="237"/>
			<point x="86" y="237"/>
			<point x="85" y="234" type="curve"/>
			<point x="89" y="234"/>
			<point x="89" y="237"/>
			<point x="91" y="237" type="curve"/>
			<point x="91" y="235"/>
			<point x="92" y="234"/>
			<point x="92" y="232" type="curve"/>
			<point x="89" y="232"/>
			<point x="86" y="230"/>
			<point x="86" y="229" type="curve"/>
			<point x="92" y="226"/>
			<point x="86" y="221"/>
			<point x="86" y="220" type="curve"/>
			<point x="92" y="216"/>
			<point x="92" y="209"/>
			<point x="93" y="200" type="curve"/>
			<point x="96" y="203"/>
			<point x="98" y="200"/>
			<point x="98" y="199" type="curve"/>
			<point x="99" y="198"/>
			<point x="101" y="196"/>
			<point x="102" y="196" type="curve"/>
			<point x="102" y="183"/>
			<point x="111" y="182"/>
			<point x="113" y="173" type="curve"/>
			<point x="117" y="169"/>
			<point x="122" y="167"/>
			<point x="123" y="164" type="curve"/>
			<point x="119" y="158"/>
			<point x="123" y="161"/>
			<point x="125" y="157" type="curve"/>
			<point x="127" y="156"/>
			<point x="127" y="154"/>
			<point x="127" y="152" type="curve"/>
			<point x="130" y="148"/>
			<point x="130" y="143"/>
			<point x="134" y="141" type="curve"/>
			<point x="139" y="141"/>
			<point x="139" y="144"/>
			<point x="144" y="144" type="curve"/>
			<point x="140" y="139"/>
			<point x="148" y="138"/>
			<point x="149" y="134" type="curve"/>
			<point x="150" y="131"/>
			<point x="146" y="132"/>
			<point x="149" y="131" type="curve"/>
			<point x="149" y="126" type="line"/>
			<point x="149" y="126"/>
			<point x="150" y="127"/>
			<point x="150" y="126" type="curve" smooth="yes"/>
			<point x="150" y="122" type="line" smooth="yes"/>
			<point x="150" y="121"/>
			<point x="155" y="121"/>
			<point x="155" y="118" type="curve"/>
			<point x="164" y="118"/>
			<point x="164" y="116"/>
			<point x="168" y="117" type="curve"/>
			<point x="174" y="105"/>
			<point x="168" y="92"/>
			<point x="167" y="80" type="curve"/>
			<point x="165" y="75"/>
			<point x="167" y="69"/>
			<point x="165" y="65" type="curve"/>
			<point x="165" y="55" type="line"/>
			<point x="168" y="45"/>
			<point x="164" y="28"/>
			<point x="163" y="26" type="curve"/>
			<point x="159" y="24"/>
			<point x="159" y="19"/>
			<point x="158" y="18" type="curve" smooth="yes"/>
			<point x="155" y="15"/>
			<point x="150" y="14"/>
			<point x="146" y="13" type="curve"/>
			<point x="149" y="2"/>
			<point x="146" y="0"/>
			<point x="146" y="-12" type="curve"/>
			<point x="148" y="-14"/>
			<point x="149" y="-17"/>
			<point x="149" y="-22" type="curve"/>
			<point x="150" y="-27"/>
			<point x="150" y="-31"/>
			<point x="149" y="-33" type="curve"/>
			<point x="148" y="-39"/>
			<point x="150" y="-42"/>
			<point x="150" y="-46" type="curve"/>
			<point x="154" y="-63"/>
			<point x="144" y="-67"/>
			<point x="146" y="-80" type="curve"/>
			<point x="144" y="-80"/>
			<point x="144" y="-84"/>
			<point x="144" y="-85" type="curve"/>
			<point x="139" y="-88"/>
			<point x="138" y="-90"/>
			<point x="138" y="-98" type="curve"/>
			<point x="148" y="-100"/>
			<point x="148" y="-93"/>
			<point x="149" y="-88" type="curve"/>
			<point x="155" y="-80"/>
			<point x="155" y="-69"/>
			<point x="156" y="-68" type="curve"/>
			<point x="156" y="-64" type="line" smooth="yes"/>
			<point x="156" y="-63"/>
			<point x="158" y="-64"/>
			<point x="158" y="-64" type="curve"/>
			<point x="159" y="-63"/>
			<point x="159" y="-48"/>
			<point x="159" y="-48" type="curve"/>
			<point x="159" y="-46"/>
			<point x="163" y="-46"/>
			<point x="163" y="-46" type="curve"/>
			<point x="163" y="-42"/>
			<point x="159" y="-41"/>
			<point x="159" y="-36" type="curve" smooth="yes"/>
			<point x="159" y="-33"/>
			<point x="163" y="-33"/>
			<point x="163" y="-31" type="curve"/>
			<point x="163" y="-31"/>
			<point x="159" y="-27"/>
			<point x="159" y="-26" type="curve"/>
			<point x="156" y="-16"/>
			<point x="164" y="-6"/>
			<point x="159" y="3" type="curve"/>
			<point x="165" y="3"/>
			<point x="165" y="10"/>
			<point x="168" y="13" type="curve"/>
			<point x="168" y="18"/>
			<point x="167" y="15"/>
			<point x="168" y="19" type="curve"/>
			<point x="171" y="20"/>
			<point x="171" y="23"/>
			<point x="171" y="26" type="curve"/>
			<point x="173" y="28"/>
			<point x="173" y="26"/>
			<point x="174" y="28" type="curve"/>
			<point x="177" y="33"/>
			<point x="173" y="31"/>
			<point x="174" y="36" type="curve"/>
			<point x="174" y="35"/>
			<point x="175" y="39"/>
			<point x="175" y="39" type="curve"/>
			<point x="180" y="40"/>
			<point x="177" y="47"/>
			<point x="177" y="51" type="curve" smooth="yes"/>
			<point x="177" y="59"/>
			<point x="175" y="59"/>
			<point x="177" y="60" type="curve"/>
			<point x="180" y="60"/>
			<point x="177" y="65"/>
			<point x="177" y="65" type="curve"/>
			<point x="180" y="72"/>
			<point x="181" y="72"/>
			<point x="181" y="76" type="curve" smooth="yes"/>
			<point x="181" y="80"/>
			<point x="177" y="81"/>
			<point x="180" y="82" type="curve"/>
			<point x="180" y="85"/>
			<point x="180" y="85"/>
			<point x="181" y="87" type="curve"/>
			<point x="184" y="92"/>
			<point x="183" y="100"/>
			<point x="190" y="101" type="curve"/>
			<point x="193" y="94" type="line"/>
			<point x="196" y="94"/>
			<point x="200" y="96"/>
			<point x="201" y="94" type="curve"/>
			<point x="205" y="91" type="line"/>
			<point x="205" y="90"/>
			<point x="207" y="91"/>
			<point x="207" y="91" type="curve"/>
			<point x="215" y="90"/>
			<point x="205" y="84"/>
			<point x="209" y="84" type="curve"/>
			<point x="210" y="87"/>
			<point x="217" y="82"/>
			<point x="220" y="81" type="curve"/>
			<point x="220" y="76"/>
			<point x="216" y="76"/>
			<point x="217" y="72" type="curve"/>
			<point x="221" y="72"/>
			<point x="223" y="69"/>
			<point x="221" y="65" type="curve"/>
			<point x="230" y="63"/>
			<point x="226" y="72"/>
			<point x="233" y="69" type="curve"/>
			<point x="232" y="63"/>
			<point x="237" y="63"/>
			<point x="237" y="59" type="curve"/>
			<point x="246" y="59"/>
			<point x="243" y="60"/>
			<point x="250" y="59" type="curve"/>
			<point x="250" y="56"/>
			<point x="251" y="56"/>
			<point x="251" y="55" type="curve"/>
			<point x="256" y="35"/>
			<point x="246" y="28"/>
			<point x="246" y="5" type="curve"/>
			<point x="242" y="2"/>
			<point x="238" y="-1"/>
			<point x="241" y="-10" type="curve"/>
			<point x="243" y="-10"/>
			<point x="243" y="-12"/>
			<point x="247" y="-12" type="curve"/>
			<point x="247" y="-8"/>
			<point x="247" y="-6"/>
			<point x="250" y="-1" type="curve"/>
			<point x="256" y="2"/>
			<point x="257" y="13"/>
			<point x="257" y="24" type="curve"/>
			<point x="265" y="31"/>
			<point x="263" y="41"/>
			<point x="266" y="51" type="curve"/>
			<point x="271" y="50"/>
			<point x="271" y="56"/>
			<point x="277" y="55" type="curve"/>
			<point x="268" y="47"/>
			<point x="289" y="49"/>
			<point x="291" y="49" type="curve"/>
			<point x="291" y="51"/>
			<point x="291" y="56"/>
			<point x="292" y="56" type="curve"/>
			<point x="298" y="55"/>
			<point x="297" y="59"/>
			<point x="301" y="59" type="curve"/>
			<point x="301" y="56"/>
			<point x="305" y="55"/>
			<point x="307" y="50" type="curve"/>
			<point x="308" y="49"/>
			<point x="309" y="44"/>
			<point x="315" y="45" type="curve"/>
			<point x="323" y="44"/>
			<point x="323" y="51"/>
			<point x="328" y="51" type="curve"/>
			<point x="328" y="49"/>
			<point x="333" y="49"/>
			<point x="334" y="47" type="curve"/>
			<point x="337" y="47"/>
			<point x="334" y="50"/>
			<point x="338" y="50" type="curve"/>
			<point x="337" y="44"/>
			<point x="342" y="44"/>
			<point x="337" y="40" type="curve"/>
			<point x="344" y="39"/>
			<point x="347" y="36"/>
			<point x="349" y="31" type="curve"/>
			<point x="347" y="31"/>
			<point x="345" y="31"/>
			<point x="345" y="28" type="curve"/>
			<point x="354" y="28"/>
			<point x="345" y="24"/>
			<point x="345" y="20" type="curve"/>
			<point x="349" y="19" type="line"/>
			<point x="349" y="19"/>
			<point x="350" y="15"/>
			<point x="350" y="15" type="curve"/>
			<point x="353" y="9"/>
			<point x="353" y="10"/>
			<point x="355" y="8" type="curve"/>
			<point x="353" y="-7"/>
			<point x="349" y="-32"/>
			<point x="353" y="-46" type="curve"/>
			<point x="349" y="-46"/>
			<point x="349" y="-43"/>
			<point x="345" y="-43" type="curve"/>
			<point x="344" y="-51"/>
			<point x="354" y="-46"/>
			<point x="354" y="-52" type="curve"/>
			<point x="350" y="-52"/>
			<point x="350" y="-49"/>
			<point x="349" y="-52" type="curve"/>
			<point x="355" y="-54"/>
			<point x="355" y="-64"/>
			<point x="355" y="-67" type="curve" smooth="yes"/>
			<point x="355" y="-68"/>
			<point x="353" y="-68"/>
			<point x="353" y="-68" type="curve"/>
			<point x="353" y="-72"/>
			<point x="355" y="-72"/>
			<point x="355" y="-75" type="curve"/>
			<point x="354" y="-79"/>
			<point x="350" y="-82"/>
			<point x="353" y="-88" type="curve"/>
			<point x="354" y="-93"/>
			<point x="359" y="-90"/>
			<point x="361" y="-96" type="curve"/>
			<point x="359" y="-98"/>
			<point x="353" y="-96"/>
			<point x="353" y="-99" type="curve"/>
			<point x="359" y="-99"/>
			<point x="363" y="-100"/>
			<point x="364" y="-105" type="curve"/>
			<point x="363" y="-107"/>
			<point x="359" y="-108"/>
			<point x="358" y="-109" type="curve"/>
			<point x="359" y="-114"/>
			<point x="369" y="-109"/>
			<point x="365" y="-115" type="curve"/>
			<point x="363" y="-114"/>
			<point x="355" y="-118"/>
			<point x="363" y="-121" type="curve"/>
			<point x="363" y="-117"/>
			<point x="365" y="-117"/>
			<point x="365" y="-121" type="curve" smooth="yes"/>
			<point x="365" y="-123"/>
			<point x="363" y="-123"/>
			<point x="364" y="-125" type="curve"/>
			<point x="361" y="-124"/>
			<point x="355" y="-124"/>
			<point x="355" y="-128" type="curve"/>
			<point x="359" y="-128"/>
			<point x="361" y="-130"/>
			<point x="364" y="-130" type="curve"/>
			<point x="365" y="-131"/>
			<point x="370" y="-133"/>
			<point x="371" y="-134" type="curve"/>
			<point x="371" y="-140"/>
			<point x="370" y="-143"/>
			<point x="371" y="-146" type="curve"/>
			<point x="376" y="-149"/>
			<point x="365" y="-150"/>
			<point x="371" y="-156" type="curve"/>
			<point x="371" y="-159" type="line"/>
			<point x="373" y="-166"/>
			<point x="373" y="-166"/>
			<point x="370" y="-162" type="curve"/>
			<point x="370" y="-170"/>
			<point x="374" y="-170"/>
			<point x="374" y="-175" type="curve"/>
			<point x="373" y="-175"/>
			<point x="370" y="-176"/>
			<point x="371" y="-180" type="curve"/>
			<point x="371" y="-183"/>
			<point x="376" y="-180"/>
			<point x="376" y="-183" type="curve"/>
			<point x="369" y="-182"/>
			<point x="376" y="-192"/>
			<point x="379" y="-195" type="curve"/>
			<point x="369" y="-197"/>
			<point x="379" y="-201"/>
			<point x="379" y="-205" type="curve"/>
			<point x="379" y="-205"/>
			<point x="374" y="-202"/>
			<point x="374" y="-205" type="curve"/>
			<point x="373" y="-206"/>
			<point x="374" y="-210"/>
			<point x="374" y="-212" type="curve"/>
			<point x="379" y="-213"/>
			<point x="379" y="-210"/>
			<point x="381" y="-210" type="curve"/>
			<point x="386" y="-215"/>
			<point x="383" y="-223"/>
			<point x="386" y="-225" type="curve" smooth="yes"/>
			<point x="389" y="-227"/>
			<point x="387" y="-231"/>
			<point x="387" y="-237" type="curve"/>
			<point x="389" y="-239"/>
			<point x="391" y="-241"/>
			<point x="391" y="-242" type="curve" smooth="yes"/>
			<point x="391" y="-245"/>
			<point x="387" y="-245"/>
			<point x="387" y="-248" type="curve"/>
			<point x="391" y="-248"/>
			<point x="391" y="-254"/>
			<point x="390" y="-257" type="curve"/>
			<point x="389" y="-257"/>
			<point x="389" y="-255"/>
			<point x="387" y="-255" type="curve"/>
			<point x="387" y="-258"/>
			<point x="390" y="-259"/>
			<point x="390" y="-263" type="curve" smooth="yes"/>
			<point x="390" y="-269"/>
			<point x="395" y="-273"/>
			<point x="390" y="-274" type="curve"/>
			<point x="389" y="-275"/>
			<point x="395" y="-287"/>
			<point x="395" y="-288" type="curve"/>
			<point x="395" y="-288"/>
			<point x="391" y="-290"/>
			<point x="391" y="-292" type="curve" smooth="yes"/>
			<point x="391" y="-294"/>
			<point x="395" y="-295"/>
			<point x="395" y="-297" type="curve" smooth="yes"/>
			<point x="395" y="-300"/>
			<point x="390" y="-300"/>
			<point x="395" y="-303" type="curve"/>
			<point x="395" y="-308" type="line" smooth="yes"/>
			<point x="395" y="-309"/>
			<point x="395" y="-311"/>
			<point x="396" y="-313" type="curve"/>
			<point x="396" y="-315"/>
			<point x="391" y="-315"/>
			<point x="391" y="-320" type="curve"/>
			<point x="400" y="-319"/>
			<point x="391" y="-324"/>
			<point x="391" y="-326" type="curve"/>
			<point x="396" y="-326"/>
			<point x="396" y="-329"/>
			<point x="397" y="-331" type="curve"/>
			<point x="399" y="-339" type="line"/>
			<point x="399" y="-341"/>
			<point x="400" y="-340"/>
			<point x="403" y="-341" type="curve"/>
			<point x="405" y="-341"/>
			<point x="406" y="-347"/>
			<point x="406" y="-349" type="curve" smooth="yes"/>
			<point x="406" y="-353"/>
			<point x="413" y="-350"/>
			<point x="413" y="-355" type="curve"/>
			<point x="415" y="-360"/>
			<point x="418" y="-365"/>
			<point x="416" y="-375" type="curve"/>
			<point x="424" y="-374"/>
			<point x="422" y="-377"/>
			<point x="427" y="-377" type="curve"/>
			<point x="432" y="-372"/>
			<point x="425" y="-369"/>
			<point x="432" y="-365" type="curve"/>
			<point x="436" y="-366"/>
			<point x="436" y="-372"/>
			<point x="436" y="-377" type="curve"/>
			<point x="441" y="-377"/>
			<point x="440" y="-381"/>
		</contour>
	</outline>
	<lib>
		<dict>
			<key>com.schriftgestaltung.Glyphs.lastChange</key>
			<string>2019-04-20 17:05:34 +0000</string>
			<key>public.markColor</key>
			<string>0.67,0.95,0.38,1</string>
		</dict>
	</lib>
</glyph>
